AbuDhabiAloula='https://vo-live.cdb.cdn.orange.com/Content/Channel/AbuDhabiChannel/HLS/index.m3u8'
AbuDhabiEmirates='https://vo-live.cdb.cdn.orange.com/Content/Channel/EmiratesChannel/HLS/index.m3u8'
AbuDhabiSports1='https://vo-live.cdb.cdn.orange.com/Content/Channel/AbuDhabiSportsChannel1/HLS/index.m3u8'
AbuDhabiSports2='https://vo-live.cdb.cdn.orange.com/Content/Channel/AbuDhabiSportsChannel2/HLS/index.m3u8'
AjmanTV='https://dacastmmd.mmdlive.lldns.net/dacastmmd/8eb0e912b49142d7a01d779c9374aba9/index.m3u8'
AlAanTV='https://shls-live-ak.akamaized.net/out/v1/dfbdea4c1bf149629764e58c6ff314c8/index.m3u8'
AlArabiya1='https://live.alarabiya.net/alarabiapublish/alarabiya.smil/playlist.m3u8'
AlArabiya2='https://mbc1-enc.edgenextcdn.net/out/v1/f5f319206ed740f9a831f2097c2ead23/index.m3u8'
AlArabiya='https://shls-live-ak.akamaized.net/out/v1/f5f319206ed740f9a831f2097c2ead23/index.m3u8'
AlArabiyaAlHadath='https://av.alarabiya.net/alarabiapublish/alhadath.smil/playlist.m3u8'
AlArabiyaBusiness1='https://alarabiya-business-ak.akamaized.net/out/v1/126027fa2f8c4d19be4551b77ec08cbb/index.m3u8'
AlArabiyaBusiness='https://live.alarabiya.net/alarabiapublish/aswaaq.smil/playlist.m3u8'
AlDafrahTVTV='https://dacastmmd.mmdlive.lldns.net/dacastmmd/51c522ae7fe944238261725786724f94/chunklist.m3u8'
AlHadathTV1='https://shls-hadath-prod-dub.shahid.net/out/v1/0e1a306399c346faac4226aa0858f99b/index.m3u8'
AlHadathTV='https://live.alarabiya.net/alarabiapublish/alhadath.smil/playlist.m3u8'
AlMashhad='https://bcovlive-a.akamaihd.net/20c3ca22be3c4f03b30afbf3c92cfd14/ap-south-1/6313884884001/playlist.m3u8'
AlQamarTV='https://pull-cdnw.anystream.uk/live/d84d4809018b100059f000f600000000/playlist.m3u8'
AlShallalTV='https://amg01480-alshallalfze-alshallal-ono-q0hfg.amagi.tv/playlist.m3u8'
AlSharqiyaMinKabla='https://svs.itworkscdn.net/kablatvlive/kabtv1.smil/playlist.m3u8'
AlWoustaTV='https://svs.itworkscdn.net/alwoustalive/alwoustatv.smil/playlist.m3u8'
AlYaumTV='https://ikomg1.s.llnwi.net/alyaum-tv/alyaum-tv.m3u8'
AlarabiyaPortrait='https://live.alarabiya.net/alarabiapublish/arabiav.smil/playlist.m3u8'
BaynounahTV='https://vo-live.cdb.cdn.orange.com/Content/Channel/Baynounah/HLS/index.m3u8'
CartoonNetworkArabia='https://shls-cartoon-net-prod-dub.shahid.net/out/v1/dc4aa87372374325a66be458f29eab0f/index.m3u8'
CitrussTV='https://d7km4gkevcbok.cloudfront.net/live/watch_720p30.m3u8'
DubaiOne='https://dminnvll.cdn.mangomolo.com/dubaione/smil:dubaione.stream.smil/playlist.m3u8'
DubaiRacing='https://dmisvthvll.cdn.mgmlcdn.com/events/smil:events.stream.smil/playlist.m3u8'
DubaiRacing2='https://dmithrvll.cdn.mangomolo.com/dubairacing/smil:dubairacing.smil/playlist.m3u8'
DubaiRacing3='https://dmithrvll.cdn.mangomolo.com/dubaimubasher/smil:dubaimubasher.smil/playlist.m3u8'
DubaiSports11='https://dmitnthfr.cdn.mgmlcdn.com/dubaisports/smil:dubaisports.stream.smil/chunklist.m3u8'
DubaiSports1='https://dmitnthvll.cdn.mangomolo.com/dubaisports/smil:dubaisports.stream.smil/chunklist.m3u8'
DubaiSports2='https://dmitwlvvll.cdn.mangomolo.com/dubaisportshd/smil:dubaisportshd.smil/index.m3u8'
DubaiSports3='https://dmitwlvvll.cdn.mangomolo.com/dubaisportshd5/smil:dubaisportshd5.smil/index.m3u8'
DubaiTV1='https://dmieigthvll.cdn.mgmlcdn.com/dubaitvht/smil:dubaitv.stream.smil/playlist.m3u8'
DubaiTV2='https://dmisxthvll.cdn.mgmlcdn.com/dubaitvht/smil:dubaitv.stream.smil/playlist.m3u8'
DubaiTV3='https://weyyak-live.akamaized.net/weyyak_dubai_tv/index.m3u8'
DubaiTV='http://210.210.155.37/uq2663/h/h152/index2.m3u8'
DubaiZaman='https://dmiffthvll.cdn.mangomolo.com/dubaizaman/smil:dubaizaman.stream.smil/playlist.m3u8'
FujairahTV='https://live.kwikmotion.com/fujairahlive/fujairah.smil/playlist.m3u8'
MajidTV='https://vo-live.cdb.cdn.orange.com/Content/Channel/MajidChildrenChannel/HLS/index.m3u8'
MBC11='https://d3o3cim6uzorb4.cloudfront.net/out/v1/0965e4d7deae49179172426cbfb3bc5e/index.m3u8'
MBC12='https://mbc1-enc.edgenextcdn.net/out/v1/0965e4d7deae49179172426cbfb3bc5e/index.m3u8'
MBC1='https://shls-live-ak.akamaized.net/out/v1/0965e4d7deae49179172426cbfb3bc5e/index.m3u8'
MBC1USA='https://shls-mbc1na-prod-dub.shahid.net/out/v1/84ab37e99d6e4b16b33c6600f94f6ccb/index.m3u8'
MBC3EUR='https://shls-mbc3-eur-prod-dub.shahid.net/out/v1/fce09dd6a967431a871efb3b8dec9f82/index.m3u8'
MBC3KSA='https://shls-mbc3-prod-dub.shahid.net/out/v1/d5bbe570e1514d3d9a142657d33d85e6/index.m3u8'
MBC41='https://mbc4-prod-dub-ak.akamaized.net/out/v1/c08681f81775496ab4afa2bac7ae7638/index.m3u8'
MBC4='https://shls-masr-ak.akamaized.net/out/v1/c08681f81775496ab4afa2bac7ae7638/index.m3u8'
MBC5='https://shls-mbc5-prod-dub.shahid.net/out/v1/2720564b6a4641658fdfb6884b160da2/index.m3u8'
MBCBollywood1='https://shls-mbcbollywood-prod-dub.shahid.net/out/v1/a79c9d7ef2a64a54a64d5c4567b3462a/index.m3u8'
MBCBollywood='https://shls-mbcdramaksa-ak.akamaized.net/out/v1/a79c9d7ef2a64a54a64d5c4567b3462a/index.m3u8'
MBCDramaKSA='https://mbc1-enc.edgenextcdn.net/out/v1/b0b3a0e6750d4408bb86d703d5feffd1/index.m3u8'
MBCDramaUSA='https://mbcdrama-usa-ak.akamaized.net/out/v1/876f960feec24a8aba9e9d3f9023174b/index.m3u8'
MBCFM='https://mbcfm-riyadh-prod-dub.shahid.net/out/v1/69c8a03f507e422f99cf5c07291c9e3a/index.m3u8'
MBCIraq='https://shls-iraq-prod-dub.shahid.net/out/v1/c9bf1e87ea66478bb20bc5c93c9d41ea/index.m3u8'
MBCMasr1='https://shls-masr-ak.akamaized.net/out/v1/d5036cabf11e45bf9d0db410ca135c18/index.m3u8'
MBCMasr1USA='https://masr-usa-ak.akamaized.net/out/v1/5fcaf05b5cd64b3cb4a969e0470080c8/index.m3u8'
MBCMasr2='https://shls-masr2-prod-dub.shahid.net/out/v1/f683685242b549f48ea8a5171e3e993a/index.m3u8'
MBCPersia='https://shls-mbcpersia-prod-dub.shahid.net/out/v1/bdc7cd0d990e4c54808632a52c396946/index.m3u8'
MBCPlusDrama='https://shls-mbcplusdrama-prod-dub.shahid.net/out/v1/97ca0ce6fc6142f4b14c0a694af59eab/index.m3u8'
NationalGeographicAbuDhabi='https://vo-live.cdb.cdn.orange.com/Content/Channel/NationalGeographicHDChannel/HLS/index.m3u8'
NoorDubai='https://dmiffthvll.cdn.mangomolo.com/noordubaitv/smil:noordubaitv.smil/playlist.m3u8'
NourTV='https://cdn.bestream.io:19360/elfaro4/elfaro4.m3u8'
PMC='https://hls.pmchd.live/hls/stream.m3u8'
SamaDubai='https://dmieigthvll.cdn.mgmlcdn.com/samadubaiht/smil:samadubai.stream.smil/playlist.m3u8'
Sharjah2='https://svs.itworkscdn.net/smc2live/smc2tv.smil/playlist.m3u8'
SharjahSportsTV='https://svs.itworkscdn.net/smc4sportslive/smc4.smil/playlist.m3u8'
SharjahTV='https://svs.itworkscdn.net/smc1live/smc1.smil/playlist.m3u8'
SkyNewsArabia1='https://stream.skynewsarabia.com/hls/sna.m3u8'
SkyNewsArabia='https://stream.skynewsarabia.com/vertical/vertical.m3u8'
UBL='http://150.242.21.81:8088/hls/ubl.m3u8'
Wanasah='https://shls-wanasah-prod-dub.shahid.net/out/v1/c84ef3128e564b74a6a796e8b6287de6/index.m3u8'
WeyyakAction='https://weyyak-live.akamaized.net/weyyak_action/index.m3u8'
WeyyakDrama='https://weyyak-live.akamaized.net/weyyak_drama/index.m3u8'
WeyyakMix='https://weyyak-live.akamaized.net/weyyak_mix/index.m3u8'
WeyyakNawaem='https://weyyak-live.akamaized.net/weyyak_nawaem/index.m3u8'
YasTV='https://vo-live.cdb.cdn.orange.com/Content/Channel/YASSportsChannel/HLS/index.m3u8'
ZeeAflam='https://weyyak-live.akamaized.net/weyyak_zee_aflam/index.m3u8'
ZeeAlwan='https://weyyak-live.akamaized.net/weyyak_zee_alwan/index.m3u8'
