A2CNN='https://tv.a2news.com/live/smil:a2cnnweb.stream.smil/playlist.m3u8'
AlbKanaleMusicTV='https://albportal.net/albkanalemusic.m3u8'
ALPO='https://5d00db0e0fcd5.streamlock.net/7236/7236/playlist.m3u8'
CityTV='https://vs.sednastream.com:1936/citytv/citytv/playlist.m3u8'
CNA='https://live1.mediadesk.al/cnatvlive.m3u8'
FolkloritTV='https://vs.sednastream.com:1936/folklorit/folklorit/playlist.m3u8'
Kanali7='https://fe.tring.al/delta/105/out/u/1200_1.m3u8'
MCNTV='http://141.95.145.70:8088/hls/mcn.m3u8'
NeserTV='https://protokolldns.xyz/ntv/livestream9956544786625444/index.m3u8'
News24='https://tv.balkanweb.com/news24/livestream/playlist.m3u8'
News24Albania='http://tv.balkanweb.com:8081/news24/livestream/playlist.m3u8'
OraNews='https://live1.mediadesk.al/oranews.m3u8'
PanoramaTV='http://198.244.188.94/panorama/livestream/playlist.m3u8'
ReportTV='https://deb10stream.duckdns.org/hls/stream.m3u8'
SitiShqipTV='https://vs.sednastream.com:1936/sitishqip/sitishqip/playlist.m3u8'
TopNews='https://trueodin.serv00.net/?t=topnewsal'
TropojaTV='https://live.prostream.al/al/smil:tropojatv.smil/playlist.m3u8'
TV7Albania1='http://media.az-mediaserver.com:1935/7064/7064/playlist.m3u8'
TV7Albania='https://5d00db0e0fcd5.streamlock.net/7064/7064/playlist.m3u8'
TVApollon='https://live.apollon.tv/Apollon-WEB/video.m3u8?token=tnt3u76re30d2'
VizionPlus='https://fe.tring.al/delta/105/out/u/rdghfhsfhfshs.m3u8'
ZjarrTV='https://cdn.jwplayer.com/live/events/r2qgHu7W.m3u8'
