FirstChannelNews1='https://amtv1-2.livestreamingcdn.com/am3abr/index.m3u8'
FirstChannelNews='https://amtvusdvr.tulix.tv/am3abr/index.m3u8'
SONGTV='https://songtv.hls.iptvdc.com/web-armenia/index.m3u8'
Առաջինալիք='https://amtv1.livestreamingcdn.com/am2abr/index.m3u8'
