CoolFM98.9='https://live2.tensila.com/cool-v-1.arubara/hls/master.m3u8'
HeartRadioAruba='https://live2.tensila.com/heart-v-1.heartar/hls/live/mystream.m3u8'
NosIslaTV='https://backend-server-dot-telearuba-app.appspot.com/media/livestream23/playlist.m3u8'
Power101.7FM='https://vcp3.myplaytv.com/powerfm/powerfm/playlist.m3u8'
Telearuba='https://backend-server-dot-telearuba-app.appspot.com/media/livestream13/playlist.m3u8'
VIPTV='https://ed5ov1.live.opencaster.com/bkyqeDgfaukC/index.m3u8'
