ChannelS='https://amigofx.com:1936/channelsreporter/channelsreporter/playlist.m3u8'
ETenTV='https://iptvbd.live/test/1080.m3u8'
EkusheyTV='https://ekusheyserver.com/etvlivesn.m3u8'
NandanTV='https://web.nandansyst.com/hls/nandan.m3u8'
