1001Noites='https://cdn.jmvstream.com/w/LVW-8155/ngrp:LVW8155_41E1ciuCvO_all/playlist.m3u8'
AdessoTV='https://cdn.jmvstream.com/w/LVW-9715/LVW9715_12B26T62tm/playlist.m3u8'
AgroBrasilTV1='http://45.162.230.234:1935/agrobrasiltv/agrobrasiltv/playlist.m3u8'
AgroBrasilTV='https://server.flixtv.com.br/agrobrasiltv/agrobrasiltv/playlist.m3u8'
Agromais='https://evpp.mm.uol.com.br/geob_band/agromais/playlist.m3u8'
AishTV='https://srv2.zcast.com.br/elzemar/elzemar/playlist.m3u8'
AllSports='https://5cf4a2c2512a2.streamlock.net/dgrau/dgrau/playlist.m3u8'
AllegroWebTV='https://livefocamundo.com:8081/allegrowebtv/index.m3u8'
AlphaChannel='https://5b01a3d32b65c.streamlock.net:1936/tvalpha/tvalpha/playlist.m3u8'
AmazonSat='https://amazonsat.brasilstream.com.br/hls/amazonsat/index.m3u8'
AnimeTV='https://stmv1.srvif.com/animetv/animetv/playlist.m3u8'
ArarunaTV='https://video01.logicahost.com.br/ararunatv/ararunatv/playlist.m3u8'
AscameTV='https://livefocamundo.com:8081/ascametv/index.m3u8'
AssembleiaLegislativadoEstadodeMatoGrosso='https://streaming.al.mt.gov.br/test/index.m3u8'
AssembleiaLegislativadoPiauí='https://59e4b6c1beddc.streamlock.net/ronaldoalepi/ronaldoalepi/playlist.m3u8'
Band1='https://evpp.mm.uol.com.br/geob_band/app/playlist.m3u8'
Band='https://evpp.mm.uol.com.br/geob_band/band/playlist.m3u8'
BandMinas='http://evpp.mm.uol.com.br:1935/bandpracas/debatemg/playlist.m3u8'
Bandnews='https://evpp.mm.uol.com.br/geob_band/bandnewstv/playlist.m3u8'
BemTV='http://wz4.dnip.com.br/bemtv/bemtv.sdp/playlist.m3u8'
BMTV='https://srv5.zcast.com.br/bmtv/bmtv/playlist.m3u8'
BoasNovas='https://cdn.jmvstream.com/w/LVW-9375/LVW9375_6i0wPBCHYc/playlist.m3u8'
CaboFrioTV='https://59f2354c05961.streamlock.net:1443/ararutv/_definst_/ararutv/playlist.m3u8'
Canal25Jundiaí='https://stream01.msolutionbrasil.com.br/hls/canal25/live.m3u8'
Canal38='https://cdn.jmvstream.com/w/LVW-8503/LVW8503_d0V5oduFlK/playlist.m3u8'
CanaldoCriador='https://607d2a1a47b1f.streamlock.net/crur/smil:canaldocriador.smil/playlist.m3u8'
CanaldoInter='https://video01.soultv.com.br/internacional/internacional/playlist.m3u8'
CanalEducação='https://canaleducacao-stream.ebc.com.br/index.m3u8'
CanalFDR='https://stmv1.transmissaodigital.com/ronald6259/ronald6259/playlist.m3u8'
CanalGov='https://canalgov-stream.ebc.com.br/index.m3u8'
CanalLibras='https://canallibras-stream.ebc.com.br/mux_video_ts/index-1.m3u8'
CanalMetropolitanodeNoticias='https://video01.logicahost.com.br/redebemtv/redebemtv/playlist.m3u8'
CanalRicos='https://5d82644094cc0.streamlock.net/ricostv/ricostv/playlist.m3u8'
CanalRural='https://607d2a1a47b1f.streamlock.net/crur/smil:canalrural.smil/playlist.m3u8'
CanalSaúde='https://arkyvbre1g.zoeweb.tv/fiocruz/fiocruz.stream/playlist.m3u8'
CanalSete='http://189.51.193.70:1935/canalsete/xpl-c7/playlist.m3u8'
CanalTVRio='https://video01.logicahost.com.br/canaltvrio/canaltvrio/playlist.m3u8'
CartoonNetworkFreeLiveBrazil='https://playout.cdn.cartoonnetwork.com.br/playout_01/playlist.m3u8'
CartoonNetworkFreeLiveBrazil2='https://playout.cdn.cartoonnetwork.com.br/playout_05/playlist.m3u8'
CartoonNetworkFreeLiveLatam='https://playout.cdn.cartoonnetwork.com.br/playout_02/playlist.m3u8'
CartoonNetworkFreeLiveLatam2='https://playout.cdn.cartoonnetwork.com.br/playout_06/playlist.m3u8'
CartoonitoFreeLiveBrazil='https://playout.cdn.cartoonnetwork.com.br/playout_03/playlist.m3u8'
CartoonitoFreeLiveLatam='https://playout.cdn.cartoonnetwork.com.br/playout_04/playlist.m3u8'
Catve2='https://5b33b873179a2.streamlock.net:1443/catve2/catve2/playlist.m3u8'
CatveFM='https://5b33b873179a2.streamlock.net:1443/radiocamera/livestream/playlist.m3u8'
CatveMasterTV='https://5b33b873179a2.streamlock.net:1443/mastertv/livestream/playlist.m3u8'
CBTVInternacional='https://oj7lng29dg82-hls-live.5centscdn.com/lives/f7b44cfafd5c52223d5498196c8a2e7b.sdp/index.m3u8'
CentralTV='https://tv02.zas.media:1936/centraltv/centraltv/playlist.m3u8'
ChromaTV='https://5c483b9d1019c.streamlock.net/8054/8054/playlist.m3u8'
ClassiqueTV='https://stmv1.srvif.com/classique/classique/playlist.m3u8'
ClassiqueTV2='https://stmv1.srvif.com/classiquetv1/classiquetv1/playlist.m3u8'
ClassiqueTVWestern='https://stmv1.srvif.com/classiquew/classiquew/playlist.m3u8'
COMBrasil='https://br5093.streamingdevideo.com.br/abc/abc/playlist.m3u8'
Conecta+TV='http://189.14.239.62:1935/webtv/livestream1/playlist.m3u8'
ConecTVBrasil='https://stream01.msolutionbrasil.com.br/hls/conectv/live.m3u8'
ConexãoTV='https://5a57bda70564a.streamlock.net/conexaotv/conexaotv.sdp/playlist.m3u8'
CulturaPará='http://www.portalcultura.com.br/playerhtml/funtelpa/tv_funtelpa/playlist.m3u8'
CWBTV='https://59d39900ebfb8.streamlock.net/cwbtv/cwbtv/playlist.m3u8'
DemaisTV='https://stmv1.samcast.com.br/demaistv6503/demaistv6503/playlist.m3u8'
DiscoveryKidsFreeLiveBrazil='https://playout.cdn.cartoonnetwork.com.br/playout_07/playlist.m3u8'
DiscoveryKidsFreeLiveLatam='https://playout.cdn.cartoonnetwork.com.br/playout_08/playlist.m3u8'
DunasTV='https://5cf4a2c2512a2.streamlock.net/dunastv/dunastv/playlist.m3u8'
ElementalChannel='https://5d82644094cc0.streamlock.net/8116/8116/playlist.m3u8'
ElyTV='https://stmv1.srvsite.com/ely/ely/playlist.m3u8'
EUTV='https://cdn.jmvstream.com/w/LVW-8719/LVW8719_AcLVAxWy5J/playlist.m3u8'
FalaLitoral='https://5c483b9d1019c.streamlock.net/falalitoraltv/falalitoraltv/playlist.m3u8'
FonteTV='http://flash.softhost.com.br:1935/fonte/fontetv/live.m3u8'
ForaTédioTV='http://stream.foratedio.com/foratedio/foratedio/playlist.m3u8'
Geekdot='https://stream.ichibantv.com:3764/hybrid/play.m3u8'
GhostTV='https://stmv.video.expressolider.com.br/ghostv/ghostv/playlist.m3u8'
GospelCartoon='https://stmv1.srvif.com/gospelcartoon/gospelcartoon/playlist.m3u8'
GospelMovieTV='https://stmv1.srvif.com/gospelf/gospelf/playlist.m3u8'
IMPDTV='https://58a4464faef53.streamlock.net/impd/ngrp:impd_all/playlist.m3u8'
ISTV='https://stmv1.srvstm.com/sistema7933/sistema7933/playlist.m3u8'
J3NEWSTV='https://cdn.jmvstream.com/w/LVW-8529/LVW8529_S8HhwGeAQU/chunklist.m3u8'
JovemPanNews='https://d6yfbj4xxtrod.cloudfront.net/out/v1/7836eb391ec24452b149f3dc6df15bbd/index.m3u8'
KpopTVPlay='https://srv1.zcast.com.br/kpoptv/kpoptv/playlist.m3u8'
KuriakosCine='https://w2.manasat.com/kcine/smil:kcine.smil/playlist.m3u8'
KuriakosKids='https://w2.manasat.com/kkids/smil:kkids.smil/playlist.m3u8'
LavrasCETV='https://stmv1.srvstm.com/igor8605/igor8605/playlist.m3u8'
Loading='https://stmv.video.expressolider.com.br/loadingtv/loadingtv/playlist.m3u8'
MasterShowTV='https://mastershowtv.videovox.pw/master6123/master6123/playlist.m3u8'
MKKWebTV='https://video01.logicahost.com.br/mkkwebtv/mkkwebtv/playlist.m3u8'
NatureTV='https://stmv1.srvif.com/nattv/nattv/playlist.m3u8'
NDTVCriciuma='https://caikron.com.br:19360/criciuma/criciuma.m3u8'
NossaTV='https://59f1cbe63db89.streamlock.net:1443/ntvnet/_definst_/ntvnet/playlist.m3u8'
NovaEraTV='http://wz3.dnip.com.br:1935/novaeratv/novaeratv.sdp/live.m3u8'
NovaTVAgrotour='https://video01.kshost.com.br/marcelo6682/marcelo6682/playlist.m3u8'
NovoTempo='https://stream.live.novotempo.com/tv/smil:tvnovotempo.smil/playlist.m3u8'
NuevoTiempo='https://stream.live.novotempo.com/tv/smil:tvnuevotiempo.smil/playlist.m3u8'
OESCTV='https://stmv1.samcast.com.br/gustavo8536/gustavo8536/playlist.m3u8'
OpiniãoPlayTV='https://livefocamundo.com:8081/opiniaoplay/index.m3u8'
PerúChannel='https://a.cdni.live/peruchanel/peruchanel/playlist.m3u8'
PlayTV='https://playtv.mediastreaming.com.br/play/live.stream/playlist.m3u8'
PlenaTV='https://cdn.jmvstream.com/w/LVW-9591/LVW9591_PmXtgATnaS/playlist.m3u8'
PrimerTV='http://200.194.238.229:8383/live/primer/playlist.m3u8'
RBATV='https://5cf4a2c2512a2.streamlock.net/rbatv/rbatv/playlist.m3u8'
RBTV='https://5cf4a2c2512a2.streamlock.net/rbtv/rbtv/playlist.m3u8'
RDCTV='https://br5093.streamingdevideo.com.br/datavideo01/datavideo01/playlist.m3u8'
RecordNews1='https://stream.ads.ottera.tv/playlist.m3u8?network_id=2116'
RecordNews2='https://rnw-rn.otteravision.com/rnw/rn/rnw_rn.m3u8'
RecordNews='https://playplusnews-lh.akamaihd.net/i/pp_nws@377849/master.m3u8'
RecordTVBelem='https://playpluspa-lh.akamaihd.net/i/pp_pa@377468/index_720_av-p.m3u8'
RecordTVBrasilia='https://playplusbsa-lh.akamaihd.net/i/pp_bsa@377860/index_720_av-p.m3u8'
RecordTVGoias='https://playplusgoya-lh.akamaihd.net/i/pp_gna@377833/index_720_av-p.m3u8'
RecordTVItapoan='https://playplussdr-lh.akamaihd.net/i/pp_sdr@377858/index_720_av-b.m3u8'
RecordTVMinas='https://playplusbh-lh.akamaihd.net/i/pp_bh@377862/index_720_av-p.m3u8'
RecordTVRio='https://playplusrjo-lh.akamaihd.net/i/pp_rj@377859/index_720_av-p.m3u8'
RecordTVRS='https://playpluspoa-lh.akamaihd.net/i/pp_poa@377864/index_720_av-p.m3u8'
RecordTVSP='https://playplusspo-lh.akamaihd.net/i/pp_sp@350176/index_720_av-p.m3u8'
RecordTV='https://cdn.jmvstream.com/w/LVW-10842/LVW10842_513N26MDBL/chunklist.m3u8'
RedeBrasil='https://5cf4a2c2512a2.streamlock.net/rbtv/rbtv/.m3u8'
RedeBrasildeComunicação='http://rbc.directradios.com:1935/rbc/rbc/live.m3u8'
RedeCaxias='https://stmv1.srvstm.com/luis5346/luis5346/playlist.m3u8'
RedeFamília='https://5a1c76baf08c0.streamlock.net/familia/smil:familia.smil/playlist.m3u8'
RedeMais='https://5a0c3936c25c8.streamlock.net/8010/8010/playlist.m3u8'
RedeMeioNorte='http://streaming.jornalmn.com.br/live/tvmn.m3u8'
RedeMetrópole='https://acesso.ecast.site:3456/hybrid/play.m3u8'
RedeMinas='https://v4-slbps-sambavideos.akamaized.net/live/3282,8114,ec4b5a296d97fa99bf990662f5b4f8e1;base64np;Mc8VDxqNjXKCAf8!/amlst:Mc_tFgfGiHOdQXPB/chunklist_.m3u8'
RedeMundoTV='https://video01.logicahost.com.br/mundotvbrasil/mundotvbrasil/playlist.m3u8'
RedeNGT='https://isaocorp.cloudecast.com/ngt/index.m3u8'
RedePremiumTV='https://5c483b9d1019c.streamlock.net/8066/8066/playlist.m3u8'
RedeQDM='https://59f1cbe63db89.streamlock.net:1443/tvkidmais/_definst_/tvkidmais/playlist.m3u8'
RedeRC='http://tv02.logicahost.com.br:1935/rederc/rederc/live.m3u8'
RedeSéculo21='https://cdn.jmvstream.com/w/LVW-10024/ngrp:LVW10024_H3QLdAY6kx_all/playlist.m3u8'
RedeSPTV='https://video01.logicahost.com.br/websptv/websptv/playlist.m3u8'
RedeSul='https://video05.logicahost.com.br/tvurbana/tvurbana/playlist.m3u8'
RedeTV!ES='https://redetves1.brasilstream.com.br/hls/redetves1/index.m3u8'
RedeTV!Mais='https://stmv7.samcast.com.br/playredetvmais/playredetvmais/playlist.m3u8'
RedeTV!Pampa='https://59f1cbe63db89.streamlock.net:1443/tvpampa/tvpampa/playlist.m3u8'
RedeTV!SP='https://hls.brasilstream.com.br/live/redetv/redetv/playlist.m3u8'
RedeUTV='https://59f1cbe63db89.streamlock.net:1443/canalvirtual08/_definst_/canalvirtual08/playlist.m3u8'
RedeVida='https://cvd1.cds.ebtcvd.net/live-redevida/smil:redevida.smil/playlist.m3u8'
RedeWebTV='https://serv3.videovox.pw/alexandre8915/alexandre8915/playlist.m3u8'
RedeTV!Tocantins1='https://59f1cbe63db89.streamlock.net:1443/redetvro/_definst_/redetvro/playlist.m3u8'
RedeTV!Tocantins='https://59f1cbe63db89.streamlock.net:1443/redetvro/redetvro/playlist.m3u8'
RetrôCartoon='https://stmv1.srvif.com/retrotv/retrotv/playlist.m3u8'
SantaCeciliaTV='http://flash1.crossdigital.com.br/2063/2063/playlist.m3u8'
SBTCuiabá='https://5ad482a77183d.streamlock.net/sbtsbtmt.com/sbtsbtmt.com/playlist.m3u8'
SBTInterior='https://cdn.jmvstream.com/w/LVW-10801/LVW10801_Xvg4R0u57n/playlist.m3u8'
SBTPará='https://streaming.portaltvparaense.com.br/hls/rtp.m3u8'
SBTRedeMassa='https://cdn-cdn-iguacu.ciclano.io:1443/cdn-iguacu/cdn-iguacu/playlist.m3u8'
SBTTVJornalCaruaru='https://evpp.mm.uol.com.br/ne10/ne10-tvjornal-caruaru-video-web.sdp/playlist.m3u8'
SBTTVJornalRecife='https://evpp.mm.uol.com.br/ne10/ne10.smil/playlist.m3u8'
SertãoTV='http://wz4.dnip.com.br/sertaotv/sertaotv.sdp/playlist.m3u8'
SESCTV='https://slbps-ml-sambatech.akamaized.net/samba-live/2472/7424/8a00fe7cc36ac263b2c3e9324497d5ff/video/93a9920d-1b24-4c5e-a7d2-63d5489f59b5_index.m3u8'
SICTV='https://parecisfmlive.brasilstream.com.br/hls/parecisfmlive/index.m3u8'
SOUTV='https://video01.kshost.com.br:4443/tiago4725/tiago4725/playlist.m3u8'
SRTVPB='https://livefocamundo.com:8081/srtvpb/index.m3u8'
STZTV='https://cdn.jmvstream.com/w/AVJ-12952/playlist/playlist.m3u8'
TCM10HD='https://live.tcm10.com.br/tcm10hd/stream.m3u8'
TelaViva='https://srv4.zcast.com.br/telavivatv/telavivatv/playlist.m3u8'
TerraViva='http://evpp.mm.uol.com.br:1935/band_live/terraviva/playlist.m3u8'
TVA7Plus='https://srv3.zcast.com.br/wellington7720/wellington7720/playlist.m3u8'
TVAFolha='https://video01.logicahost.com.br/tvafolha/tvafolha/playlist.m3u8'
TVAberta='https://cdn-canalpaulo.ciclano.io:1443/canalpaulo/canalpaulo/playlist.m3u8'
TVAlagonet='https://stmv2.voxtvhd.com.br/alagonet/alagonet/playlist.m3u8'
TVAldeia='https://stmv1.samcast.com.br/giovane7843/giovane7843/playlist.m3u8'
TVAliançaCatarinense='https://video01.logicahost.com.br/tvalianca/tvalianca/playlist.m3u8'
TVAlternativa='https://stmv5.samcast.com.br/wagner7919/wagner7919/playlist.m3u8'
TVAparecida='https://cdn.jmvstream.com/w/LVW-9716/LVW9716_HbtQtezcaw/playlist.m3u8'
TVAracati='https://livefocamundo.com:8081/tvaracati/index.m3u8'
TVArapuan='https://5b7f3c45ab7c2.streamlock.net/arapuan/ngrp:arapuan_all/playlist.m3u8'
TVAratu='https://cdn.jmvstream.com/w/LVW-8379/LVW8379_rIq6ZYiIiA/playlist.m3u8'
TVAssembléiaCeará='https://jjn5dkk9bd.zoeweb.tv/z404-live/stream/playlist.m3u8'
TVBeltrão='https://5cf4a2c2512a2.streamlock.net/tvbeltrao/tvbeltrao/playlist.m3u8'
TVBirigui1='https://59f2354c05961.streamlock.net:1443/tvdigitalbirigui/_definst_/tvdigitalbirigui/playlist.m3u8'
TVBirigui2='http://tv02.logicahost.com.br:1935/tvdigitalbirigui/tvdigitalbirigui/live.m3u8'
TVBirigui='https://59f2354c05961.streamlock.net:1443/tvdigitalbirigui/tvdigitalbirigui/playlist.m3u8'
TVBoqueirão='https://srv3.zcast.com.br/tvboqueirao/tvboqueirao/playlist.m3u8'
TVBrasilCentral='https://tbc.zoeweb.tv/tbc/tbc/playlist.m3u8'
TVBrasilOeste='https://5ad482a77183d.streamlock.net/operacaotbomt.com/operacaotbomt.com/playlist.m3u8'
TVBrusque='https://5ad482a77183d.streamlock.net/rodrigotvbrusque.com.br/5d880199c902eb4a1e8df00d/playlist.m3u8'
TVCâmara='https://stream3.camara.gov.br/tv1/manifest.m3u8'
TVCâmara2='https://stream3.camara.gov.br/tv2/manifest.m3u8'
TVCâmaradeSaoPaulo='https://cdn.jmvstream.com/w/LVW-8711/ngrp:LVW8711_tG0F3TEBDL_all/playlist.m3u8'
TVCâmaraSalvador='https://596639ebdd89b.streamlock.net/8114/8114/playlist.m3u8'
TVCandidés1='https://cdn.jmvstream.com/w/LVW-8067/ngrp:LVW8067_ZffQjxn7UC_all/chunklist.m3u8'
TVCandidés='https://cdn.jmvstream.com/w/LVW-8067/ngrp:LVW8067_ZffQjxn7UC_all/playlist.m3u8'
TVCaravelas='https://59f1cbe63db89.streamlock.net:1443/tvcaravelas/_definst_/tvcaravelas/playlist.m3u8'
TVCarioca='https://stmv3.duvoxtv.com.br/tvcariocas/tvcariocas/playlist.m3u8'
TVCeará='https://cdn.jmvstream.com/w/AVJ-12940/playlist/playlist.m3u8'
TVCidadãAlagoas='https://livefocamundo.com:8081/tvcidada/index.m3u8'
TVCidadeCanal9='https://59f1cbe63db89.streamlock.net:1443/tvcidade/tvcidade/playlist.m3u8'
TVCidadedePetrópolis='https://video01.kshost.com.br:4443/inside2133/inside2133/playlist.m3u8'
TVCidadeVerde='https://stmv1.transmissaodigital.com/cidadeverdenovo/cidadeverdenovo/playlist.m3u8'
TVCinec='http://tv01.logicahost.com.br:1935/tvcinec/tvcinec/live.m3u8'
TVClube='https://5c483b9d1019c.streamlock.net/8186/8186/playlist.m3u8'
TVCNAgitos='https://serv2.videovox.pw/cnagitos/cnagitos/playlist.m3u8'
TVCOMSantos='https://srv1.zcast.com.br/tvcomsantos/tvcomsantos/playlist.m3u8'
TVCordeiro='https://stmv2.voxtvhd.com.br/tvcordeiro/tvcordeiro/playlist.m3u8'
TVCulturaNacional='https://d28367vmhj4ljz.cloudfront.net/out/v1/f26e176ce67244de862cd9b21d823934/index.m3u8'
TVCuruça='https://stmv1.srvif.com/tvcurucasp/tvcurucasp/playlist.m3u8'
TVdasArtes='http://tv02.logicahost.com.br:1935/tvdasartes/tvdasartes/playlist.m3u8'
TVDestak1='http://tv02.logicahost.com.br:1935/pascoal/pascoal/live.m3u8'
TVDestak2='https://59f2354c05961.streamlock.net:1443/pascoal/_definst_/pascoal/playlist.m3u8'
TVDestak='https://59f2354c05961.streamlock.net:1443/pascoal/pascoal/playlist.m3u8'
TVDiáriodoSertão='http://painelvj.com.br:1935/pdsertaotv/pdsertaotv.sdp/playlist.m3u8'
TVDiárioMacapá='https://5ad482a77183d.streamlock.net/marliomelohotmail.com/marliomelohotmail.com/playlist.m3u8'
TVDifusoraLeste='https://stream.amsolution.net.br:8443/live/60d0a8ea6b884/index.m3u8'
TVDifusoraSãoLuis='https://stream.amsolution.net.br:8443/live/60ce4ae4b9d4c/index.m3u8'
TVDigitalBiriguí='http://wse01.logicahost.com.br:1935/tvdigitalbirigui/_definst_/tvdigitalbirigui/playlist.m3u8'
TVDiversa='https://tvdiversa.brasilstream.com.br/hls/tvdiversa/index.m3u8'
TVdoPovo='https://video01.logicahost.com.br/tvdopovo1/tvdopovo1/playlist.m3u8'
TVEmpireMagazine='https://5d82644094cc0.streamlock.net/empiremagazinetv/empiremagazinetv/playlist.m3u8'
TVEvangelizar='https://5f593df7851db.streamlock.net/evangelizar/tv/playlist.m3u8'
TVFuturo='https://tv02.zas.media:1936/tvfuturo/tvfuturo/playlist.m3u8'
TVGalegaBlumenau='https://cdn.jmvstream.com/w/LVW-8538/LVW8538_KBtZ9UMIZn/playlist.m3u8'
TVGazeta='https://video02.logicahost.com.br/tvc21/tvc21/playlist.m3u8'
TVGerais='https://video01.kshost.com.br:4443/humberto3322/humberto3322/playlist.m3u8'
TVGideoes='https://streaming01.zas.media/gideoes/programacao/playlist.m3u8'
TVGramado='https://video01.kshost.com.br:4443/tv4477/tv4477/playlist.m3u8'
TVGrandeNatal='http://tvgrandenatalhd.duckdns.org:8080/hls/live.m3u8'
TVGraoPará='https://video01.kshost.com.br:4443/moises3834/moises3834/playlist.m3u8'
TVGuará='https://video02.logicahost.com.br/tvguara23/tvguara23/playlist.m3u8'
TVGuaraparí='http://video.welltecnologia.com.br:1935/tvguarapari/tvguarapari/playlist.m3u8'
TVInforBahía='https://59f1cbe63db89.streamlock.net:1443/tvinforbahia/_definst_/tvinforbahia/playlist.m3u8'
TVInterlagos='https://v8.ciclano.io:1443/tvinterlagos/_definst_/tvinterlagos/playlist.m3u8'
TVIracema='https://stmv1.srvstm.com/iracematv/iracematv/playlist.m3u8'
TVJ.SID='https://livefocamundo.com:8081/tvjsid/index.m3u8'
TVJapi='https://stmv1.paineltv.net/tvjapi/tvjapi/playlist.m3u8'
TVLiberdade='https://srv1.paineldevideo.com/liberdaderadioetv/liberdaderadioetv/playlist.m3u8'
TVMaceió='https://srv5.zcast.com.br/paulo4100/paulo4100/playlist.m3u8'
TVMackenzie='https://player.internetaovivo.com:8443/live_tvmackenzieabr/tvmackenzieabr/playlist.m3u8'
TVMaisBrasil='http://sevensp.homelinux.com/live/index.m3u8'
TVMaisMaricá='https://5cf4a2c2512a2.streamlock.net/tvmaismarica/tvmaismarica/playlist.m3u8'
TVMarajoara1='https://tv02.zas.media:1936/tvmarajoara/tvmarajoara/playlist.m3u8'
TVMarajoara='https://video01.kshost.com.br:4443/tv31966/tv31966/playlist.m3u8'
TVMAX='https://59f1cbe63db89.streamlock.net:1443/tvmax/tvmax/playlist.m3u8'
TVMetropole='https://cdn-fundacao-2110.ciclano.io:1443/fundacao-2110/fundacao-2110/playlist.m3u8'
TVMon='https://srv1.zcast.com.br/tvmon/tvmon/playlist.m3u8'
TVNovaPlay='https://srv4.zcast.com.br/tvnovaplay/tvnovaplay/playlist.m3u8'
TVOmindaré='https://video01.kshost.com.br/lourdes52007/lourdes52007/playlist.m3u8'
TVOsórioNews='https://stmv1.srvstm.com/demo2573/demo2573/playlist.m3u8'
TVPadreCicero='https://video01.logicahost.com.br/tvpadrecicero/tvpadrecicero/playlist.m3u8'
TVPaiEterno1='https://59f1cbe63db89.streamlock.net:1443/teste01/_definst_/teste01/chunklist.m3u8'
TVPaiEterno='https://59f1cbe63db89.streamlock.net:1443/teste01/teste01/playlist.m3u8'
TVPampaNorte='https://59f1cbe63db89.streamlock.net:1443/tvpampa/_definst_/tvpampa/playlist.m3u8'
TVPantanalMS='https://5a2b083e9f360.streamlock.net/tvpantanal/tvpantanal.sdp/playlist.m3u8'
TVParanáTurismo='http://200.189.113.201/hls/tve.m3u8'
TVPassoFundo='https://5a57bda70564a.streamlock.net/tvpasso/tvpasso.sdp/playlist.m3u8'
TVPlan='https://live.cdn.upx.com/723b/myStream.sdp/playlist.m3u8'
TVPlanaltoNorte='https://video01.logicahost.com.br/tvplanalto/tvplanalto/playlist.m3u8'
TVPoços='http://rtmp.cdn.upx.net.br/00084/myStream.sdp/playlist.m3u8'
TVPontadoSeixas='https://livefocamundo.com:8081/tvpontadoseixascanal9/index.m3u8'
TVPrecabura='http://srv1.zcast.com.br/tvprecabura/tvprecabura/playlist-480p.m3u8'
TVRioGrande='https://stmv1.srvif.com/tvriogrande/tvriogrande/playlist.m3u8'
TVRioPreto='https://video02.logicahost.com.br/tvriopreto/tvriopreto/playlist.m3u8'
TVSandegi='https://video01.kshost.com.br/antonio9510/antonio9510/playlist.m3u8'
TVSantaCruz='https://rtmp.info/tvsantacruz/envivo/playlist.m3u8'
TVSãoRaimundo='https://stmv1.voxtvhd.com.br/9030/9030/playlist.m3u8'
TVSeries1AsPanteras='https://stmv1.srvif.com/tvserie/tvserie/playlist.m3u8'
TVSeries2MulherBionica='https://stmv1.srvif.com/tvserie2/tvserie2/playlist.m3u8'
TVSeries3StarTrek='https://stmv1.srvif.com/tvserie3/tvserie3/playlist.m3u8'
TVSeries4Chips='https://stmv1.srvif.com/tvserie4/tvserie4/playlist.m3u8'
TVSeries5GuerraSombraeAguaFresca='https://stmv1.srvif.com/tvserie5/tvserie5/playlist.m3u8'
TVSeteLagoas='https://livefocamundo.com:8081/tvsetelagoas/index.m3u8'
TVSimCachoeiro='https://5cf4a2c2512a2.streamlock.net/8104/8104/playlist.m3u8'
TVSimColatina='https://5cf4a2c2512a2.streamlock.net/8132/8132/playlist.m3u8'
TVSimSãoMateus='https://5cf4a2c2512a2.streamlock.net/8236/8236/playlist.m3u8'
TVSolComunidade='http://streaming03.zas.media:1935/tvsol/tvsol/playlist.m3u8'
TVSulBahia='https://live.cdn.upx.com/00046/myStream.sdp/playlist.m3u8'
TVSuldeMinas='https://5cf4a2c2512a2.streamlock.net/tvsuldeminas/tvsuldeminas/playlist.m3u8'
TVTerceiroAnjo='https://streamer1.streamhost.org/salive/GMI3anjoh/playlist.m3u8'
TVThathi='https://cdn-grupo-10049.ciclano.io:1443/grupo-10049/grupo-10049/playlist.m3u8'
TVTropical='https://video03.logicahost.com.br/portaldatropical/portaldatropical/playlist.m3u8'
TVTudoBH='https://tv02.zas.media:1936/tvtudo/tvtudo/playlist.m3u8'
TVUFG='http://flash.softhost.com.br:1935/ufg/tvufgweb/playlist.m3u8'
TVUniãoNatal='https://rtmp.uniaoplay.com.br/tvuniaonatal/6b517d4134797cf29f129240def46bba.sdp/playlist.m3u8'
TVUniversal='https://644398c.ha.azioncdn.net/primary/tvuniversal_480p.sdp/playlist.m3u8'
TVValedoUruará='https://stmv1.paineltv.net/valeradiowebtv/valeradiowebtv/playlist.m3u8'
TVViçosa='http://wz4.dnip.com.br/fratevitv/fratevitv.sdp/playlist.m3u8'
TVVilaReal='https://cdn.jmvstream.com/w/LVW-10841/LVW10841_mT77z9o2cP/playlist.m3u8'
TVWebCamocim='https://5c483b9d1019c.streamlock.net/8172/8172/playlist.m3u8'
TVWebParaná='https://59f1cbe63db89.streamlock.net:1443/tvwebparana/_definst_/tvwebparana/playlist.m3u8'
TVWTJMINAS='https://video01.kshost.com.br/wladimir4773/wladimir4773/playlist.m3u8'
TVZoom='https://cdn.jmvstream.com/w/LVW-9730/LVW9730_LmUwslM8jt/playlist.m3u8'
TVBEJoinville='https://5c483b9d1019c.streamlock.net/8022/8022/playlist.m3u8'
TVCRio='https://video01.logicahost.com.br/comunitariario/comunitariario/playlist.m3u8'
TVCOMDF='https://5b7f3c45ab7c2.streamlock.net/8008/smil:8008.smil/playlist.m3u8?DVR='
TVCOMMaceió='https://srv5.zcast.com.br/tvcommaceio/tvcommaceio/playlist.m3u8'
TVEBahia='http://stream2.ba.gov.br/hls-live/livepkgr/_definst_/irdeb/pgm-1.m3u8'
TVERS1='http://streaming.procergs.com.br:1935/tve/stve/playlist.m3u8'
TVERS2='https://streaming.procergs.com.br:8443/tve/stve/playlist.m3u8'
TVERS='http://selpro1348.procergs.com.br:1935/tve/stve/playlist.m3u8'
TVídeoNews='https://video01.logicahost.com.br/tvideonews/tvideonews/playlist.m3u8'
TVitapé='https://stream01.msolutionbrasil.com.br/hls/tvitape/live.m3u8'
TVMaster='https://virtues.es:1936/tvmaster/tvmaster/playlist.m3u8'
TVMaticComedy='http://cdn.tvmatic.net/comedy.m3u8'
TVMaticCrafts='http://cdn.tvmatic.net/crafts.m3u8'
TVMaticFacebook='http://cdn.tvmatic.net/facebook.m3u8'
TVMaticFight='http://cdn.tvmatic.net/fight.m3u8'
TVMaticFunny='http://cdn.tvmatic.net/funny.m3u8'
TVMaticTikTok='http://cdn.tvmatic.net/tiktok.m3u8'
TVNBrasil1='http://painelvj.com.br:1935/tvnbrasil/tvnbrasil.sdp/playlist.m3u8'
TVNBrasil='http://wz3.dnip.com.br/tvnbrasil/tvnbrasil.sdp/playlist.m3u8'
TVNBN='https://cdn.jmvstream.com/w/LVW-8410/LVW8410_uiZOVm6vz1/playlist.m3u8'
UNISULTV='https://sitetv.brasilstream.com.br/hls/sitetv/index.m3u8?token='
UniTVPortoAlegre='http://unitvaovivo.ufrgs.br:8080/live.ogg'
UrbanTV='https://video01.logicahost.com.br/urbantvlive/urbantvlive/playlist.m3u8'
VirtualTV='https://59f1cbe63db89.streamlock.net:1443/mundotv2/_definst_/mundotv2/playlist.m3u8'
VRTChannel='https://sistemavrt.vrtchannel.tv.br:3473/stream/play.m3u8'
VV8TV='https://video01.kshost.com.br/seap8272/seap8272/playlist.m3u8'
WebTVÁguaBoa='http://painelvj.com.br/tvaguaboa2/tvaguaboa2.sdp/playlist.m3u8'
WTVBrasil='https://stmv1.srvstm.com/wtvbrasil/wtvbrasil/playlist.m3u8'
