Channel7Belize='https://kalends.anl.bz/localchannels/channel7.stream/playlist.m3u8'
KremTV='https://kalends.anl.bz/localchannels/kremtel.stream/playlist.m3u8'
LoveTelevision='https://kalends.anl.bz/localchannels/lovetel.stream/playlist.m3u8'
