CCTV5+='https://pull-f5-spe.ixigua.com/live/YesLiveTV-7d098b36-c7e5-4941-8eb0-6af0f5ad3f8d.flv'
HOYTV開電視='https://pull-f5-spe.ixigua.com/yeslivetv.com/934973832-202925490/index.m3u8'
HOY資訊台='https://pull-f5-spe.ixigua.com/live/YesLiveTV-3e9f20e4-e6fd-4292-ac7a-3180610b1edd/index.m3u8'
J2='https://pull-f5-spe.ixigua.com/yeslivetv.com/6027316-581799927/index.m3u8'
ViuTV='https://pull-f5-spe.ixigua.com/yeslivetv.com/711923214-581799927/index.m3u8'
ViuTVSix='https://pull-f5-spe.ixigua.com/yeslivetv.com/154548299-581799927/index.m3u8'
博斯高球台='https://yeslivetv.com/twiptv/litv-longturn05/index.m3u8'
無綫新聞台='https://pull-f5-spe.ixigua.com/yeslivetv.com/446133069-816601364/index.m3u8'
無綫財經·體育·資訊台='https://pull-f5-spe.ixigua.com/yeslivetv.com/944048695-106799677/index.m3u8'
翡翠台='https://pull-f5-spe.ixigua.com/yeslivetv.com/291403ea-fabd-4dc1-bdfa-f14ebe74411e/index.m3u8'
香港國際財經台='https://pull-f5-spe.ixigua.com/live/YesLiveTV-312f21aa-d8cf-4d55-bd8f-87069342457d/index.m3u8'
鳳凰中文='https://pull-f5-spe.ixigua.com/yeslivetv.com/592947253-711982631/index.m3u8'
鳳凰資訊='https://pull-f5-spe.ixigua.com/yeslivetv.com/303328069-581799927/index.m3u8'
