BonceTV='https://seswa.bonce.tv/hls/bonceswa.m3u8'
IntermediateLeagueCuraçao='https://streannlivecariflix.cachefly.net/cariflix12/cariflix12/playlist.m3u8'
NosPaïs='http://highvolume04.streampartner.nl/nos_pais_24_7/nos_pais_24_7/playlist.m3u8'
TVDirect13='https://oqgdrog4d4rm-hls-live.5centscdn.com/tvdirect/f7b44cfafd5c52223d5498196c8a2e7b.sdp/tvdirect/stream1/index.m3u8'
VAMVid's&More='https://cur.watch/api/get_stream/vam/streann/playlist.m3u8'
