MotorvisionTV='https://service-stitcher.clusters.pluto.tv/stitch/hls/channel/60817e1aa6997500072d0d6d/master.m3u8?appName=web&appVersion=unknown&clientTime=0&deviceDNT=0&deviceId=35fc51b0-e986-11eb-a0af-c3b401f46211&deviceMake=Chrome&deviceModel=web&deviceType=web&deviceVersion=unknown&includeExtendedEvents=false&serverSideAds=false&sid=ede55dfe-45a7-4aa8-a283-7b8008be8d2e'
PlutoTVAnimals='https://service-stitcher.clusters.pluto.tv/stitch/hls/channel/5d767ae7b456c8cf265ce922/master.m3u8?advertisingId=&appName=web&appStoreUrl=&appVersion=DNT&app_name=&architecture=&buildVersion=&deviceDNT=0&deviceId=5d767ae7b456c8cf265ce922&deviceLat=51.2993&deviceLon=9.4910&deviceMake=web&deviceModel=web&deviceType=web&deviceVersion=DNT&includeExtendedEvents=false&marketingRegion=DE&serverSideAds=false&sid=301&terminate=false&userId='
PlutoTVAutoMotorSport1='https://service-stitcher.clusters.pluto.tv/stitch/hls/channel/5f760c3d41aa2d0007bfde19/master.m3u8?advertisingId=&appName=web&appStoreUrl=&appVersion=DNT&app_name=&architecture=&buildVersion=&deviceDNT=1&deviceId=5f760c3d41aa2d0007bfde19&deviceLat=&deviceLon=&deviceMake=web&deviceModel=web&deviceType=web&deviceVersion=DNT&includeExtendedEvents=false&marketingRegion=DE&serverSideAds=false&sid=c676a4b5-65d2-474a-b477-c04f8b88e727&terminate=false&userId='
PlutoTVAutoMotorSport='https://service-stitcher.clusters.pluto.tv/v1/stitch/embed/hls/channel/5f760c3d41aa2d0007bfde19/master.m3u8?advertisingId=channel&appName=rokuchannel&appVersion=1.0&bmodel=bm1&channel_id=channel&content=channel&content_rating=ROKU_ADS_CONTENT_RATING&content_type=livefeed&coppa=false&deviceDNT=1&deviceId=channel&deviceMake=rokuChannel&deviceModel=web&deviceType=rokuChannel&deviceVersion=1.0&embedPartner=rokuChannel&genre=ROKU_ADS_CONTENT_GENRE&is_lat=1&platform=web&rdid=channel&studio_id=viacom&tags=ROKU_CONTENT_TAGS'
PlutoTVBeybladeBurstNick1='https://service-stitcher.clusters.pluto.tv/stitch/hls/channel/5e8b551ddcd25500072c4dad/master.m3u8?advertisingId=&appName=web&appStoreUrl=&appVersion=DNT&app_name=&architecture=&buildVersion=&deviceDNT=1&deviceId=5e8b551ddcd25500072c4dad&deviceLat=&deviceLon=&deviceMake=web&deviceModel=web&deviceType=web&deviceVersion=DNT&includeExtendedEvents=false&marketingRegion=DE&serverSideAds=false&sid=a38b88ed-0712-11eb-8b9f-0242ac110002&terminate=false&userId='
PlutoTVBeybladeBurstNick='https://service-stitcher.clusters.pluto.tv/v1/stitch/embed/hls/channel/5e8b551ddcd25500072c4dad/master.m3u8?advertisingId=channel&appName=rokuchannel&appVersion=1.0&bmodel=bm1&channel_id=channel&content=channel&content_rating=ROKU_ADS_CONTENT_RATING&content_type=livefeed&coppa=false&deviceDNT=1&deviceId=channel&deviceMake=rokuChannel&deviceModel=web&deviceType=rokuChannel&deviceVersion=1.0&embedPartner=rokuChannel&genre=ROKU_ADS_CONTENT_GENRE&is_lat=1&platform=web&rdid=channel&studio_id=viacom&tags=ROKU_CONTENT_TAGS'
PlutoTVBlazeNick1='https://service-stitcher.clusters.pluto.tv/stitch/hls/channel/5e8b60419becf60008c841fd/master.m3u8?advertisingId=&appName=web&appStoreUrl=&appVersion=DNT&app_name=&architecture=&buildVersion=&deviceDNT=1&deviceId=5e8b60419becf60008c841fd&deviceLat=&deviceLon=&deviceMake=web&deviceModel=web&deviceType=web&deviceVersion=DNT&includeExtendedEvents=false&marketingRegion=DE&serverSideAds=false&sid=ebc579c0-0712-11eb-97af-0242ac110002&terminate=false&userId='
PlutoTVBlazeNick='https://service-stitcher.clusters.pluto.tv/v1/stitch/embed/hls/channel/5e8b60419becf60008c841fd/master.m3u8?advertisingId=channel&appName=rokuchannel&appVersion=1.0&bmodel=bm1&channel_id=channel&content=channel&content_rating=ROKU_ADS_CONTENT_RATING&content_type=livefeed&coppa=false&deviceDNT=1&deviceId=channel&deviceMake=rokuChannel&deviceModel=web&deviceType=rokuChannel&deviceVersion=1.0&embedPartner=rokuChannel&genre=ROKU_ADS_CONTENT_GENRE&is_lat=1&platform=web&rdid=channel&studio_id=viacom&tags=ROKU_CONTENT_TAGS'
PlutoTVBlue'sCluesNick1='https://service-stitcher.clusters.pluto.tv/stitch/hls/channel/5e8b564ff59d130007363823/master.m3u8?advertisingId=&appName=web&appStoreUrl=&appVersion=DNT&app_name=&architecture=&buildVersion=&deviceDNT=1&deviceId=5e8b564ff59d130007363823&deviceLat=&deviceLon=&deviceMake=web&deviceModel=web&deviceType=web&deviceVersion=DNT&includeExtendedEvents=false&marketingRegion=DE&serverSideAds=false&sid=29e99f3f-0713-11eb-a59f-0242ac110002&terminate=false&userId='
PlutoTVBlue'sCluesNick='https://service-stitcher.clusters.pluto.tv/v1/stitch/embed/hls/channel/5e8b564ff59d130007363823/master.m3u8?advertisingId=channel&appName=rokuchannel&appVersion=1.0&bmodel=bm1&channel_id=channel&content=channel&content_rating=ROKU_ADS_CONTENT_RATING&content_type=livefeed&coppa=false&deviceDNT=1&deviceId=channel&deviceMake=rokuChannel&deviceModel=web&deviceType=rokuChannel&deviceVersion=1.0&embedPartner=rokuChannel&genre=ROKU_ADS_CONTENT_GENRE&is_lat=1&platform=web&rdid=channel&studio_id=viacom&tags=ROKU_CONTENT_TAGS'
PlutoTVChefkoch1='https://service-stitcher.clusters.pluto.tv/stitch/hls/channel/5e8c4c3f141f350007936f7d/master.m3u8?advertisingId=&appName=web&appStoreUrl=&appVersion=DNT&app_name=&architecture=&buildVersion=&deviceDNT=1&deviceId=5e8c4c3f141f350007936f7d&deviceLat=&deviceLon=&deviceMake=web&deviceModel=web&deviceType=web&deviceVersion=DNT&includeExtendedEvents=false&marketingRegion=DE&serverSideAds=false&sid=8ae325bb-0580-11eb-9df2-0242ac110002&terminate=false&userId='
PlutoTVChefkoch='https://service-stitcher.clusters.pluto.tv/v1/stitch/embed/hls/channel/5e8c4c3f141f350007936f7d/master.m3u8?advertisingId=channel&appName=rokuchannel&appVersion=1.0&bmodel=bm1&channel_id=channel&content=channel&content_rating=ROKU_ADS_CONTENT_RATING&content_type=livefeed&coppa=false&deviceDNT=1&deviceId=channel&deviceMake=rokuChannel&deviceModel=web&deviceType=rokuChannel&deviceVersion=1.0&embedPartner=rokuChannel&genre=ROKU_ADS_CONTENT_GENRE&is_lat=1&platform=web&rdid=channel&studio_id=viacom&tags=ROKU_CONTENT_TAGS'
PlutoTVComedyCentral1='https://service-stitcher.clusters.pluto.tv/stitch/hls/channel/5d4948418101147596fd6c5a/master.m3u8?advertisingId=&appName=web&appStoreUrl=&appVersion=DNT&app_name=&architecture=&buildVersion=&deviceDNT=1&deviceId=5d4948418101147596fd6c5a&deviceLat=&deviceLon=&deviceMake=web&deviceModel=web&deviceType=web&deviceVersion=DNT&includeExtendedEvents=false&marketingRegion=DE&serverSideAds=false&sid=91083755-0728-11eb-aeab-0242ac110002&terminate=false&userId='
PlutoTVComedyCentral2='https://service-stitcher.clusters.pluto.tv/v1/stitch/embed/hls/channel/5d4948418101147596fd6c5a/master.m3u8?advertisingId=channel&appName=rokuchannel&appVersion=1.0&bmodel=bm1&channel_id=channel&content=channel&content_rating=ROKU_ADS_CONTENT_RATING&content_type=livefeed&coppa=false&deviceDNT=1&deviceId=channel&deviceMake=rokuChannel&deviceModel=web&deviceType=rokuChannel&deviceVersion=1.0&embedPartner=rokuChannel&genre=ROKU_ADS_CONTENT_GENRE&is_lat=1&platform=web&rdid=channel&studio_id=viacom&tags=ROKU_CONTENT_TAGS'
PlutoTVComedyCentral='https://service-stitcher.clusters.pluto.tv/stitch/hls/channel/5e7b8923fc302800079e4f4f/master.m3u8?advertisingId=&appName=web&appStoreUrl=&appVersion=DNT&app_name=&architecture=&buildVersion=&deviceDNT=1&deviceId=5e7b8923fc302800079e4f4f&deviceLat=&deviceLon=&deviceMake=web&deviceModel=web&deviceType=web&deviceVersion=DNT&includeExtendedEvents=false&marketingRegion=DE&serverSideAds=false&sid=ee59b770-663e-4463-bf9b-3f7c374fbc39&terminate=false&userId='
PlutoTVHistory='https://service-stitcher.clusters.pluto.tv/stitch/hls/channel/5d767b1c126c65d0a307355f/master.m3u8?advertisingId=&appName=web&appStoreUrl=&appVersion=DNT&app_name=&architecture=&buildVersion=&deviceDNT=0&deviceId=5d767b1c126c65d0a307355f&deviceLat=51.2993&deviceLon=9.4910&deviceMake=web&deviceModel=web&deviceType=web&deviceVersion=DNT&includeExtendedEvents=false&marketingRegion=DE&serverSideAds=false&sid=302&terminate=false&userId='
PlutoTViCarly1='https://service-stitcher.clusters.pluto.tv/stitch/hls/channel/5e8b580a233dc90007f0cb9d/master.m3u8?advertisingId=&appName=web&appStoreUrl=&appVersion=DNT&app_name=&architecture=&buildVersion=&deviceDNT=1&deviceId=5e8b580a233dc90007f0cb9d&deviceLat=&deviceLon=&deviceMake=web&deviceModel=web&deviceType=web&deviceVersion=DNT&includeExtendedEvents=false&marketingRegion=DE&serverSideAds=false&sid=4c53d6ac-a6d2-4c2c-9403-6101f770b205&terminate=false&userId='
PlutoTViCarly='https://service-stitcher.clusters.pluto.tv/v1/stitch/embed/hls/channel/5e8b580a233dc90007f0cb9d/master.m3u8?advertisingId=channel&appName=rokuchannel&appVersion=1.0&bmodel=bm1&channel_id=channel&content=channel&content_rating=ROKU_ADS_CONTENT_RATING&content_type=livefeed&coppa=false&deviceDNT=1&deviceId=channel&deviceMake=rokuChannel&deviceModel=web&deviceType=rokuChannel&deviceVersion=1.0&embedPartner=rokuChannel&genre=ROKU_ADS_CONTENT_GENRE&is_lat=1&platform=web&rdid=channel&studio_id=viacom&tags=ROKU_CONTENT_TAGS'
PlutoTViCarly+='https://service-stitcher.clusters.pluto.tv/stitch/hls/channel/5f3d2cb9f5b291000773807a/master.m3u8?advertisingId=&appName=web&appStoreUrl=&appVersion=DNT&app_name=&architecture=&buildVersion=&deviceDNT=1&deviceId=5f3d2cb9f5b291000773807a&deviceLat=&deviceLon=&deviceMake=web&deviceModel=web&deviceType=web&deviceVersion=DNT&includeExtendedEvents=false&marketingRegion=DE&serverSideAds=false&sid=4c128fa6-7ec2-4a50-a81b-37f9e8c1e48f&terminate=false&userId='
PlutoTVInside1='https://service-stitcher.clusters.pluto.tv/stitch/hls/channel/5f8ed3892ed7bb000741a1d2/master.m3u8?advertisingId=&appName=web&appVersion=5.14.0-0f5ca04c21649b8c8aad4e56266a23b96d73b83a&app_name=web&clientDeviceType=0&clientID=6fbead95-26b1-415d-998f-1bdef62d10be&clientModelNumber=na&deviceDNT=false&deviceId=6fbead95-26b1-415d-998f-1bdef62d10be&deviceLat=48.8582&deviceLon=2.3387&deviceMake=Chrome&deviceModel=web&deviceType=web&deviceVersion=88.0.4324.150&marketingRegion=FR&serverSideAds=false&sessionID=cc7dc550-6be3-11eb-9c02-0242ac110002&sid=cc7dc550-6be3-11eb-9c02-0242ac110002&userId='
PlutoTVInside2='https://service-stitcher.clusters.pluto.tv/v1/stitch/embed/hls/channel/5f8ed3892ed7bb000741a1d2/master.m3u8?advertisingId=channel&appName=rokuchannel&appVersion=1.0&bmodel=bm1&channel_id=channel&content=channel&content_rating=ROKU_ADS_CONTENT_RATING&content_type=livefeed&coppa=false&deviceDNT=1&deviceId=channel&deviceMake=rokuChannel&deviceModel=web&deviceType=rokuChannel&deviceVersion=1.0&embedPartner=rokuChannel&genre=ROKU_ADS_CONTENT_GENRE&is_lat=1&platform=web&rdid=channel&studio_id=viacom&tags=ROKU_CONTENT_TAGS'
PlutoTVInside='https://service-stitcher.clusters.pluto.tv/stitch/hls/channel/5d767b4889bca2ce7b73ef2e/master.m3u8?advertisingId=&appName=web&appStoreUrl=&appVersion=DNT&app_name=&architecture=&buildVersion=&deviceDNT=0&deviceId=5d767b4889bca2ce7b73ef2e&deviceLat=51.2993&deviceLon=9.4910&deviceMake=web&deviceModel=web&deviceType=web&deviceVersion=DNT&includeExtendedEvents=false&marketingRegion=DE&serverSideAds=false&sid=303&terminate=false&userId='
PlutoTVMovies='https://service-stitcher.clusters.pluto.tv/stitch/hls/channel/5c5c3b948002db3c3e0b262e/master.m3u8?advertisingId=&appName=web&appStoreUrl=&appVersion=DNT&app_name=&architecture=&buildVersion=&deviceDNT=0&deviceId=5c5c3b948002db3c3e0b262e&deviceLat=51.2993&deviceLon=9.4910&deviceMake=web&deviceModel=web&deviceType=web&deviceVersion=DNT&includeExtendedEvents=false&marketingRegion=DE&serverSideAds=false&sid=50&terminate=false&userId='
PlutoTVMTV1='https://service-stitcher.clusters.pluto.tv/stitch/hls/channel/5caf325764025859afdd6c4d/master.m3u8?advertisingId=&appName=web&appStoreUrl=&appVersion=DNT&app_name=&architecture=&buildVersion=&deviceDNT=1&deviceId=5caf325764025859afdd6c4d&deviceLat=&deviceLon=&deviceMake=web&deviceModel=web&deviceType=web&deviceVersion=DNT&includeExtendedEvents=false&marketingRegion=DE&serverSideAds=false&sid=1b711cc8-0587-11eb-9df2-0242ac110002&terminate=false&userId='
PlutoTVMTV2='https://service-stitcher.clusters.pluto.tv/stitch/hls/channel/5dcebe53d352330009e56f5b/master.m3u8?advertisingId=&appName=web&appStoreUrl=&appVersion=DNT&app_name=&architecture=&buildVersion=&deviceDNT=1&deviceId=5dcebe53d352330009e56f5b&deviceLat=&deviceLon=&deviceMake=web&deviceModel=web&deviceType=web&deviceVersion=DNT&includeExtendedEvents=false&marketingRegion=DE&serverSideAds=false&sid=b3be0889-389b-4ef9-a876-b3d589aa6cd9&terminate=false&userId='
PlutoTVMTV='https://service-stitcher.clusters.pluto.tv/stitch/hls/channel/5caf325764025859afdd6c4d/master.m3u8?advertisingId=&appName=web&appStoreUrl=&appVersion=DNT&app_name=&architecture=&buildVersion=&deviceDNT=0&deviceId=5caf325764025859afdd6c4d&deviceLat=51.2993&deviceLon=9.4910&deviceMake=web&deviceModel=web&deviceType=web&deviceVersion=DNT&includeExtendedEvents=false&marketingRegion=DE&serverSideAds=false&sid=2&terminate=false&userId='
PlutoTVMTVCribs='https://service-stitcher.clusters.pluto.tv/stitch/hls/channel/5ea815a515d149000748ee9b/master.m3u8?advertisingId=&appName=web&appStoreUrl=&appVersion=DNT&app_name=&architecture=&buildVersion=&deviceDNT=0&deviceId=5ea815a515d149000748ee9b&deviceLat=51.2993&deviceLon=9.4910&deviceMake=web&deviceModel=web&deviceType=web&deviceVersion=DNT&includeExtendedEvents=false&marketingRegion=DE&serverSideAds=false&sid=8&terminate=false&userId='
PlutoTVN24Doku='https://service-stitcher.clusters.pluto.tv/v1/stitch/embed/hls/channel/60080e8a4bf36000076a81b1/master.m3u8?advertisingId=channel&appName=rokuchannel&appVersion=1.0&bmodel=bm1&channel_id=channel&content=channel&content_rating=ROKU_ADS_CONTENT_RATING&content_type=livefeed&coppa=false&deviceDNT=1&deviceId=channel&deviceMake=rokuChannel&deviceModel=web&deviceType=rokuChannel&deviceVersion=1.0&embedPartner=rokuChannel&genre=ROKU_ADS_CONTENT_GENRE&is_lat=1&platform=web&rdid=channel&studio_id=viacom&tags=ROKU_CONTENT_TAGS'
PlutoTVNick='https://service-stitcher.clusters.pluto.tv/stitch/hls/channel/5ede448d3d50590007a4419e/master.m3u8?advertisingId=&appName=web&appStoreUrl=&appVersion=DNT&app_name=&architecture=&buildVersion=&deviceDNT=0&deviceId=5ede448d3d50590007a4419e&deviceLat=51.2993&deviceLon=9.4910&deviceMake=web&deviceModel=web&deviceType=web&deviceVersion=DNT&includeExtendedEvents=false&marketingRegion=DE&serverSideAds=false&sid=261&terminate=false&userId='
PlutoTVNickEmmaeinfachmagisch!1='https://service-stitcher.clusters.pluto.tv/stitch/hls/channel/5f4796368174910007756454/master.m3u8?advertisingId=&appName=web&appStoreUrl=&appVersion=DNT&app_name=&architecture=&buildVersion=&deviceDNT=1&deviceId=5f4796368174910007756454&deviceLat=&deviceLon=&deviceMake=web&deviceModel=web&deviceType=web&deviceVersion=DNT&includeExtendedEvents=false&marketingRegion=DE&serverSideAds=false&sid=db62fa8b-15bd-11eb-bde1-0242ac110002&terminate=false&userId='
PlutoTVNickEmmaeinfachmagisch!='https://service-stitcher.clusters.pluto.tv/v1/stitch/embed/hls/channel/5f4796368174910007756454/master.m3u8?advertisingId=channel&appName=rokuchannel&appVersion=1.0&bmodel=bm1&channel_id=channel&content=channel&content_rating=ROKU_ADS_CONTENT_RATING&content_type=livefeed&coppa=false&deviceDNT=1&deviceId=channel&deviceMake=rokuChannel&deviceModel=web&deviceType=rokuChannel&deviceVersion=1.0&embedPartner=rokuChannel&genre=ROKU_ADS_CONTENT_GENRE&is_lat=1&platform=web&rdid=channel&studio_id=viacom&tags=ROKU_CONTENT_TAGS'
PlutoTVNickRewind+='https://service-stitcher.clusters.pluto.tv/stitch/hls/channel/5f3d2bcd0fadc30007b4863b/master.m3u8?advertisingId=&appName=web&appStoreUrl=&appVersion=DNT&app_name=&architecture=&buildVersion=&deviceDNT=1&deviceId=5f3d2bcd0fadc30007b4863b&deviceLat=&deviceLon=&deviceMake=web&deviceModel=web&deviceType=web&deviceVersion=DNT&includeExtendedEvents=false&marketingRegion=DE&serverSideAds=false&sid=26a921c8-2009-4fa8-9d4f-3edbe18a97f7&terminate=false&userId='
PlutoTVSitcoms1='https://service-stitcher.clusters.pluto.tv/stitch/hls/channel/5d767ab2b456c8cf265ce921/master.m3u8?advertisingId=&appName=web&appStoreUrl=&appVersion=DNT&app_name=&architecture=&buildVersion=&deviceDNT=1&deviceId=5d767ab2b456c8cf265ce921&deviceLat=&deviceLon=&deviceMake=web&deviceModel=web&deviceType=web&deviceVersion=DNT&includeExtendedEvents=false&marketingRegion=DE&serverSideAds=false&sid=7e35daaa-06ef-11eb-9df2-0242ac110002&terminate=false&userId='
PlutoTVSitcoms2='https://service-stitcher.clusters.pluto.tv/v1/stitch/embed/hls/channel/5d767ab2b456c8cf265ce921/master.m3u8?advertisingId=channel&appName=rokuchannel&appVersion=1.0&bmodel=bm1&channel_id=channel&content=channel&content_rating=ROKU_ADS_CONTENT_RATING&content_type=livefeed&coppa=false&deviceDNT=1&deviceId=channel&deviceMake=rokuChannel&deviceModel=web&deviceType=rokuChannel&deviceVersion=1.0&embedPartner=rokuChannel&genre=ROKU_ADS_CONTENT_GENRE&is_lat=1&platform=web&rdid=channel&studio_id=viacom&tags=ROKU_CONTENT_TAGS'
PlutoTVSitcoms='https://service-stitcher.clusters.pluto.tv/stitch/hls/channel/5d767ab2b456c8cf265ce921/master.m3u8?advertisingId=&appName=web&appStoreUrl=&appVersion=DNT&app_name=&architecture=&buildVersion=&deviceDNT=0&deviceId=5d767ab2b456c8cf265ce921&deviceLat=51.2993&deviceLon=9.4910&deviceMake=web&deviceModel=web&deviceType=web&deviceVersion=DNT&includeExtendedEvents=false&marketingRegion=DE&serverSideAds=false&sid=405&terminate=false&userId='
PlutoTVSitcoms+='https://service-stitcher.clusters.pluto.tv/stitch/hls/channel/5cd149f021cb6c55e258bbe8/master.m3u8?advertisingId=&appName=web&appStoreUrl=&appVersion=DNT&app_name=&architecture=&buildVersion=&deviceDNT=1&deviceId=5cd149f021cb6c55e258bbe8&deviceLat=&deviceLon=&deviceMake=web&deviceModel=web&deviceType=web&deviceVersion=DNT&includeExtendedEvents=false&marketingRegion=DE&serverSideAds=false&sid=375760ce-ac7c-4306-818c-98562edc8da5&terminate=false&userId='
PlutoTVSpongeBobSchwammkopf1='https://service-stitcher.clusters.pluto.tv/v1/stitch/embed/hls/channel/5d00e8adaab96b5635b2a005/master.m3u8?advertisingId=channel&appName=rokuchannel&appVersion=1.0&bmodel=bm1&channel_id=channel&content=channel&content_rating=ROKU_ADS_CONTENT_RATING&content_type=livefeed&coppa=false&deviceDNT=1&deviceId=channel&deviceMake=rokuChannel&deviceModel=web&deviceType=rokuChannel&deviceVersion=1.0&embedPartner=rokuChannel&genre=ROKU_ADS_CONTENT_GENRE&is_lat=1&platform=web&rdid=channel&studio_id=viacom&tags=ROKU_CONTENT_TAGS'
PlutoTVSpongeBobSchwammkopf2='https://service-stitcher.clusters.pluto.tv/stitch/hls/channel/5d00e8adaab96b5635b2a005/master.m3u8?advertisingId=&appName=web&appStoreUrl=&appVersion=DNT&app_name=&architecture=&buildVersion=&deviceDNT=1&deviceId=5d00e8adaab96b5635b2a005&deviceLat=&deviceLon=&deviceMake=web&deviceModel=web&deviceType=web&deviceVersion=DNT&includeExtendedEvents=false&marketingRegion=DE&serverSideAds=false&sid=715c465f-0715-11eb-a18c-0242ac110002&terminate=false&userId='
PlutoTVSpongeBobSchwammkopf='https://service-stitcher.clusters.pluto.tv/stitch/hls/channel/5d00e8adaab96b5635b2a005/master.m3u8?advertisingId=&appName=web&appStoreUrl=&appVersion=DNT&app_name=&architecture=&buildVersion=&deviceDNT=0&deviceId=5d00e8adaab96b5635b2a005&deviceLat=51.2993&deviceLon=9.4910&deviceMake=web&deviceModel=web&deviceType=web&deviceVersion=DNT&includeExtendedEvents=false&marketingRegion=DE&serverSideAds=false&sid=248&terminate=false&userId='
PlutoTVTeenNick='https://service-stitcher.clusters.pluto.tv/v1/stitch/embed/hls/channel/5f0d668b872e4400073acc68/master.m3u8?advertisingId=channel&appName=rokuchannel&appVersion=1.0&bmodel=bm1&channel_id=channel&content=channel&content_rating=ROKU_ADS_CONTENT_RATING&content_type=livefeed&coppa=false&deviceDNT=1&deviceId=channel&deviceMake=rokuChannel&deviceModel=web&deviceType=rokuChannel&deviceVersion=1.0&embedPartner=rokuChannel&genre=ROKU_ADS_CONTENT_GENRE&is_lat=1&platform=web&rdid=channel&serverSideAds=false&studio_id=viacom&tags=ROKU_CONTENT_TAGS'
PlutoTVVictorious='https://service-stitcher.clusters.pluto.tv/v1/stitch/embed/hls/channel/5e8b5e43f294f8000793c3d7/master.m3u8?advertisingId=channel&appName=rokuchannel&appVersion=1.0&bmodel=bm1&channel_id=channel&content=channel&content_rating=ROKU_ADS_CONTENT_RATING&content_type=livefeed&coppa=false&deviceDNT=1&deviceId=channel&deviceMake=rokuChannel&deviceModel=web&deviceType=rokuChannel&deviceVersion=1.0&embedPartner=rokuChannel&genre=ROKU_ADS_CONTENT_GENRE&is_lat=1&platform=web&rdid=channel&studio_id=viacom&tags=ROKU_CONTENT_TAGS'
