AméricaEstéreoGuayaquil='https://video.makrodigital.com/americaestereoguayaquil/americaestereoguayaquil/playlist.m3u8'
AméricaEstéreoIbarra='https://video.makrodigital.com/americaestereoibarra/americaestereoibarra/playlist.m3u8'
AméricaEstéreoQuito='https://video.makrodigital.com/americaestereoquito/americaestereoquito/playlist.m3u8'
AméricaEstéreoTulcán='https://video.makrodigital.com/americaestereotulcan/americaestereotulcan/playlist.m3u8'
AntenaUnoRadioVideo='https://tvdatta.com:3578/live/antenaunolive.m3u8'
Asomavisión='https://asomatv.duckdns.org/livestream/stream.m3u8'
AustralTV='https://stmv3.voxtvhd.com.br/australtv/australtv/playlist.m3u8'
BacánTeVeo='https://cloudvideo.servers10.com:8081/8064/index.m3u8'
CanalUno='https://cp.panelchs.com:1936/8034/8034/playlist.m3u8'
CuriquingueTV='https://video2.lhdserver.es/pjtv/live.m3u8'
DuendeTv='https://ed29ov.live.opencaster.com/EDokztdeHFwk/index.m3u8'
DuránTV='https://cloudvideo.servers10.com:8081/8074/index.m3u8'
Ecotel='https://ecotel.streamseguro.com/hls/ecoteltv.m3u8'
EcuadorTV='https://samson.streamerr.co:8081/akira/index.m3u8'
EcuaMundoRadioTV='https://pacific.direcnode.com:3353/live/ecuamundotvlive.m3u8'
EcuaStereoRadioTV='https://video.misistemareseller.com:443/ecuastereotv/ecuastereotv/playlist.m3u8'
Ecuavisa='https://redirector.rudo.video/hls-video/c54ac2799874375c81c1672abb700870537c5223/ecuavisaqo/ecuavisaqo/.m3u8'
EducaTV='https://vid2.ecuamedia.net/educatv/live/playlist.m3u8'
ElSolNetworkTV='https://server40.servistreaming.com:3174/live/elsolnetworklive.m3u8'
ElSolRadioyTelevisión='http://streaming5.globalhostla.com/rtplive/elsolrad/playlist.m3u8'
FMMundo='https://video2.makrodigital.com/fmmundo/fmmundo/playlist.m3u8'
HechosEcuador='https://stmv.streamingvip.click/hechosecuador/hechosecuador/playlist.m3u8'
IeanJesusEcuador='https://cloud37.ecuatel.com/iglesia2020/Stream1/playlist.m3u8'
IntiTV='https://5e2f36bc1c433.streamlock.net/inti/inti-network.stream/.m3u8'
LaNuevaRadioTV97.7='https://cp.panelchs.com:1936/8112/8112/playlist.m3u8'
LaPipolTvSangolquí='https://cp.panelchs.com:1936/8004/8004/playlist.m3u8'
LaRedondaTV='https://ythls.armelin.one/channel/UCG_S--F4wcdre2-8PG9YlhA.m3u8'
LatacungaTV='https://ssh101.bozztv.com/ssh101/streamlatacungatv/playlist.m3u8'
LatinaMixRadioTv='https://srv.panelcast.net/latinamixtvtv2021/latinamixtvtv2021/playlist.m3u8'
LoretoTV='https://stmv1.voxplayer.com.br/vidieg12/vidieg12/playlist.m3u8'
MajestadTelevisión='https://go.majestadtv.ec/hls/stream.m3u8'
Manavisión='https://play.once.net.ec/play/Ily2oYdd3E1fi9wK2zORoRovFU9P5xM0g3CNVK2MT0M/.m3u8'
MarcaTV='https://eu1.servers10.com:8081/8030/index.m3u8'
MarioPintoTV='https://eu1.servers10.com:8081/8028/index.m3u8'
MetropoliMediosTV='https://eu1.servers10.com:8081/8214/index.m3u8'
MulticanalCatamayo='https://multicanal.streamseguro.com/hls/streaming.m3u8'
Nortvisión='https://plataformavideo.com/live/nortvision.m3u8'
ÑukaTV='https://cloudvideo.servers10.com:8081/8118/index.m3u8'
OromarTV='https://stream.oromartv.com:8082/hls/oromartv_hi/index.m3u8'
PantallaClásicaEC='https://rpn3.bozztv.com/ssh101/ssh101/ecuadoralmundo/playlist.m3u8'
PasajeTV='https://canal.pasajetv.com/PasajeTV.m3u8'
PrensaEc='https://rpn3.bozztv.com/ssh101/ssh101/prensaec/playlist.m3u8'
PrincesaEstéreoTV='https://cp.panelchs.com:1936/8006/8006/playlist.m3u8'
PuruwaTV='https://live.tvcontrolcp.com:1936/puruwatv/puruwatv/playlist.m3u8'
RadioAlegria98.5FM='https://video.compuwebecuador.com:3880/stream/play.m3u8'
RadioBonita106.7='https://cloudvideo.servers10.com:8081/8154/index.m3u8'
RadioCuencaEstéreo='https://eu1.servers10.com:8081/8074/index.m3u8'
RadioFantástica98.9FM='http://190.107.232.9:8082/livestream/stream.m3u8'
RadioImpacto2='https://inliveserver.com:1936/17518/17518/playlist.m3u8'
RadioLaOriginalTV='https://cloudvideo.servers10.com:8081/8216/index.m3u8'
RadioRocafuerteTV='https://stmv.streamingvip.click/rocafuertefm/rocafuertefm/playlist.m3u8'
RTS='https://d2vb5iv6i34lh5.cloudfront.net/RTSEC/93fc3c04cedad73f1f80aebf11451d53.sdp/playlist.m3u8'
RTU='https://video1.makrodigital.com/rtu/rtu/chunks.m3u8?nimblesessionid='
RTVNaranjal='https://cp.panelchs.com:1936/rtsgctweku/rtsgctweku/playlist.m3u8'
RTVRiobamba='https://sv72.ecuaradiotv.net/rtvhd/live/manifest.m3u8'
SeñalPositivaTV='https://eu1.servers10.com:8081/8108/index.m3u8'
SonoOndaTV='https://live.obslivestream.com/sonoondatv/index.m3u8'
Teleamazonas='https://teleamazonas-live.cdn.vustreams.com/live/0fc97608-6057-4db8-9af7-102c21ac18af/live.isml/0fc97608-6057-4db8-9af7-102c21ac18af.m3u8'
Telerama='https://envivo.telerama.ec/stream.m3u8'
TVAustro='https://cp.panelchs.com:1936/8148/8148/playlist.m3u8'
TVLegislativa='http://181.198.32.153:8080/hls/stream.m3u8'
TVC='https://d2vb5iv6i34lh5.cloudfront.net/TVCEC/d58f5eb5cbb9ad9c56649a0083de7c8b.sdp/playlist.m3u8'
UEBITVOnline='https://cloud2.streaminglivehd.com:1936/uebi/uebi/playlist.m3u8'
VosyTV='https://cloud37.ecuatel.com/vostv/live/manifest.m3u8'
Wuan+='https://video2.makrodigital.com/wuanplus/wuanplus/playlist.m3u8'
ZaracayTV='https://video2.makrodigital.com/zaracay/zaracay/playlist.m3u8'
