3/24='https://directes-tv-int.ccma.cat/live-origin/canal324-hls/master.m3u8'
7TeleValencia='https://play.cdn.enetres.net/9E9557EFCEBB43A89CEC8FBD3C500247022/028/playlist.m3u8'
7TelevisiónRegióndeMurcia='https://rtv-murcia-live.globalmest.com/principal/smil:principal.smil/playlist.m3u8'
8LaMarinaTV='https://streaming005.gestec-video.com/hls/canal24.m3u8'
9laLomaTV='https://9laloma.tv/live.m3u8'
12TVAlicante='https://cloud.fastchannel.es/mic/manifiest/hls/12tv/12tv.m3u8'
28kanala='https://5940924978228.streamlock.net/8157/8157/master.m3u8'
101tvAntequera='https://streaming101tv.es/hls/webantequera.m3u8'
101tvAxarquía='https://streaming101tv.es/hls/webaxarquia.m3u8'
101tvCádiz='https://streaming101tv.es/hls/webcadiz.m3u8'
101tvMálaga='https://limited38.todostreaming.es/live/101tv-web101tv.m3u8'
101tvRonda='https://streaming101tv.es/hls/webronda.m3u8'
101tvSevilla='https://streaming101tv.es/hls/websevilla.m3u8'
ÀPunt1='https://bcovlive-a.akamaihd.net/1e7e91116b104391a4f22e13a694d94f/eu-central-1/6057955885001/playlist_dvr.m3u8'
ÀPunt='https://bcovlive-a.akamaihd.net/469e448f034b4d46afa4bcac53297d60/eu-central-1/6057955885001/playlist_dvr.m3u8'
ActivaTV='https://streamtv.mediasector.es/hls/activatv/index.m3u8'
AfortunadasTV='https://cloudvideo.servers10.com:8081/8108/index.m3u8'
AlacantíTV='https://streaming01.gestec-video.com/hls/artequatreAlacanti.m3u8'
AlcarriaTV1='http://217.182.77.27/live/alcarriatv-livestream.m3u8'
AlcarriaTV='https://cls.alcarria.tv/alcarriatv/livestream/playlist.m3u8'
ArabíTV='https://streamtv2.elitecomunicacion.cloud:3956/live/arabitvlive.m3u8'
AragónTV='https://cartv.streaming.aranova.es/hls/live/aragontv_canal1.m3u8'
BailénTV='http://cpd.bailen.tv:8080/Playlist_CANAL_24H/playlist.m3u8'
BDNCOM='https://liveingesta318.cdnmedia.tv/badalonatvlive/smil:live.smil/playlist.m3u8'
Betevé1='https://cdnapisec.kaltura.com/p/2346171/sp/234617100/playManifest/entryId/1_n6442jz0/format/applehttp/.m3u8?referrer=aHR0cHM6Ly9iZXRldmUuY2F0'
Betevé='https://cdnapisec.kaltura.com/p/2346171/sp/234617100/playManifest/entryId/1_n6442jz0/format/applehttp/protocol/https/uiConfId/42816492/a.m3u8?referrer=aHR0cHM6Ly9iZXRldmUuY2F0'
BiosferaTV='https://tvdatta.com:3021/live/biosferatvlive.m3u8'
BonDiaTV='https://directes-tv-int.ccma.cat/live-origin/bondia-hls/master.m3u8'
BurrianaTV='https://www.burrianateve.com/hls/btv.m3u8'
CadenaElite='https://cloudvideo.servers10.com:8081/8004/index.m3u8'
Canal1MarMenor-TorrePacheco='https://directo.tuwebtv.es/canal1.m3u8'
Canal3Biar='https://avantstreaming.es/hls/canal3.m3u8'
Canal4Catalunya='https://limited35.todostreaming.es/live/mitjans-livestream.m3u8'
Canal4Mallorca='https://limited35.todostreaming.es/live/mitjans-livestream1.m3u8'
Canal4ManchaCentro='https://5924d3ad0efcf.streamlock.net/canal4/canal4live/playlist.m3u8'
Canal4Tenerife='https://5940924978228.streamlock.net/Directo2/Directo2/playlist.m3u8'
Canal10Empordà='http://ventdelnord.tv:8080/escala/directe.m3u8'
Canal24Horas1='https://rtvelivestream-clnx.rtve.es/rtvesec/24h/24h_main_dvr.m3u8'
Canal24Horas='https://ztnr.rtve.es/ztnr/1694255.m3u8'
Canal24HorasCanarias1='https://rtvelivestream.akamaized.net/rtvesec/can/24h_can_main_dvr.m3u8'
Canal24HorasCanarias='https://ztnr.rtve.es/ztnr/5473142.m3u8'
Canal24HorasCatalunya1='https://rtvelivestream.akamaized.net/rtvesec/cat/24h_cat_main_dvr.m3u8'
Canal24HorasCatalunya='https://ztnr.rtve.es/ztnr/4952053.m3u8'
Canal25TV='https://common01.todostreaming.es/live/tvbarbastro-livestream.m3u8'
Canal33Madrid='https://5ab29cc78f681.streamlock.net/canal33tvmadridgmailcom/livestream/master.m3u8'
Canal45='https://nlb1-live.emitstream.com/hls/625csn5et2iszm9oze65/master.m3u8'
Canal56='https://videos.canal56.com/directe/stream/index.m3u8'
Canal2000LaSolana='http://canal2000.berkano-systems.net/streaming/streams/canal2000.m3u8'
CanalCoín='https://canalcoin.garjim.es/hls/directo.m3u8'
CanalDiocesano='https://nlb2-live.emitstream.com/hls/5i3pxfuz4az356yu22ij/master.m3u8'
CanalDoñana='https://secure5.todostreaming.es/live/division-alm.m3u8'
CanalExtremadura='https://cdnlive.codev8.net/canalextremaduralive/smil:channel1DVR.smil/playlist.m3u8?DVR='
CanalLuzTelevisión='https://5d8d85cf2c308.streamlock.net:1936/CanalLuz/enDirecto/playlist.m3u8'
CanalMálagaRTV='https://canalmalaga-tv-live.flumotion.com/playlist.m3u8'
CanalParlamento='https://congresodirecto.akamaized.net/hls/live/2037973/canalparlamento/master.m3u8'
CanalReusTV='https://liveingesta318.cdnmedia.tv/canalreustvlive/smil:live.smil/playlist.m3u8'
CanalSanRoque='https://cdnlivevlc.codev8.net/aytosanroquelive/smil:channel1.smil/playlist.m3u8'
CanalSierradeCádiz='https://s.emisoras.tv:8081/sierradecadiz/index.m3u8'
CanalSurAndalucía='https://cdnlive.codev8.net/rtvalive/smil:channel1.smil/playlist.m3u8'
CanalSurAndalucía2='https://cdnlive.codev8.net/rtvalive/smil:channel22.smil/playlist.m3u8'
CanalTaronjaAnoia='https://ingest1-video.streaming-pro.com/canaltaronja/anoia/playlist.m3u8'
CanalTaronjaComarquesCentrals='https://ingest1-video.streaming-pro.com/canaltaronja/central/playlist.m3u8'
CanalTaronjaOsonaiMoianés='https://ingest1-video.streaming-pro.com/canaltaronja/osona/playlist.m3u8'
CanalTerrassa='https://ingest2-video.streaming-pro.com/canalterrassa/stream/playlist.m3u8'
CanalTerresdeL'Ebre='https://ingest1-video.streaming-pro.com/canalteABR/ctestream/playlist.m3u8'
CanalCosta='https://5d8d85cf2c308.streamlock.net:1936/CanalcostaTV/endirecto/playlist.m3u8'
CancioneroTV='http://89.140.229.5/hls1/cancionero.m3u8'
CCMAExclusiu11='https://directes-tv-cat.ccma.cat/live-origin/oca1-hls/master.m3u8'
CCMAExclusiu1='https://directes-tv-es.ccma.cat/live-origin/oca1-hls/master.m3u8'
CCMAExclusiu21='https://directes-tv-cat.ccma.cat/live-origin/oca2-hls/master.m3u8'
CCMAExclusiu2='https://directes-tv-es.ccma.cat/live-origin/oca2-hls/master.m3u8'
CCMAExclusiu31='https://directes-tv-cat.ccma.cat/live-origin/oca3-hls/master.m3u8'
CCMAExclusiu3='https://directes-tv-es.ccma.cat/live-origin/oca3-hls/master.m3u8'
CetelmónTV='http://player.cetelmon.tv/protecteddfd43c2f3a8b41f3f28582bf8993aca6/992_high.m3u8'
CiudadesDelOcioTV='https://cloudvideo.servers10.com:8081/8024/index.m3u8'
ClanTVE1='https://rtvelivestream.akamaized.net/rtvesec/clan/clan_main_dvr.m3u8'
ClanTVE='https://ztnr.rtve.es/ztnr/5466990.m3u8'
CMMTV='https://cdnapi.kaltura.com/p/2288691/sp/228869100/playManifest/entryId/1_01fn4ycl/format/applehttp/.m3u8'
Condavisión='https://5d8d85cf2c308.streamlock.net:1936/Condavision/endirecto/playlist.m3u8'
CongresodelosDiputados1='https://congresodirecto.akamaized.net/hls/live/2038274/canal1/master.m3u8'
CongresodelosDiputados2='https://congresodirecto.akamaized.net/hls/live/2038275/canal2/master.m3u8'
CongresodelosDiputados3='https://congresodirecto.akamaized.net/hls/live/2038276/canal3/master.m3u8'
CongresodelosDiputados4='https://congresodirecto.akamaized.net/hls/live/2038277/canal4/master.m3u8'
CongresodelosDiputados5='https://congresodirecto.akamaized.net/hls/live/2038278/canal5/master.m3u8'
CórdobaTV='https://cloudvideo.servers10.com:8081/8020/index.m3u8'
CortsValencianes='https://streamserver3.seneca.tv/cval_live/cdn_enc_3/master.m3u8'
CostaNoroesteTV='https://limited31.todostreaming.es/live/noroestetv-livestream.m3u8'
CostadelSolTV='https://limited11.todostreaming.es/live/benalmadena-livestream.m3u8'
CristianaTV='https://cristianos2.todostreaming.es/live/malaga-livestream.m3u8'
CugatTV='https://liveingesta318.cdnmedia.tv/cugatcatlive/smil:rtmp01.smil/playlist.m3u8'
DiezTVLasVillas='https://streaming.cloud.innovasur.es/mmj2/index.m3u8'
DiezTVÚbeda='https://streaming.cloud.innovasur.es/mmj/index.m3u8'
DistritoTV='https://nlb2-live.emitstream.com/hls/3mn7wpcv7hbmxmdzaxap/master.m3u8'
DurangaldekoTelebista='https://nlb2-live.emitstream.com/hls/5f9asjsehd7gmyxsdpzu/master.m3u8'
El9TV='https://liveingesta318.cdnmedia.tv/9tvlive/smil:live.smil/playlist.m3u8?DVR='
El33SX31='https://directes-tv-cat.ccma.cat/live-origin/c33-super3-hls/master.m3u8'
El33SX3='https://directes-tv-es.ccma.cat/live-origin/c33-super3-hls/master.m3u8'
ElConfidencialTV='https://daqnsnf5phf17.cloudfront.net/v1/master/3722c60a815c199d9c0ef36c5b73da68a62b09d1/cc-sde7fypd1420w-prod/fast-channel-elconfidencial/fast-channel-elconfidencial.m3u8'
ELPAÍSTV='https://d2xqbi89ghm9hh.cloudfront.net/v1/master/3722c60a815c199d9c0ef36c5b73da68a62b09d1/cc-79fx3huimw4xc-ssai-prd/fast-channel-el-pais.m3u8'
ElToroTV='https://streaming-1.eltorotv.com/lb0/eltorotv-streaming-web/index.m3u8'
Elche7TV='https://elche7tv.gestec-video.com/hls/canal2.m3u8'
EmpordàTV='https://video3.lhdserver.es/empordatv2/live.m3u8'
ErloTelebista='https://5940924978228.streamlock.net/8159/8159/master.m3u8'
Esport31='https://directes-tv-cat.ccma.cat/live-origin/esport3-hls/master.m3u8'
Esport3='https://directes-tv-es.ccma.cat/live-origin/esport3-hls/master.m3u8'
EsteCanalTV='http://synclosdragos1.syncsolutions.es:8008/live3/emision/index.m3u8'
EsteponaTelevisión='https://cloudvideo.servers10.com:8081/8022/index.m3u8'
EsTuTele='https://cloud.streamingconnect.tv/hls/estutele/estutele.m3u8'
ETB1='https://multimedia.eitb.eus/live-content/etb1hd-hls/master.m3u8'
ETB2='https://multimedia.eitb.eus/live-content/etb2hd-hls/master.m3u8'
ETBBasque='https://multimedia.eitb.eus/live-content/eitbbasque-hls/master.m3u8'
ETVTerramar='https://liveingesta318.cdnmedia.tv/tvetvlive/smil:rtmp01.smil/playlist.m3u8'
EurolatinaTV='https://media2.streambrothers.com:1936/8150/8150/playlist.m3u8'
Fibwi='https://hostcdn3.fibwi.com/fibwi_diario/index.fmp4.m3u8'
FitelTV='https://tv.mywifisocial.es/live.m3u8'
FuengirolaTV='https://secure.todostreaming.es/live/nerja-livestream.m3u8'
FuerteventuraTV='https://5c0956165db0b.streamlock.net/ftv/directo/.m3u8'
GaliciaTVAmérica='https://america-crtvg.flumotion.com/playlist.m3u8'
GaliciaTVEuropa='https://europa-crtvg.flumotion.com/playlist.m3u8'
GoienaEus='https://zuzenean.goienamedia.eus/goiena-telebista.m3u8'
GoierriIrratiTelebista='https://5940924978228.streamlock.net/8155/8155/playlist.m3u8'
GuadaTV='https://cloud.streamingconnect.tv/hls/guadatv/guadatv.m3u8'
HamaikaTelebista='https://cdn3.wowza.com/1/RERMR282dnU5eE5Z/OHY0dVFs/hls/live/playlist.m3u8'
HuelvaTV='https://5d8d85cf2c308.streamlock.net:1936/huelvatv/htvdirecto/playlist.m3u8'
IberoAmericaTV='https://limited39.todostreaming.es/live/salome-livestream.m3u8'
IbizaGlobalTV='https://ibgrtv.streaming-pro.com/hls/ibgrlive.m3u8'
ImásTV='https://secure3.todostreaming.es/live/imastv-livestream.m3u8'
InteralmeriaTV='https://interalmeria.tv/directo/live.m3u8'
IntercomarcalTV='https://streamingtvi.gestec-video.com/hls/tvixa.m3u8'
JuntadeCastillayLeón='https://16escalones-live2.flumotion.com/chunks.m3u8'
KidzAtresmedia='https://fast-channels.atresmedia.com/648c271d2bfab0e4177a0d61/648c271d2bfab0e4177a0d61.m3u8'
KrolusTV='https://vcnkrolustv.teleosmedia.com/linear/krolustv/krolustv/playlist.m3u8'
La11='https://ztnr.rtve.es/ztnr/1688877.m3u8'
La1='https://rtvelivestream.akamaized.net/rtvesec/la1/la1_main_dvr.m3u8'
La1Canarias1='https://ztnr.rtve.es/ztnr/5190066.m3u8'
La1Canarias='https://rtvelivestream-clnx.rtve.es/rtvesec/can/la1_can_main_720.m3u8'
La1Catalunya1='https://ztnr.rtve.es/ztnr/3293681.m3u8'
La1Catalunya='https://rtvelivestream-clnx.rtve.es/rtvesec/cat/la1_cat_main_dvr.m3u8'
La21='https://ztnr.rtve.es/ztnr/1688885.m3u8'
La2='https://rtvelivestream-clnx.rtve.es/rtvesec/la2/la2_main_dvr.m3u8'
La2Canarias1='https://ztnr.rtve.es/ztnr/5468585.m3u8'
La2Canarias='https://rtvelivestream.akamaized.net/rtvesec/can/la2_can_main_dvr.m3u8'
La2Catalunya1='https://ztnr.rtve.es/ztnr/3987218.m3u8'
La2Catalunya='https://rtvelivestream.akamaized.net/rtvesec/cat/la2_cat_main_dvr.m3u8'
La8Mediterráneo='https://streaming004.gestec-video.com/hls/8TV.m3u8'
LaFábricaTV='https://mejorestrucos.com:5443/LiveApp/streams/854077030689510682594068.m3u8'
LaUrbanTV='https://urbanrevolution.es:8443/live/TV/playlist.m3u8'
LancelotTV='https://5c0956165db0b.streamlock.net:8090/directo/_definst_/lancelot.television/master.m3u8'
LaOtra='https://laotra-1-23.secure2.footprint.net/master.m3u8'
LleidaTelevisió='https://liveingesta318.cdnmedia.tv/lleidatvlive/smil:live.smil/playlist.m3u8?DVR='
LogosTV='https://streamer1.streamhost.org/salive/logosH/master.m3u8'
LogosTVEstudio='https://streamer1.streamhost.org/salive/logosdirectaH/playlist.m3u8'
LogosTVKids='https://streamer1.streamhost.org/salive/logoskidsH/playlist.m3u8'
LogosTVSalud='https://streamer1.streamhost.org/salive/logossaludH/playlist.m3u8'
M95TelevisiónMarbella='https://limited2.todostreaming.es/live/m95-livestream.m3u8'
MaestratTV='https://stream.maestrat.tv/hls/stream.m3u8'
MarTV='http://iptv.services.everywan.net:8080/martv-web/video.m3u8'
MataróTelevisió='https://liveingesta318.cdnmedia.tv/m1tvlive/smil:live.smil/playlist.m3u8?DVR='
Mijas3.40TV='https://streaming004.gestec-video.com/hls/MIJAS.m3u8'
MírameTV='https://bit.controlstreams.com:5443/LiveApp/streams/mirametv.m3u8'
MolahitsTV='http://ventdelnord.tv:8080/mola/directe.m3u8'
NegociosTV='https://streaming013.gestec-video.com/hls/negociostv.m3u8'
NoroesteTV='https://cloudvideo.servers10.com:8081/8032/index.m3u8'
NORTEvisión='http://amaru.dyndns.org:8870/0.m3u8'
OizmendiTelebista='https://5940924978228.streamlock.net/8161/8161/master.m3u8'
OlotTV='https://liveingesta118.cdnmedia.tv/olottvlive/smil:live.smil/playlist.m3u8?DVR='
Onda15TV='https://cloudvideo.servers10.com:8081/8034/index.m3u8'
OndaAlgecirasTV='https://cloudtv.provideo.es/live/algecirastv-livestream.m3u8'
OndaCádiz24h='https://ondacadiztv.es:30443/octv/24h/playlist.m3u8'
OndaGranCanaria='https://live.cloudhostservers.com:3473/stream/play.m3u8'
OndaMadrid='https://tvradio-1-23.secure2.footprint.net/master.m3u8'
OndaValencia='https://cloudvideo.servers10.com:8081/8116/index.m3u8'
ParlamentodeAndalucía='http://193.147.254.64:1935/realizacion1/realizacion1/playlist.m3u8'
ParlamentodeNavarra='https://broadcasting.parlamentodenavarra.es/live/canal1/master.m3u8'
PenedèsTelevisió='https://liveingesta318.cdnmedia.tv/rtvvilafrancalive/smil:live.smil/playlist.m3u8?DVR='
Pequeradio='https://canadaremar2.todostreaming.es/live/peque-pequetv.m3u8'
PieraTV='http://51.254.47.72:1935/piera/smil:piera.smil/master.m3u8'
PlatziTV='https://mdstrm.com/live-stream-playlist/629a63ae8df27c082901f78b.m3u8'
POPWorldTV='https://janus.xpbroadcasting.com:8443/hls/popworld.m3u8'
PopularTVCantabria='https://limited12.todostreaming.es/live/ptvcantabria-livestream.m3u8'
PopularTVMelilla1='http://5940924978228.streamlock.net:1935/8009/8009/playlist.m3u8'
PopularTVMelilla='https://5940924978228.streamlock.net/8009/8009/master.m3u8'
PopularTVMurcia='https://cloud.fastchannel.es/mic/manifiest/populartvrm.m3u8'
PTVAlmería='https://streamer.zapitv.com/ptv_almeria/index.m3u8'
PTVCórdoba='https://streamer.zapitv.com/PTV_CORDOBA/index.m3u8'
PTVGranada='https://streamer.zapitv.com/PTV-granada/index.m3u8'
PTVLinares='https://streamer.zapitv.com/ptv-linarez/index.m3u8'
PTVMálaga='https://streamer.zapitv.com/PTV-malaga/index.m3u8'
PTVSevilla='https://streamer.zapitv.com/PTV_sevilla/index.m3u8'
Punt3VallUixó='https://bit.controlstreams.com:5443/LiveApp/streams/punt3.m3u8'
RàdioBocairentTV='http://185.81.77.4/BocairentTV/index.m3u8'
RadioCarnavalTV='https://eu1.servers10.com:8081/8116/index.m3u8'
RadioRutasdelPerú='https://tv.portalexpress.es:3731/stream/play.m3u8'
RadioTelevisiónMelilla='https://tvmelilla-hls-rm-lw.flumotion.com/playlist.m3u8'
RadioTelevisiónMogán='https://cloudvideo.servers10.com:8081/8028/index.m3u8'
RealMadridTV='https://rmtv.akamaized.net/hls/live/2043153/rmtv-es-web/master.m3u8'
RiberaTV='https://common01.todostreaming.es/live/ribera-livestream.m3u8'
RiojaTelevisión='https://5924d3ad0efcf.streamlock.net/riojatv/riojatvlive/playlist.m3u8'
RTVElVendrell='https://liveingesta318.cdnmedia.tv/tvvendrelllive/smil:live.smil/playlist.m3u8'
RTVManilva='https://stream.castr.com/627a72d21914543be01c1720/live_e2ae1780dc2a11eca660b7b17b7952a5/index.m3u8'
RTVMarbella='https://streaming.rtvmarbella.tv/hls/streamingweb.m3u8'
RTVVida='https://vidartv2.todostreaming.es/live/radiovida-emisiontvhd.m3u8'
RTVCCardedeu='https://liveingesta118.cdnmedia.tv/cardedeutvlive/smil:live.smil/playlist.m3u8'
RTVCE='https://cdnlivevlc.codev8.net/rtvcelive/smil:channel1.smil/playlist.m3u8'
SalTelevisión='https://cloudvideo.servers10.com:8081/8254/index.m3u8'
SevillaFCTV='https://open.http.mp.streamamg.com/p/3001314/sp/300131400/playManifest/entryId/0_ye0b8tc0/format/applehttp/protocol/https/uiConfId/30026292/a.m3u8'
SolMúsica='https://d2glyu450vvghm.cloudfront.net/v1/master/3722c60a815c199d9c0ef36c5b73da68a62b09d1/cc-21u4g5cjglv02/sm.m3u8'
SolidariaTV='https://canadaremar2.todostreaming.es/live/solidariatv-webhd.m3u8'
SpektraTV='https://cloudvideo.servers10.com:8081/8136/index.m3u8'
STZTelebista='https://cloudvideo.servers10.com:8081/stztelebista/index.m3u8'
SX31='https://directes-tv-cat.ccma.cat/live-origin/super3-hls/master.m3u8'
SX3='https://directes-tv-es.ccma.cat/live-origin/super3-hls/master.m3u8'
Tac12='https://ingest1-video.streaming-pro.com/nimble/tac12/playlist.m3u8'
Tarotéame='https://5d2733224ac48.streamlock.net/taroteame/tarot_web/playlist.m3u8'
TarotVisión='https://stream.andalhost.com/hls/tarotvision.m3u8'
TBNEspaña='https://edge.xn--tbnespaa-j3a.es/LiveApp/streams/tbnlive.m3u8'
TEF='https://5940924978228.streamlock.net/EIVISSA_2/EIVISSA_2/playlist.m3u8'
Tele7='https://ingest2-video.streaming-pro.com/tele7_ABR/stream/playlist.m3u8'
TeleElx='https://tvdirecto.teleelx.es/stream/teleelx.m3u8'
TeleSafor='https://video.telesafor.com/hls/video.m3u8'
TeleBilbao='https://cloudbilbao.todostreaming.es/live/telebilbao-livestream.m3u8'
Teledeporte='https://rtvelivestream.akamaized.net/rtvesec/tdp/tdp_main.m3u8'
Teleganés='https://nlb2-live.emitstream.com/hls/5z6oj7ziwxzfnj78vg2m/master.m3u8'
TeleGilena='https://5940924978228.streamlock.net/Directo1/Directo1/master.m3u8'
Telemadrid='https://telemadrid-23.secure2.footprint.net/master.m3u8'
TelemadridInternacional='https://new-international-23.secure2.footprint.net/index.m3u8'
Telemotril='https://5940924978228.streamlock.net/8431/8431/playlist.m3u8'
Teleonuba='https://5d8d85cf2c308.streamlock.net:1936/Teleonuba/endirecto/playlist.m3u8'
TeleRibera='https://video1.lhdserver.es/teleribera/live.m3u8'
TeleVigo='https://cloud.fastchannel.es/mic/manifiest/hls/televigo/televigo.m3u8'
TelevisiónAranda='https://cloud.streamingconnect.tv/hls/telearanda/telearanda.m3u8'
TelevisiónConsciente='https://cdn318.fractalmedia.es/318/live/hls/tvc/master.m3u8'
Torrevisión='https://api.new.livestream.com/accounts/2614936/events/10365077/live.m3u8'
TPA7='https://cdnlive.codev8.net/rtpalive/smil:directo/playlist.m3u8?DVR='
TreceTV1='https://live-edge-bhs-1.cdn.enetres.net/091DB7AFBD77442B9BA2F141DCC182F5021/playlist.m3u8'
TreceTV='https://play.cdn.enetres.net/091DB7AFBD77442B9BA2F141DCC182F5021/live.smil/playlist.m3u8'
TuyaLaJandaTelevisión='http://185.210.20.13:8080/0.m3u8'
TV3='https://directes-tv-cat.ccma.cat/live-origin/tv3-hls/master.m3u8'
TV3CAT1='https://directes-tv-int.ccma.cat/live-origin/tvi-hls/master.m3u8'
TV3CAT2='https://directes-tv-cat.ccma.cat/live-origin/tvi-hls/master.m3u8'
TV3CAT='https://directes-tv-es.ccma.cat/live-origin/tvi-hls/master.m3u8'
TV4LaVall='https://limited09.todostreaming.es/live/tarson-livestream.m3u8'
TVAlmassora='https://live.fullsport.es/hls/tvalmassora.m3u8'
TVArtequatre='https://streaming007.gestec-video.com/hls/artequatreTVA.m3u8'
TVBerguedà='https://liveingesta318.cdnmedia.tv/berguedatvlive/smil:migracion.smil/playlist.m3u8?DVR='
TVCostaBrava='https://liveingesta318.cdnmedia.tv/costabravatvlive/smil:live.smil/playlist.m3u8'
TVFerrol='https://directo.tvferrol.es/tv.m3u8'
TVGirona='http://ventdelnord.tv:8080/girona/directe.m3u8'
TVHellín='https://hellin-hls-live.flumotion.com/playlist.m3u8'
TVL'Hospitalet='https://liveingesta318.cdnmedia.tv/tvhospitaletlive/smil:tvhospitalet.smil/playlist.m3u8?DVR='
TVRipollès='https://liveingesta318.cdnmedia.tv/tvripolleslive/smil:live.smil/playlist.m3u8?DVR='
TVSabadell-Vallès='https://ingest1-video.streaming-pro.com/canaltaronja/sabadell/playlist.m3u8'
TVSanVicente='https://emision.arpamedia.es:4343/hls/tvsanvicenteweb.m3u8'
TVVegaBaja='https://streaming.tvt.es:8080/hls/tvb_interno/live.m3u8'
TVCentroAndalucía='https://5fa5de1a545ae.streamlock.net/8052/8052/playlist.m3u8'
TVG='https://europa-crtvg.flumotion.com/crtvg/europa_high/playlist.m3u8'
TVG21='https://events2-crtvg.flumotion.com/playlist.m3u8'
TVG2='https://events3-crtvg.flumotion.com/playlist.m3u8'
TVGCativ@s='https://xabarintv-r2-crtvg.flumotion.com/playlist.m3u8'
TVGCultural='https://cultural-crtvg.flumotion.com/playlist.m3u8'
TVGEvento1='https://events1-crtvg.flumotion.com/playlist.m3u8'
TVGEvento4='https://events4-crtvg.flumotion.com/playlist.m3u8'
TVGEvento5='https://amodino-crtvg.flumotion.com/playlist.m3u8'
TVGInfantil='https://infantil-crtvg.flumotion.com/playlist.m3u8'
TVGMociñ@s='https://xabarintv-r3-crtvg.flumotion.com/playlist.m3u8'
TVGMomentosG='https://momentog-crtvg.flumotion.com/playlist.m3u8'
TVGMusigal='https://musigal-crtvg.flumotion.com/playlist.m3u8'
TVGPequerrech@s='https://xabarintv-r1-crtvg.flumotion.com/playlist.m3u8'
TVMCórdoba1='http://teledifusion.tv/cordoba/cordobalive/playlist.m3u8'
TVMCórdoba='https://5924d3ad0efcf.streamlock.net/cordoba/cordobalive/playlist.m3u8'
TVReus='https://eu1.servers10.com:8081/8166/index.m3u8'
UDLasPalmasTV='https://cdn318.fractalmedia.es/live319/hls/cudtv/high/index.m3u8'
UneVinalopó='https://streamingtvi.gestec-video.com/hls/unesd.m3u8'
UniversTV='https://cloud2.streaminglivehd.com:1936/universfaller/universfaller/playlist.m3u8'
UrolaTelebista='https://5940924978228.streamlock.net/j_Directo2/mp4:j_Directo2/playlist.m3u8'
VallèsVisió='https://liveingesta318.cdnmedia.tv/vallesvisiotvlive/smil:live.smil/playlist.m3u8'
VentdelnordTV='http://ventdelnord.tv:8080/hls/directe.m3u8'
VerbenaTV='https://streamtv2.elitecomunicacion.cloud:3144/live/verbenatvlive.m3u8'
VinxTV='https://tv.radiocast.es:5443/vinxtv/streams/vinxtvlive.m3u8'
Visión6TV='https://secure3.todostreaming.es/live/visionseis-livestream.m3u8'
VivaMurciaTV='http://185.36.211.142:8080/tmp_hls/viva/index.m3u8'
Vivamóvil='https://5d8d85cf2c308.streamlock.net:1936/AlcalaTV/endirecto/playlist.m3u8'
VOTV='https://ingest2-video.streaming-pro.com/votv/streaming_web/playlist.m3u8'
XPTV1='https://janus.xpbroadcasting.com:8443/hls/xptv1.m3u8'
XPTV2='https://janus.xpbroadcasting.com:8443/hls/xptv2.m3u8'
XPTVUS='https://janus.xpbroadcasting.com:8443/hls/xptvUS.m3u8'
ZafraTV='https://cloud.fastchannel.es/mic/manifiest/hls/radiotvzafra/radiotvzafra.m3u8'
