BloombergQuicktake='https://bloomberg-quicktake-2-eu.rakuten.wurl.tv/playlist.m3u8'
BratTV='https://brat-rakuten.amagi.tv/playlist.m3u8'
ClubbingTV='https://clubbingtv-rakuten.amagi.tv/playlist.m3u8'
ComedyDynamics='https://comedydynamics-rakuten.amagi.tv/playlist.m3u8'
EDGEsport='https://edgesports-row-rakuten.amagi.tv/playlist.m3u8'
ESTV='https://estv-rakuten.amagi.tv/playlist.m3u8'
FailArmyInternational='https://failarmy-international-eu.rakuten.wurl.tv/playlist.m3u8'
InsightTV='https://insighttv-eng-rakuten.amagi.tv/playlist.m3u8'
InWonder='https://inwonder-eng-rakuten.amagi.tv/playlist.m3u8'
LoneStar='https://lonestar-rakuten.amagi.tv/playlist.m3u8'
MovieSphere='https://moviesphereuk-rakuten.amagi.tv/playlist.m3u8'
MyTimemovienetworkSpain='https://appletree-mytimespain-rakuten.amagi.tv/playlist.m3u8'
PeopleareAwesome='https://jukin-peopleareawesome-2-eu.rakuten.wurl.tv/playlist.m3u8'
RakutenActionMoviesSpain='https://rakuten-actionmovies-2-eu.rakuten.wurl.tv/playlist.m3u8'
RakutenComedyMoviesSpain='https://rakuten-comedymovies-2-eu.rakuten.wurl.tv/playlist.m3u8'
RakutenSpotlightSpain='https://rakuten-spotlight-2-eu.rakuten.wurl.tv/playlist.m3u8'
RakutenTopFreeSpain='https://rakuten-topfree-2-eu.rakuten.wurl.tv/playlist.m3u8'
RakutenTVFamilySpain='https://rakuten-family-2-eu.rakuten.wurl.tv/playlist.m3u8'
RakutenTVShowsSpain='https://rakuten-tvshows-2-eu.rakuten.wurl.tv/playlist.m3u8'
ThePetCollectiveEurope='https://the-pet-collective-international-eu.rakuten.wurl.tv/playlist.m3u8'
Wonder='https://lds-wonder-rakuten.amagi.tv/playlist.m3u8'
YoungHollywood='https://younghollywood-rakuten.amagi.tv/playlist.m3u8'
