FilmRiseSci-FiFinland='https://d39g1vxj2ef6in.cloudfront.net/v1/manifest/3fec3e5cac39a52b2132f9c66c83dae043dc17d4/prod-rakuten-stitched/d658fce8-d72e-4407-ba5b-14b823553af5/5.m3u8'
RakutenTVDraama='https://rakuten-drama-12-eu.rakuten.wurl.tv/playlist.m3u8'
RakutenTVHuippuelokuvat='https://rakuten-huippuelokuvat-1-eu.rakuten.wurl.tv/playlist.m3u8'
RakutenTVKomedia='https://rakuten-comedy-12-eu.rakuten.wurl.tv/playlist.m3u8'
RakutenTVPerhe='https://rakuten-family-12-eu.rakuten.wurl.tv/playlist.m3u8'
RakutenTVRakutenStories='https://rakuten-spotlight-12-eu.rakuten.wurl.tv/playlist.m3u8'
RakutenTVToiminta='https://rakuten-action-12-eu.rakuten.wurl.tv/playlist.m3u8'
