AfricaNewsEnglish='https://rakuten-africanews-1-fi.samsung.wurl.tv/manifest/playlist.m3u8'
BloombergQuicktake='https://bloomberg-quicktake-1-fi.samsung.wurl.tv/manifest/playlist.m3u8'
BloombergTVUS='https://bloomberg-bloomberg-1-fi.samsung.wurl.tv/manifest/playlist.m3u8'
EuronewsEnglish='https://rakuten-euronews-1-fi.samsung.wurl.tv/manifest/playlist.m3u8'
RakutenFamily='https://rakuten-family-12-fi.samsung.wurl.tv/playlist.m3u8'
