AfricaNewsEnglish='https://rakuten-africanews-1-ie.samsung.wurl.tv/manifest/playlist.m3u8'
AFVFamily='https://futuretoday-afv-family-2-ie.samsung.wurl.tv/playlist.m3u8'
BloombergQuicktake='https://bloomberg-quicktake-1-ie.samsung.wurl.tv/manifest/playlist.m3u8'
BloombergTVUS='https://bloomberg-bloomberg-1-ie.samsung.wurl.tv/manifest/playlist.m3u8'
EuronewsEnglish='https://rakuten-euronews-1-ie.samsung.wurl.tv/manifest/playlist.m3u8'
MavTVMotorsportsNetwork='https://mavtv-mavtvglobal-1-ie.samsung.wurl.tv/playlist.m3u8'
TheGuardian='https://rakuten-guardian-1-ie.samsung.wurl.tv/playlist.m3u8'
