FailarmyInternational='https://failarmy-international-in.samsung.wurl.tv/playlist.m3u8'
Filmstream='https://spi-filmstream-1-in.samsung.wurl.tv/playlist.m3u8'
GoUSA='https://brandusa-gousa-1-in.samsung.wurl.tv/playlist.m3u8'
InsightTV='https://insighttv-samsungindia.amagi.tv/playlist.m3u8'
InTrouble='https://introuble-samsungindia.amagi.tv/playlist.m3u8'
InWild='https://inwild-samsungindia.amagi.tv/playlist.m3u8'
InWonder='https://inwonder-samsungindia.amagi.tv/playlist.m3u8'
MavTV='https://mavtv-mavtvglobal-1-in.samsung.wurl.tv/playlist.m3u8'
PeopleareAwesome='https://jukin-peopleareawesome-2-in.samsung.wurl.tv/playlist.m3u8'
ThePetCollective='https://the-pet-collective-international-in.samsung.wurl.tv/playlist.m3u8'
Weatherspy='https://jukin-weatherspy-2-in.samsung.wurl.tv/playlist.m3u8'
