12TVParma='https://5929b138b139d.streamlock.net/12TVParma/livestream/playlist.m3u8'
20Mediaset='https://live3-mediaset-it.akamaized.net/Content/hls_h0_clr_vos/live/channel(lb)/index.m3u8'
27TwentySeven='https://live2.msf.cdn.mediaset.net/content/hls_h0_cls_vos/live/channel(ts)/index.m3u8'
51RadioTV1='http://wms.shared.streamshow.it/canale51/canale51/playlist.m3u8'
51RadioTV='https://59d7d6f47d7fc.streamlock.net/canale51/canale51/playlist.m3u8'
70-80TV='https://585b674743bbb.streamlock.net/9050/9050/playlist.m3u8'
111TV='https://5db313b643fd8.streamlock.net/111TV/111TV/playlist.m3u8'
A2itv='https://stream.sen-gt.com/A2itv/myStream/playlist.m3u8'
ABChannel='https://tsw.streamingwebtv24.it:1936/abchanneltv/abchanneltv/playlist.m3u8'
ACISportTV='https://g4wlk6xpy23a-hls-live.mariatvcdn.it/acisporttv/b7a3464f8e2001314de9fefebf11229d.sdp/playlist.m3u8'
Adnkronos='https://5e73cf528f404.streamlock.net/GR_sport/livestream/playlist.m3u8'
AlmaTV='http://151.0.207.99:1935/AlmaTv/AlmaTv/playlist.m3u8'
AltoAdigeTV='https://5f204aff97bee.streamlock.net/AltoAdigeTV/livestream/playlist.m3u8'
Antenna2TV='https://58f12ffd2447a.streamlock.net/Antenna2/livestream/playlist.m3u8'
AntennaTreVeneto='https://59d8c0cee6f3d.streamlock.net/antennatreveneto/antennatreveneto.stream/playlist.m3u8'
ApuliaWebTV='https://cp1.server89.com:19360/apuliawebtv/apuliawebtv.m3u8'
AuroraArte='https://59d7d6f47d7fc.streamlock.net/auroraarte/auroraarte/playlist.m3u8'
AzzurraTV='https://ed05.top-ix.org/avtvlive/azzurra/streaming/playlist.m3u8'
Bike='http://backup.superstreaming.inaria.me/BikeSmartMobilityDTT/playlist.m3u8'
BoingItaly='https://live2.msf.cdn.mediaset.net/content/hls_h0_clr_vos/live/channel(kb)/index.m3u8'
BomChannel='https://5f22d76e220e1.streamlock.net/BOMCHANNEL/BOMCHANNEL/playlist.m3u8'
CafeTV24='https://srvx1.selftv.video/cafe/live/playlist.m3u8'
CalabriaTV='https://5db313b643fd8.streamlock.net/CalabriaTv2/CalabriaTv2/playlist.m3u8'
CameradeiDeputati='https://video-ar.radioradicale.it/diretta/camera2/playlist.m3u8'
Canale2Altamura='https://59d7d6f47d7fc.streamlock.net/canale2/canale2/playlist.m3u8'
Canale5='https://live3-mediaset-it.akamaized.net/Content/hls_h0_clr_vos/live/channel(C5)/index.m3u8'
Canale7='http://wms.shared.streamshow.it/canale7/canale7/playlist.m3u8'
CANALE7='http://wms.shared.streamshow.it/canale7/mp4:canale7/playlist.m3u8'
Canale8='http://wms.shared.streamshow.it/canale8/canale8/playlist.m3u8'
CANALE8='http://wms.shared.streamshow.it/canale8/mp4:canale8/playlist.m3u8'
Canale10='http://37.187.142.147:1935/ch10live/high.stream/playlist.m3u8'
Canale21Extra='https://0ff9dd7fe9b64bc08a5fc4ed525454c3.msvdn.net/live/S42170132/sT6C3LFaD1iA/playlist.m3u8'
CanaleItalia='https://6e94aeeb1b42461d95f973ae34be5167.msvdn.net/ac115_live/canale1.smil/playlist.m3u8'
CarinaTV='https://stream7.zivoli.it/carinatv/carinatv/playlist.m3u8'
CartoonitoItaly='https://live2.msf.cdn.mediaset.net/content/hls_h0_clr_vos/live/channel(la)/index.m3u8'
CasaItalia53='https://ovp-live.akamaized.net/ac115_live/canale3.smil/playlist.m3u8'
Cine34='https://live3-mediaset-it.akamaized.net/Content/hls_h0_clr_vos/live/channel(b6)/index.m3u8'
ClassCNBC='https://streamcdnb10-859c1818ed614cc5b0047439470927b0.msvdn.net/live/S76890577/tDoFkZD3T1Lw/playlist.m3u8'
CompanyTV='https://5929b138b139d.streamlock.net/CompanyTV/smil:CompanyTV.smil/master.m3u8'
CusanoItaliaTV='https://router.xdevel.com/video0s975363-69/stream/playlist.m3u8'
DTelevision='https://ssh101.bozztv.com/ssh101/dtelevision/playlist.m3u8'
DeejayTV='https://4c4b867c89244861ac216426883d1ad0.msvdn.net/live/S85984808/sMO0tz9Sr2Rk/playlist.m3u8'
DI.TV80='https://5f22d76e220e1.streamlock.net/ditv80/ditv80/playlist.m3u8'
DonnaShopping='https://5926fc9c7c5b2.streamlock.net/9354/9354/playlist.m3u8'
DonnaTV='https://streaming.softwarecreation.it/DonnaTv/DonnaTv/playlist.m3u8'
EliveTVBrescia='https://59d7d6f47d7fc.streamlock.net/elivebresciatv/elivebresciatv/playlist.m3u8'
EntellaTV='https://5f22d76e220e1.streamlock.net/EntellaTV/EntellaTV/playlist.m3u8'
EsperiaTV1='http://wms.shared.streamshow.it/esperiatv/esperiatv/playlist.m3u8'
EsperiaTV='https://59d7d6f47d7fc.streamlock.net/esperiatv/esperiatv/playlist.m3u8'
EtnaEspressoChannel='https://5db313b643fd8.streamlock.net/Etnachannelponte/Etnachannelponte/playlist.m3u8'
èTvMarche='https://live.ipstream.it/etvmarche/etvmarche.stream/playlist.m3u8'
èTvRete7='https://live.ipstream.it/etv/etv.stream/playlist.m3u8'
EuroIndieMusicChartTV='http://178.33.224.197:1935/euroindiemusic/euroindiemusic/playlist.m3u8'
EuroTV='https://5f22d76e220e1.streamlock.net/eurotv/eurotv/playlist.m3u8'
FanoTV='https://5cbd3bc28341f.streamlock.net:444/fanotv_live/_definst_/43DA-3923-9C72-4E9F/playlist.m3u8'
FMITALIA='https://stream2.xdevel.com/video0s975817-1183/stream/playlist.m3u8'
GiornaleRadioTV='https://5f204aff97bee.streamlock.net/GR_tv/livestream/playlist.m3u8'
GiovanniPaoloTV='https://media2021.rtvweb.com/giovannipaolotv/web/playlist.m3u8'
GM24='https://streaming.softwarecreation.it/GM24/GM24/playlist.m3u8'
GO-TVCanale163='https://6zklxkbbdw9b-hls-live.mariatvcdn.it/msmotor/2f759512164fc6fe4acbed6a5648993a.sdp/playlist.m3u8'
Gold78='https://stream2.xdevel.com/video1s86-22/stream/playlist_dvr.m3u8'
GoldTV='https://streaming.softwarecreation.it/GoldTv/GoldTv/playlist.m3u8'
GoldTVSat='https://streaming.softwarecreation.it/GoldTvSat/GoldTvSat/playlist.m3u8'
GRPVERATV='https://5cbd3bc28341f.streamlock.net:444/grp/live/playlist.m3u8'
IcaroTV='https://59d7d6f47d7fc.streamlock.net/icarotv/icarotv/playlist.m3u8'
InLireTV='https://5f22d76e220e1.streamlock.net/inlire/inlire/playlist.m3u8'
InsuranceConnect='https://tsw.streamingwebtv24.it:1936/insuranceconnect/insuranceconnect/playlist.m3u8'
InterTV='https://open.http.mp.streamamg.com/p/3001560/sp/300156000/playManifest/entryId/0_xmkk2kjr/flavorIds/0_zlbr85f8,0_zlbr85f8,0_noewhew2/format/applehttp/protocol/https/a.m3u8'
Iris='https://live3-mediaset-it.akamaized.net/Content/hls_h0_clr_vos/live/channel(ki)/index.m3u8'
Italia1='https://live3-mediaset-it.akamaized.net/Content/hls_h0_clr_vos/live/channel(i1)/index.m3u8'
Italia21='https://live3-mediaset-it.akamaized.net/Content/hls_h0_clr_vos/live/channel(i2)/index.m3u8'
Italia2='https://59d7d6f47d7fc.streamlock.net/italia2/italia2/playlist.m3u8'
Italia2TV='http://wms.shared.streamshow.it/italia2/mp4:italia2/playlist.m3u8'
Italia71='https://streaming.softwarecreation.it/Italia7/Italia7/playlist.m3u8'
Italia7='http://151.0.207.99:1935/italia7/italia7/playlist.m3u8'
ItaliaChannel='https://stream1.aswifi.it/italiachannel/stream/index.m3u8'
IuniorTV='https://5f22d76e220e1.streamlock.net/iuniortv/iuniortv/playlist.m3u8'
JuweloItalia='https://sdn-global-live-streaming-packager-cache.3qsdn.com/7841/7841_264_live.m3u8'
KissKissNapoliTV='https://58f12ffd2447a.streamlock.net/KKTVNapoli/livestream/playlist.m3u8'
KissKissTV1='https://58f12ffd2447a.streamlock.net/KKMulti/livestream/playlist.m3u8'
KissKissTV2='https://58f12ffd2447a.streamlock.net/KKTV01/livestream/playlist.m3u8'
KissKissTV='https://59253971be783.streamlock.net/KissKissTV/KissKissTV.stream/playlist.m3u8'
L'altroCorriereTV='https://stream.cp.ets-sistemi.it:1936/laltrocorriere-tv/laltrocorriere-tv/playlist.m3u8'
L@bTV='http://live.sloode.com:1935/labtv_live/labtv/playlist.m3u8'
La5='https://live3-mediaset-it.akamaized.net/Content/hls_h0_clr_vos/live/channel(ka)/index.m3u8'
La71='https://d15umi5iaezxgx.cloudfront.net/LA7/CLN/HLS-B/Live.m3u8'
La7='https://d15umi5iaezxgx.cloudfront.net/LA7/CLN/HLS/Live.m3u8'
La7d='https://d15umi5iaezxgx.cloudfront.net/LA7D/CLN/HLS-B/Live.m3u8'
LaCNews24='https://f5842579ff984c1c98d63b8d789673eb.msvdn.net/live/S27391994/HVvPMzy/playlist.m3u8'
LaCTV='https://f5842579ff984c1c98d63b8d789673eb.msvdn.net/live/S47282891/JWjL3xqPf4bX/playlist.m3u8'
LaTR3Marsala='https://tsw.streamingwebtv24.it:1936/eslife1/eslife1/playlist.m3u8'
LazioTV1='http://151.0.207.99:1935/live/LAZIOTV12/playlist.m3u8'
LazioTV='https://streaming.softwarecreation.it/LazioTv/LazioTv/playlist.m3u8'
LeCronacheTV1='http://77.68.40.210:8888/hls/cronache.m3u8'
LeCronacheTV='http://stucazz.com:8888/hls/cronache.m3u8'
LiraTV='https://5d79ae45bc63b.streamlock.net/Liratv/Liratv/playlist.m3u8'
LombardiaTV='https://5db313b643fd8.streamlock.net/LOMBARDIATV/LOMBARDIATV/playlist.m3u8'
LoveinVenice='https://59d7d6f47d7fc.streamlock.net/loveinvenice/loveinvenice/playlist.m3u8'
LucaniaChannel='http://wms.shared.streamshow.it/lucaniatv/lucaniatv/playlist.m3u8'
m2oTV='https://4c4b867c89244861ac216426883d1ad0.msvdn.net/live/S62628868/uhdWBlkC1AoO/playlist.m3u8'
MadeinBOTV='https://srvx1.selftv.video/dmchannel/live/playlist.m3u8'
MariaVision='https://1601580044.rsc.cdn77.org/live/_jcn_/amlst:CHANNEL_2/playlist.m3u8'
MediaTV='http://live.sloode.com:1935/mediatv/live/playlist.m3u8'
MediasetExtra='https://live3-mediaset-it.akamaized.net/Content/hls_h0_clr_vos/live/channel(kq)/index.m3u8'
MediasetItalia='https://live2.msf.cdn.mediaset.net/content/hls_h0_clr_vos/live/channel(i2)/index.m3u8'
MediterraniaTV='https://59bb40cf810aa.streamlock.net:4443/streamingvincente/streamingvincente/playlist.m3u8'
MedjugorjeItaliaTV='https://5f22d76e220e1.streamlock.net/medjugorjeitaliatv/medjugorjeitaliatv/playlist.m3u8'
MinformoTV='https://5db313b643fd8.streamlock.net/MinformoTV/MinformoTV/playlist.m3u8'
NewSignal='https://5f22d76e220e1.streamlock.net/NewSignalTV/NewSignalTV/playlist.m3u8'
NTN='https://stream4.xdevel.com/video0s975955-782/stream/playlist.m3u8'
NuovaTV1='https://nuovatv.net:8443/tv/stream.m3u8'
NuovaTV2='https://nuovatv.net:8443/tv2/stream.m3u8'
Odeon24='https://streaming.softwarecreation.it/Odeon/Odeon/playlist.m3u8'
OndaNovaraTV='https://585b674743bbb.streamlock.net/9006/9006/master.m3u8'
OndaTV='https://5926fc9c7c5b2.streamlock.net/9040/9040/chunklist_w1373908906.m3u8'
OrlerTV='https://w1.mediastreaming.it/orlertv/livestream/playlist.m3u8'
OttoChannel='https://ottop-live-meride.akamaized.net/hls/live/2039996/ch1/playlist.m3u8'
PaciContemporaryChannel='https://5f22d76e220e1.streamlock.net/pacicontemporarychannel/pacicontemporarychannel/playlist.m3u8'
PadrePioTV='https://600f07e114306.streamlock.net/PadrePioTV/livestream/playlist.m3u8'
ParadiseTV='https://tsw.streamingwebtv24.it:1936/paradisetv/paradisetv/playlist.m3u8'
ParolediVita='https://5db313b643fd8.streamlock.net/Paroledivita/Paroledivita/playlist.m3u8'
PartenopeTV='https://streamlive.arcapuglia.it:8080/live/partenope/index.m3u8'
PassioneLotto='http://185.63.52.103:8080/hls/passionelotto/1_2/index.m3u8'
POPTelevision='https://stream1.aswifi.it/poptelevision/live/index.m3u8'
PrimaTVNapoli='https://stream1.aswifi.it/primatvnapoli/live/index.m3u8'
PrimaTVSicilia='https://5db313b643fd8.streamlock.net/PrimaTV/PrimaTV/playlist.m3u8'
PrimAntennaTV='https://5f22d76e220e1.streamlock.net/primantenna14/primantenna14/playlist.m3u8'
Primocanale='https://msh0203.stream.seeweb.it/live/flv:stream2.sdp/playlist.m3u8'
PromovideoTV='https://media2021.rtvweb.com/promovideo_web/promovideo/playlist.m3u8'
QuartoCanaleFlegreo='https://live.mariatvcdn.com/dialogos/171e41deedf405f10c7dd6311387fb43.sdp/playlist.m3u8'
R101ItaliaIT='https://live3-radio-mediaset-it.akamaized.net/content/hls_h0_clr_vos/live/channel(er)/index.m3u8'
Radio51TV='http://178.32.140.155/canale51/canale51/playlist.m3u8'
Radio105TV='https://live3-radio-mediaset-it.akamaized.net/content/hls_h0_clr_vos/live/channel(ec)/index.m3u8'
RadioBirikinaTV='https://56b50ada2d659.streamlock.net/RadioBirikinaTV/livestream/playlist.m3u8'
RadioFrecciaTV='https://streamcdnb1-dd782ed59e2a4e86aabf6fc508674b59.msvdn.net/live/S3160845/0tuSetc8UFkF/playlist_video.m3u8'
RadioIbizaTV='https://5929b138b139d.streamlock.net/RadioIbizaTV/livestream/playlist.m3u8'
RadioIglesias='http://wms.shared.streamshow.it/visualradio/mp4:visualradio/playlist.m3u8'
RadioIglesiasSardegna='https://59d7d6f47d7fc.streamlock.net/visualradio/visualradio/playlist.m3u8'
RadioItaliaAnni60TV='https://tvd-ria60.fluid.stream/Anni60TV/livestream/playlist.m3u8'
RadioMontecarlo='https://live3-radio-mediaset-it.akamaized.net/Content/hls_h0_clr_vos/live/channel(bb)/index.m3u8'
RadioNumberOne='https://56b50ada2d659.streamlock.net/RN1TV/livestream/playlist.m3u8'
RadioPiterPanTV='https://58d921499d3d3.streamlock.net/RadioPiterpanTV/livestream/playlist.m3u8'
RadioRadicaleTV='https://video-ar.radioradicale.it/diretta/padtv2/playlist.m3u8'
RadioRadioTV='https://api.new.livestream.com/accounts/11463451/events/3679884/live.m3u8'
RadioStudioDeltaTV='https://5ce9406b73c33.streamlock.net/RSD/ngrp:livestream_all/playlist.m3u8'
RadioTaorminaSicilia='https://stream2.xdevel.com/video1s3-7/stream/playlist.m3u8'
RadioZetaTV='https://streamcdnb1-dd782ed59e2a4e86aabf6fc508674b59.msvdn.net/live/S9346184/XEx1LqlYbNic/playlist_video.m3u8'
RadioZeta='https://unlimited1-cl.dps.live/radioztv/radioztv.smil/radioztv/livestream2/chunks.m3u8'
Rai11='https://mediapolis.rai.it/relinker/relinkerServlet.htm?cont=2606803'
Rai1='https://mediapolisevent.rai.it/relinker/relinkerServlet.htm?cont=2606803'
Rai21='https://mediapolis.rai.it/relinker/relinkerServlet.htm?cont=308718'
Rai2='http://stream.tvtap.net:8081/live/it-rai2.stream/playlist.m3u8'
Rai31='https://wzstreaming.rai.it/TVlive/liveStream/chunklist_w823540263.m3u8'
Rai32='https://wzstreaming.rai.it/TVlive/liveStream/playlist.m3u8'
Rai33='https://mediapolis.rai.it/relinker/relinkerServlet.htm?cont=308709'
Rai3='http://stream.tvtap.net:8081/live/it-rai3.stream/playlist.m3u8'
Rai41='https://mediapolisevent.rai.it/relinker/relinkerServlet.htm?cont=746966'
Rai42='https://mediapolis.rai.it/relinker/relinkerServlet.htm?cont=746966'
Rai4='http://stream.tvtap.net:8081/live/it-rai4.stream/playlist.m3u8'
RAI4K='https://raievent10-elem-live.akamaized.net/hls/live/619189/raievent10/raievent10/playlist.m3u8'
Rai51='https://mediapolis.rai.it/relinker/relinkerServlet.htm?cont=395276'
Rai5='http://stream.tvtap.net:8081/live/it-rai5.stream/playlist.m3u8'
RaiGulp='https://mediapolis.rai.it/relinker/relinkerServlet.htm?cont=746953'
RaiItaliaAmerica='http://210.210.155.69/s/s63/S4/mnf.m3u8'
RAIItaliaAsia='http://210.210.155.37/x6bnqe/s/s63/index2.m3u8'
RaiMovie='https://mediapolis.rai.it/relinker/relinkerServlet.htm?cont=747002'
RaiNews24='https://rainews1-live.akamaized.net/hls/live/598326/rainews1/rainews1/playlist.m3u8'
RaiPremium='https://mediapolis.rai.it/relinker/relinkerServlet.htm?cont=746992'
RaiScuola='https://mediapolis.rai.it/relinker/relinkerServlet.htm?cont=747011'
RaiSport2='http://originstream12.rai.it/italy/raisport2_1200/master.m3u8'
RaiStoria='https://mediapolis.rai.it/relinker/relinkerServlet.htm?cont=746990'
RaiYoYo='https://mediapolis.rai.it/relinker/relinkerServlet.htm?cont=746899'
RDSSocialTV='https://stream.rdstv.radio/out/v1/ec85f72b87f04555aa41d616d5be41dc/index.m3u8'
ReggioTV='https://cdn10.streamshow.it/cloud-reggiotv/reggiotv/chunklist.m3u8'
ReklamaTV='https://5f22d76e220e1.streamlock.net/reklamatv/reklamatv/playlist.m3u8'
Rete4='https://live3-mediaset-it.akamaized.net/Content/hls_h0_clr_vos/live/channel(r4)/index.m3u8'
Rete8VGA='https://604e46ac2bdee.streamlock.net:1936/rete8_1/rete8_1/playlist.m3u8'
Rete55='https://stream.internet.one/Rete55_Live/index.m3u8'
ReteBiellaTV='https://sb.top-ix.org/retebiella/streaming/playlist.m3u8'
ReteOro='https://5926fc9c7c5b2.streamlock.net/9094/9094/playlist.m3u8'
ReteTVItalia='https://57068da1deb21.streamlock.net/retetvitalia/retetvitalia/playlist.m3u8'
Retemia='https://5db313b643fd8.streamlock.net/Retemia/Retemia/playlist.m3u8'
RetesoleLazio='https://5926fc9c7c5b2.streamlock.net/9332/9332/playlist.m3u8'
Reteveneta='https://59d7d6f47d7fc.streamlock.net/reteveneta/reteveneta/playlist.m3u8'
RomaTV82='https://streaming.softwarecreation.it/RomaCH71/RomaCH71/playlist.m3u8'
RossiniTV='https://5cbd3bc28341f.streamlock.net:444/rossinitv_live/944A-63A6-9EB8-4492/playlist.m3u8'
RTCQuartaRete='https://msh0232.stream.seeweb.it/live/stream00.sdp/playlist.m3u8'
RTCTelecalabria1='http://fl1.mediastreaming.it:1935/calabriachannel/livestream/playlist.m3u8'
RTCTelecalabria='https://w1.mediastreaming.it/calabriachannel/livestream/playlist.m3u8'
RTL102.5Best='https://streamcdnb7-dd782ed59e2a4e86aabf6fc508674b59.msvdn.net/live/S76960628/OEPHRUIctA0M/playlist_video.m3u8'
RTL102.5Bro&Sis='https://streamcdnb6-dd782ed59e2a4e86aabf6fc508674b59.msvdn.net/live/S75007890/MUGHuxc9dQ3b/playlist.m3u8'
RTL102.5Doc='https://streamcdnb12-dd782ed59e2a4e86aabf6fc508674b59.msvdn.net/live/S51100361/0Fb4R3k82b5Z/playlist_video.m3u8'
RTL102.5Extra='https://streamcdnb2-dd782ed59e2a4e86aabf6fc508674b59.msvdn.net/live/S26743519/49ksH8apMKou/playlist.m3u8'
RTL102.5Napulé='https://streamcdnb5-dd782ed59e2a4e86aabf6fc508674b59.msvdn.net/live/S27134503/0f9AhuwKlhnZ/playlist_video.m3u8'
RTL102.5News='https://streamcdnb2-dd782ed59e2a4e86aabf6fc508674b59.msvdn.net/live/S38122967/2lyQRIAAGgRR/playlist_video.m3u8'
RTL102.5Romeo&Juliet='https://streamcdnb4-dd782ed59e2a4e86aabf6fc508674b59.msvdn.net/live/S8448465/zTYa1Z5Op9ue/playlist_video.m3u8'
RTL102.5TV='https://streamcdnb12-dd782ed59e2a4e86aabf6fc508674b59.msvdn.net/live/S97044836/tbbP8T1ZRPBL/playlist_video.m3u8'
RTMTV='https://5f22d76e220e1.streamlock.net/rtm/rtm/playlist.m3u8'
RTP='https://flash2.xdevel.com/rtptv/rtptv/playlist.m3u8'
RTTRTrento='https://5f204aff97bee.streamlock.net/RTTRlive/livestream/playlist.m3u8'
SardegnaUno='https://raw.githubusercontent.com/azgaresncf/strm2hls/main/streams/Sardegna1.m3u8'
SienaTV='https://stream10.xdevel.com/video0s976727-1544/stream/playlist.m3u8'
SL48TV='http://media.velcom.it:1935/sl48/sl48/playlist.m3u8'
SophiaTV='https://www.onairport.live/sophiatv-it-live/livestream/playlist.m3u8'
Sportitalia='https://di-yx2saj20.vo.lswcdn.net/sportitalia/smil:sportitaliahd.smil/playlist.m3u8'
Sportitalia24='https://di-yx2saj20.vo.lswcdn.net/sportitalia/smil:silive24.smil/playlist.m3u8'
SportitaliaLive24='https://di-g7ij0rwh.vo.lswcdn.net/sportitalia/silive24.smil/playlist.m3u8'
SportitaliaMotori='https://di-yx2saj20.vo.lswcdn.net/sportitalia/smil:simotori.smil/playlist.m3u8'
SportitaliaSoloCalcio='https://di-g7ij0rwh.vo.lswcdn.net/sportitalia/sisolocalcio.smil/playlist.m3u8'
SportitaliaSolocalcio='https://di-yx2saj20.vo.lswcdn.net/sportitalia/smil:sisolocalcio.smil/playlist.m3u8'
SportitaliaTV/Sportitalia/SI='https://di-g7ij0rwh.vo.lswcdn.net/sportitalia/sihd/playlist.m3u8'
STEuropeChannel='https://5f22d76e220e1.streamlock.net/steuropetv/steuropetv/playlist.m3u8'
Stereo5TV='https://stream1.aswifi.it/stereo5/live/index.m3u8'
SuperJTV='https://54627d4fc5996.streamlock.net/SuperJtv/SuperJtv/playlist.m3u8'
SuperJTVTeramo='http://uk4.streamingpulse.com:1935/SuperJtv/SuperJtv/playlist.m3u8'
SuperTennis='https://supertennix-l3-live1.secure.footprint.net/restreamer/supertennix_client/gpu-a-c0-16/restreamer/rtmp/hls/h24_supertennix/manifest.m3u8'
SuperTV1='http://wms.shared.streamshow.it/supertv/mp4:supertv/playlist.m3u8'
SuperTV='https://59d7d6f47d7fc.streamlock.net/supertv/supertv/playlist.m3u8'
SuperTVBrescia='http://wms.shared.streamshow.it:1935/supertv/supertv/live.m3u8'
SuperTVOristano='http://193.70.81.40:1935/supertvoristano/supertvoristano/playlist.m3u8'
Super!='https://vimnitaly.akamaized.net/hls/live/2094034/super/master-2500.m3u8'
SuperSixLombardia='https://5db313b643fd8.streamlock.net/SUPERSIXLombardia/SUPERSIXLombardia/playlist.m3u8'
T9='https://streaming.softwarecreation.it/tnove/tnove/playlist.m3u8'
TCFTV='http://live.sloode.com:1935/tcf_live/telecineforum/playlist.m3u8'
TCI='https://tbn-jw.cdn.vustreams.com/live/tci/live.isml/2b7d53c5-b504-4d26-b25f-a70deb8d0faf.m3u8'
TeatroTV='https://m.iostream.it/hls/teatrotv/teatrotv.m3u8'
TeleAbruzzo='http://uk4.streamingpulse.com:1935/TeleabruzzoTV/TeleabruzzoTV/playlist.m3u8'
TeleLiguriaSud='https://5f22d76e220e1.streamlock.net/tls/tls/playlist.m3u8'
TelePavia='http://wms.shared.streamshow.it/telepavia/telepavia/playlist.m3u8'
TelePegasoCatania='https://flash2.xdevel.com/telepegasocanale812/telepegasocanale812/playlist.m3u8'
TeleQuattro='http://wms.shared.streamshow.it/telequattro/telequattro/playlist.m3u8'
TeleRadioSciacca='http://5cbd3bc28341f.streamlock.net:1935/trs_live/teleradiosciacca-tv/playlist.m3u8'
TeleRomaUno='https://stream9.xdevel.com/video0s976607-1377/stream/playlist_dvr.m3u8'
TeleSondrioNews='https://59d8c0cee6f3d.streamlock.net/tsn/tsn_mobile/playlist.m3u8'
Teleacras='https://5cbd3bc28341f.streamlock.net:444/teleacras/live/playlist.m3u8'
TeleAmbienteTV='https://5f22d76e220e1.streamlock.net/teleambiente/teleambiente/playlist.m3u8'
TeleArena='https://5ce9406b73c33.streamlock.net/TeleArena/TeleArena.stream/playlist.m3u8'
TeleBari='http://fl1.mediastreaming.it:1935/telebari/livestream/playlist.m3u8'
Telebelluno='https://live.mariatvcdn.com/telebelluno/a3b80388da9801906adf885282e73bc3.sdp/mono.m3u8'
TeleCampione='https://5f22d76e220e1.streamlock.net/telecampione/telecampione/playlist.m3u8'
Telechiara='http://fms.tvavicenza.it:1935/telechiara/diretta/playlist.m3u8'
TelecolorLombardia='https://1aadf145546f475282c5b4e658c0ac4b.msvdn.net/live/324149/hlbAWtl/playlist.m3u8'
Telefoggia1='http://wms.shared.streamshow.it/telefoggia/mp4:telefoggia/playlist.m3u8'
Telefoggia='https://59d7d6f47d7fc.streamlock.net/telefoggia/telefoggia/playlist.m3u8'
TeleFormula='https://wms60.tecnoxia.com/radiof/abr_radioftele/playlist.m3u8'
Telefriuli='https://5757bf2aa08e42248fb9b9d620f5d900.msvdn.net/live/S11646715/pE3ax0lT0rBd/playlist.m3u8'
Telegela647='http://live.sloode.com:1935/qdg_live/AF74-FF2C-7350-41F2/playlist.m3u8'
TeleGenova='https://5db313b643fd8.streamlock.net/Telegenova/Telegenova/playlist.m3u8'
Telegranda='http://live.sloode.com:1935/telegranda_live/C2AD-0664-DC75-4744/playlist.m3u8'
Telejato='https://telejato.liberotratto.com/hls/0/stream.m3u8'
Teleliberta='https://api.new.livestream.com/accounts/17114188/events/4902226/live.m3u8'
TeleMajg='https://59d7d6f47d7fc.streamlock.net/telemajg/telemajg/playlist.m3u8'
Telemantova='https://5ce9406b73c33.streamlock.net/TeleMantova/livestream/playlist.m3u8'
TeleMia='https://playerssl.telemia.tv/fileadmin/hls/TelemiaHD/telemia85_mediachunks.m3u8'
TeleMiaExtra='https://playerssl.telemia.tv/fileadmin/hls/TelemiaExtra/telemiaextra_mediachunks.m3u8'
TeleMistretta='https://live.mariatvcdn.com/telemistretta/8fbcd205ada81b295ee6c211c3a80dde.sdp/playlist.m3u8'
Telemolise='http://185.202.128.1:1935/TelemoliseStream/telemoliseTV.stream/playlist.m3u8'
teleMonteneve='http://wms.shared.streamshow.it:1935/telemonteneve/telemonteneve/live.m3u8'
Telenord='https://5db313b643fd8.streamlock.net/Telenord/Telenord/playlist.m3u8'
Telepace1='https://live.mariatvcdn.com/teleradiopace1/efcc8fc46cab26315ce3f5845d76008f.sdp/index.m3u8'
Telepace2='https://live.mariatvcdn.com/teleradiopace2/254c9b5c52a73a94ef0f6169cbd05dc2.sdp/index.m3u8'
Telepace3='https://live.mariatvcdn.com/teleradiopace3/d2274c22e9ee09eb2eda01ed0496f8f5.sdp/index.m3u8'
Telepace4='https://live.mariatvcdn.com/teleradiopace4/13d74f2cfe921bfbc262697203d47d8f.sdp/index.m3u8'
TelepaceNews='https://live.mariatvcdn.com/teleradiopace6/d289fe76f16ad32afec471ea1b941583.sdp/index.m3u8'
TelepaceRoma='https://live.mariatvcdn.com/mariatvpoint/d36592901d5429dd7f9ec1e7bbeda8c2.sdp/index.m3u8'
TelepaceTrento='https://5a1178b42cc03.streamlock.net/telepacetrento/telepacetrento/playlist.m3u8'
telePAVIA1='http://wms.shared.streamshow.it/telepavia/mp4:telepavia/playlist.m3u8'
telePAVIA='http://wms.shared.streamshow.it:1935/telepavia/telepavia/live.m3u8'
TeleRama='https://58d921499d3d3.streamlock.net/TeleRama/livestream/playlist.m3u8'
TeleRegione118='https://streaming.softwarecreation.it/TR118/TR118/playlist.m3u8'
Teleromagna='https://livetr.teleromagna.it/teleromagna/live/playlist.m3u8'
TeleSanDomenico='https://stream.mariatvcdn.com/tsd/7c59373bfdb38201b9215ff86f0ce6af.sdp/playlist.m3u8'
TelesirioWebTV='https://www.telesirio.it/live/stream.m3u8'
Telestense='https://5e73cf528f404.streamlock.net/TeleEstense/livestream/playlist.m3u8'
Telesud='https://webtv.pugliaservice.it:1936/telesud-webtv/telesud-webtv/playlist.m3u8'
TelesudTrapani1='http://5cbd3bc28341f.streamlock.net:1935/telesud/live/playlist.m3u8'
TelesudTrapani='https://5cbd3bc28341f.streamlock.net:444/telesud/live/playlist.m3u8'
TeleTerni='https://diretta.teleterni.it:8080/show/show.m3u8'
Teletricolore='https://59d7d6f47d7fc.streamlock.net/rs2/rs2/playlist.m3u8'
TeleTusciaSabina2000='http://ts2000tv.streaming.nextware.it:8081/ts2000tv/ts2000tv/playlist.m3u8'
Televallo='https://5cbd3bc28341f.streamlock.net:444/televallo/live/playlist.m3u8'
TeleVenezia1='https://59d7d6f47d7fc.streamlock.net/televenezia/televenezia/playlist.m3u8'
TeleVenezia='https://59d8c0cee6f3d.streamlock.net/televenezia/televenezia/playlist.m3u8'
TeleVideoAgrigento='https://59d7d6f47d7fc.streamlock.net/tva/tva/playlist.m3u8'
TGNorba24='https://router.xdevel.com/video0s976570-1326/stream/playlist_dvr.m3u8'
TGCom24='https://live2-mediaset-it.akamaized.net/Content/hls_h0_clr_vos/live/channel(kf)/index.m3u8'
TLTMolise='https://5f22d76e220e1.streamlock.net/tltmolise/tltmolise/playlist.m3u8'
TopCrime='https://live3-mediaset-it.akamaized.net/content/hls_h0_clr_vos/live/channel(lt)/index.m3u8'
TRSport='https://livetr.teleromagna.it/mia/live/playlist.m3u8'
TrentinoTV='https://5e73cf528f404.streamlock.net/TrentinoTV/livestream/playlist.m3u8'
TSNTeleSondrioNews='http://wms.shared.streamshow.it/tsn/tsn_mobile/playlist.m3u8'
TT2Teletutto='https://600f07e114306.streamlock.net/TT2_TELETUTTO/livestream/playlist.m3u8'
TT24Teletutto='https://600f07e114306.streamlock.net/TT24_TELETUTTO/livestream/playlist.m3u8'
TTTeletutto='https://600f07e114306.streamlock.net/TT_TELETUTTO/smil:TT.smil/playlist.m3u8'
TV7Benevento='http://streaming.senecadot.com/live/flv:tv7.sdp/playlist.m3u8'
TV7Meteo='https://www.gruppotv7.com:8090/hls/meteo.m3u8'
TV7Triveneta='https://www.gruppotv7.com:8090/hls/ireporter.m3u8'
TV2000='https://hls-live-tv2000.akamaized.net/hls/live/2028510/tv2000/master.m3u8'
TVCampane1='https://eu1.servers10.com:8081/8032/index.m3u8'
TVPrato='https://live.mariatvcdn.com/tvprato/2db0dd5674586686a867ec52c3aa8e06.sdp/index.m3u8'
TVQui='https://59d7d6f47d7fc.streamlock.net/tvqui/tvqui/playlist.m3u8'
TVSei='http://185.202.128.1:1935/Tv6Stream/tv6TV.stream/playlist.m3u8'
TVYesItalia='https://stream1.aswifi.it/radioyes/live/index.m3u8'
TVA='http://fms.tvavicenza.it:1935/live/diretta_1/playlist.m3u8'
TVL='https://live.mariatvcdn.com/mariatvcdn/70564e1c6884c007c76f0c128d679eed.sdp/playlist.m3u8'
TVRSiciliaHD='https://ssh101.bozztv.com/ssh101/televita/playlist.m3u8'
TVRS='http://wms.shared.streamshow.it:1935/tvrs/tvrs/live.m3u8'
UmbriaTV='https://umbriatv.stream.rubidia.it:8083/live/umbriatv/playlist.m3u8'
UniNettunoUniversityTV='https://stream6-rai-it.akamaized.net/live/uninettuno/playlist.m3u8'
VeraTV1='http://wms.shared.streamshow.it/veratv/mp4:veratv/playlist.m3u8'
VeraTV='http://wms.shared.streamshow.it/veratv/veratv/playlist.m3u8'
VH1Italia='https://content.uplynk.com/channel/36953f5b6546464590d2fcd954bc89cf.m3u8'
VideoRola='https://d3b2epqdk0p7vd.cloudfront.net/out/v1/8a448b5e16384af4a3c8146a7b049c32/index.m3u8'
Videolina='http://livestreaming.videolina.it/live/Videolina/playlist.m3u8'
VisualRadio='http://wms.shared.streamshow.it:1935/visualradio/visualradio/live.m3u8'
VivaldiTV='https://cdn-ue1-prod.tsv2.amagi.tv/linear/amg01523-mezzo-vivalditv-tcl/playlist.m3u8'
Vuemme='https://5db313b643fd8.streamlock.net/Vuemme/Vuemme/playlist.m3u8'
WeddingTV='https://stream.cp.ets-sistemi.it:1936/profservtv/profservtv/playlist.m3u8'
WellTV='https://5f22d76e220e1.streamlock.net/canale5/canale5/playlist.m3u8'
ZerounoTVNews='https://5db313b643fd8.streamlock.net/ZerounoTVEventi/ZerounoTVEventi/playlist.m3u8'
