NextTV='http://gohoski.fvds.ru:3000/mediabay/601/playlist.m3u8'
TV1KG='http://212.2.225.30:1935/live/site.stream/playlist.m3u8'
ЛюбимыйHD/ТНТ4='http://92.245.103.126:1935/live/live.stream/playlist.m3u8'
УТРК1='https://64e5ed58c00d4.streamlock.net/live/smil:utrk.smil/playlist.m3u8'
УТРК='https://st2.mediabay.tv/KG_KTRK-UTRK/index.m3u8'
УТРКАла-Тоо241='https://64e5ed58c00d4.streamlock.net/live/smil:alatoo24.smil/playlist.m3u8'
УТРКАла-Тоо24='https://st2.mediabay.tv/KG_KTRK-Ala-too/playlist.m3u8'
УТРКБаластан1='https://st2.mediabay.tv/KG_KTRK-Balastan/index.m3u8'
УТРКБаластан='https://64e5ed58c00d4.streamlock.net/live/smil:balastan.smil/playlist.m3u8'
УТРКМаданият='https://st2.mediabay.tv/KG_KTRK-Madaniyat/playlist.m3u8'
УТРКМузыка1='https://64e5ed58c00d4.streamlock.net/live/smil:music.smil/playlist.m3u8'
УТРКМузыка='https://st2.mediabay.tv/KG_KTRK-Muzika/index.m3u8'
УТРКСпорт1='https://64e5ed58c00d4.streamlock.net/live/smil:sport.smil/playlist.m3u8'
УТРКСпорт='https://st2.mediabay.tv/KG_KTRK-Sport/index.m3u8'
ЭлТР='http://gohoski.fvds.ru:3000/mediabay/162/index.m3u8'
ЭлТРБилимИлим='http://gohoski.fvds.ru:3000/mediabay/611/index.m3u8'
312ТВ='http://176.126.166.43:1935/live/312musik/playlist.m3u8'
312Кино='http://176.126.166.43:1935/live/312kino/playlist.m3u8'
