AbaiTV='https://abaitv-stream.qazcdn.com/abaitv/abaitv/playlist.m3u8'
AlauTV='https://otv.wotom.net/alau/stream.m3u8'
Aqjaiyq='https://stream.kaztrk.kz/regional/oraltv/index.m3u8'
Aqtóbe='https://stream.kaztrk.kz/regional/aktobetv/index.m3u8'
AtamekenBusiness='http://live-atameken.cdnvideo.ru/atameken/atameken.sdp/playlist.m3u8'
Atyraý='https://stream.kaztrk.kz/regional/atyrautv/index.m3u8'
BalapanTV='https://balapantv-stream.qazcdn.com/balapantv/balapantv/playlist.m3u8'
Ertis='https://stream.kaztrk.kz/regional/pavlodartv/index.m3u8'
Jambyl='https://stream.kaztrk.kz/regional/taraztv/index.m3u8'
JibekJoly='https://ikomg3.s.llnwi.net/test123/master.m3u8'
Kókshe='https://stream.kaztrk.kz/regional/kokshetautv/index.m3u8'
ManasTV='http://212.42.111.152:8080/hls/manas.m3u8'
Mańǵystaý='https://stream.kaztrk.kz/regional/mangystautv/index.m3u8'
MuzzOne='https://muzzone-stream.daitsuna.net/muzzondvr/muzzone/playlist_dvr.m3u8'
Ontústik='https://stream.kaztrk.kz/regional/shymkenttv/index.m3u8'
QazaqstanTV='https://qazaqstantv-stream.qazcdn.com/qazaqstantv/qazaqstantv/playlist.m3u8'
QazaqstanTVInternational='https://qazaqstantv-stream.qazcdn.com/international/international/playlist.m3u8'
QazSport='https://qazsporttv-stream.qazcdn.com/qazsporttv/qazsporttv/playlist.m3u8'
Qostanai='https://stream.kaztrk.kz/regional/kostanaytv/index.m3u8'
Qyzyljar='https://stream.kaztrk.kz/regional/petropavltv/index.m3u8'
Qyzylorda='https://stream.kaztrk.kz/regional/kyzylordatv/index.m3u8'
Saryarqa='https://stream.kaztrk.kz/regional/karagandytv/index.m3u8'
Semeı='https://stream.kaztrk.kz/regional/semeytv/index.m3u8'
Алматы='http://live-almatytv.cdnvideo.ru/almatytv/almatytv.sdp/playlist.m3u8'
КТК1='https://wz-kt.ktk.kz/ktklive/smil:ktk-live.smil/playlist.m3u8'
КТК='http://89.218.30.37/ktklive/live.hq/playlist.m3u8'
МТРК='https://tvcdn01.oktv.kz/tv/mtrk/playlist.m3u8'
Новоетелевидение='http://serv25.vintera.tv:8081/novoetv/nov_tv/playlist.m3u8'
ПервыйканалЕвразия='https://1tvkz-stream.daitsuna.net/1tvkz/1tvkz/playlist.m3u8'
24KZ1='http://serv30.vintera.tv:8081/habar/habar24/playlist.m3u8'
24KZ='https://live-24kz.cdnvideo.ru/24kz/24kz.sdp/playlist.m3u8'
