1+2='http://89.254.128.5:22280/1_2/mono.m3u8'
8TV='http://89.254.128.5:22280/8tv_hd/index.m3u8'
Kanal7Baltics='http://89.254.128.5:22280/duo7_hd/index.m3u8'
LatvijasRadio2='https://5a44e5b800a41.streamlock.net/liveVLR2/mp4:LR2/playlist.m3u8'
LatvijasRadio3Klasika='https://5a44e5b800a41.streamlock.net/liveVLR3/mp4:Klasika/playlist.m3u8'
LatvijasŠlāgerkanāls='https://stream.onlive-media.com/live/streams/smk.m3u8'
LoloTV='https://void.greenhosting.ru/PingvinsLV_Mpeg4/video.m3u8'
LTV1='http://89.254.128.5:22280/ltv1_hd/index.m3u8'
MovifyKino='https://void.greenhosting.ru/MovifyKino_Mpeg4/index.m3u8'
Multimania='https://void.greenhosting.ru/Multimania_Mpeg4/index.m3u8'
MūzikasVideoKanāls='https://stream.onlive-media.com/live/streams/mvk.m3u8'
ReTV='https://retv2132.cloudycdn.services/slive/_definst_/retv_retv_channel_5k7_42787_default_891_hls.smil/playlist.m3u8'
TVJūrmala='https://air.star.lv/TV_Jurmala_multistream/index.m3u8'
TVNET='https://player.tvnet.lv/stream/amlst:61659/playlist.m3u8'
VidusdaugavasTelevīzija='https://straume.vdtv.lv/vdtv2/index.m3u8'
Хочувсёзнать='https://void.greenhosting.ru/HochuVjeZnat_Mpeg4/index.m3u8'
