MonacoInfo='https://webtvmonacoinfo.mc/live/prod_720/index.m3u8'
SuperyachtTV='https://sy.wns.live/hls/stream.m3u8'
TVMonaco='https://production-fast-mcrtv.content.okast.tv/channels/2116dc08-1959-465d-857f-3619daefb66b/b702b2b9-aebd-436c-be69-2118f56f3d86/2024/media.m3u8'
