AcasaTV='http://hls.protv.md/acasatv/acasatv.m3u8'
BălţiTV='http://77.89.199.174:8000/play/1024/index.m3u8'
BusuiocTV='https://busuioctv.iforward.eu/hls/busuioc.m3u8'
Drochia='https://hls.drochia.tv/tv/web.m3u8'
DuniaSinema='https://unifi-live05.secureswiftcontent.com/UnifiHD/live27-1080FHD.m3u8'
Moldova1='https://v0.trm.md/static/streaming-playlists/hls/a7784517-4451-4cea-a159-f42847a2aaf7/master.m3u8'
Moldova2='https://v2.trm.md/static/streaming-playlists/hls/76541c86-d7de-4c73-b4c0-4fe6670b90a8/master.m3u8'
MoldovaTV='http://89.38.8.130:39435'
N4='https://web.sats.gstv.tech/cpl11/da8df281-1165-440a-8c86-959f71b695b6/N4web.m3u8'
NorocTV='http://live.noroc.tv/hls/noroctv_chisinau.m3u8'
PublikaTV1='https://livebeta.publika.md/LIVE/P/6810.m3u8'
PublikaTV='https://livebeta.publika.md/LIVE/P/1500.m3u8'
RealitateaLive='https://realitatealive.md/tv/rlive.m3u8'
SorTV='http://188.237.212.16:8888/live/cameraFeed.m3u8'
TeleM='https://tv.streambox.ro/hls/telem/index.m3u8'
TezaurTV='http://tezaur.mlbfan.org/tezaur/index.m3u8'
TVRMoldova='https://mn-nl.mncdn.com/tvrmoldova_new/smil:tvrmoldova_new.smil/index.m3u8'
VoceaBasarabieiTV='https://storage.voceabasarabiei.md/hls/vocea_basarabiei.m3u8'
ТНТExclusivTV='http://89.28.25.122/hls/tnt_md.m3u8'
