TelevizijaTV71='http://uk4.streamingpulse.com:1935/tehnikatv777/tehnikatv777/playlist.m3u8'
TelevizijaTV7='https://5a1178b42cc03.streamlock.net/tehnikatv777/tehnikatv777/playlist.m3u8'
TVTeuta='https://teutastream.com/tvteuta/tracks-v1a1/mono.m3u8'
TVCG1='http://cdn3.bcdn.rs:1935/cg1/smil:cg1.smil/playlist.m3u8'
TVCG2='http://cdn3.bcdn.rs:1935/cg2/smil:cg2.smil/playlist.m3u8'
TVCG3='https://parlament.rtcg.me:1936/pr/smil:parlament.smil/playlist.m3u8'
TVCGMNE1='http://cdn3.bcdn.rs:1935/cgsat/smil:cgsat.smil/playlist.m3u8'
TVCGMNE2='http://rtcg2.videostreaming.rs:1935/rtcg/rtcg.1.stream/index.m3u8'
TVCGMNE='http://rtcg2.videostreaming.rs:1935/rtcg/rtcg.2.stream/playlist.m3u8'
