5Plus1='http://183.89.246.119:8881/play/a07w/index.m3u8'
5Plus='https://5a13fe32ef748.streamlock.net/mmplay/5plus/playlist.m3u8'
Channel71='http://183.89.246.119:8881/play/a07v/index.m3u8'
Channel7='https://5a13fe32ef748.streamlock.net/mmplay/channel7/playlist.m3u8'
Channel9='http://183.89.246.119:8881/play/a07y/index.m3u8'
ChannelK1='https://l1-xl1.myanmarnet.com/relay/channelk/ch1/stream.m3u8'
ChannelK2='http://183.89.246.119:8881/play/a080/index.m3u8'
ChannelK='https://5a13fe32ef748.streamlock.net/mmplay/channel9/playlist.m3u8'
EducationChannel='http://183.89.246.119:8881/play/a07s/index.m3u8'
FortuneTV='http://183.89.246.119:8881/play/a082/index.m3u8'
MaharBawdiTV='https://foreveralive1-a.akamaihd.net/327fbb9692d74b8a9fd35e75359fa826/ap-southeast-1/6057949479001/playlist.m3u8'
MaharTV='https://tv.mahar.live/mahar/website.stream/playlist.m3u8'
MCS='https://l1-xl1.myanmarnet.com/relay2/mcs/ch1/stream.m3u8'
MITV1='http://183.89.246.119:8881/play/a07r/index.m3u8'
MITV='https://5a13fe32ef748.streamlock.net/mmplay/mitv/playlist.m3u8'
MNTV1='https://l1-xl1.myanmarnet.com/relay/mntv/ch1/stream.m3u8'
MNTV='http://183.89.246.119:8881/play/a07x/index.m3u8'
MRTV='https://5a13fe32ef748.streamlock.net/mmplay/mrtv/playlist.m3u8'
MRTV41='http://183.89.246.119:8881/play/a07u/index.m3u8'
MRTV4='https://5a13fe32ef748.streamlock.net/mmplay/mrtv-4/playlist.m3u8'
MRTVEntertainment1='http://183.89.246.119:8881/play/a07t/index.m3u8'
MRTVEntertainment='https://5a13fe32ef748.streamlock.net/mmplay/mrtv-entertainment/playlist.m3u8'
MRTVFarmers='http://183.89.246.119:8881/play/a07p/index.m3u8'
MRTVNews='http://183.89.246.119:8881/play/a07m/index.m3u8'
MRTVNRC='http://183.89.246.119:8881/play/a07o/index.m3u8'
MRTVParliament1='http://183.89.246.119:8881/play/a07n/index.m3u8'
MRTVParliament='https://5a13fe32ef748.streamlock.net/mmplay/hluttaw/playlist.m3u8'
MRTVSports='http://183.89.246.119:8881/play/a07q/index.m3u8'
MWD='http://183.89.246.119:8881/play/a07z/index.m3u8'
YTV='http://183.89.246.119:8881/play/a081/index.m3u8'
