12VisiónEncarnación='https://stream.oursnetworktv.com/latin/encoder87b/playlist.m3u8'
15tvSabinas='https://hls.gvstream.live/telesistemas/15tv.stream/playlist.m3u8'
8NTV='https://60417ddeaf0d9.streamlock.net/ntv/videontv/playlist.m3u8'
ADN40='https://mdstrm.com/live-stream-playlist/60b578b060947317de7b57ac.m3u8'
AlcanceTV='https://5bf8041cb3fed.streamlock.net/AlcanceTV/AlcanceTV/playlist.m3u8'
AMás='https://mdstrm.com/live-stream-playlist/60b56be1000ea50835fa1e63.m3u8'
AMXNoticias='https://5e50264bd6766.streamlock.net/mexiquense2/videomexiquense2/playlist.m3u8'
AntenaTV='https://5ca9af4645e15.streamlock.net/grd/videogrd/playlist.m3u8'
AsíSucedeGuanajuato='https://stream.oursnetworktv.com/latin/encoder13/playlist.m3u8'
Azteca7='https://mdstrm.com/live-stream-playlist/609ad46a7a441137107d7a81.m3u8'
AztecaInternacional='https://azt-mun.otteravision.com/azt/mun/mun.m3u8'
AztecaUno='https://mdstrm.com/live-stream-playlist/609b243156cca108312822a6.m3u8'
B15='https://60ed5b6d0df78.streamlock.net:1936/envio2/envio2/playlist.m3u8'
CableNoticiasJalisco='https://stream.oursnetworktv.com/latin/encoder74/playlist.m3u8'
CaliforniaMediosTV='https://s5.mexside.net:1936/medios/medios/playlist.m3u8'
Canal4deMatehuala='https://stream.oursnetworktv.com/latin/encoder203/playlist.m3u8'
Canal51='https://channel05.akamaized.net/hls/live/2033783/event01/index.m3u8'
Canal5='https://linear-351.frequency.stream/mt/studio/351/hls/master/playlist.m3u8'
Canal6deTamazula='https://stream.oursnetworktv.com/latin/encoder6/playlist.m3u8'
Canal6Tecpán='https://stream.oursnetworktv.com/latin/encoder6tecpan/playlist.m3u8'
Canal7SLP='https://mvtvstream.com:444/live/6456eb2e56ab7/index.m3u8'
Canal10Cancún1='http://stream2.dynalias.com:1935/live/tvlive1/playlist.m3u8'
Canal10Cancún='https://canal10.mediaflix.istream.mx/wza_live/live/movil/playlist.m3u8'
Canal10Chiapas='https://5ca9af4645e15.streamlock.net/chiapas/videochiapas/playlist.m3u8'
Canal13Bajío='https://dbdfj5y8nz2u4.cloudfront.net/c13bajio/d0dbe915091d400bd8ee7f27f0791303.sdp/playlist.m3u8'
Canal13Campeche='https://dbdfj5y8nz2u4.cloudfront.net/c13campeche/d0dbe915091d400bd8ee7f27f0791303.sdp/playlist.m3u8'
Canal13Chiapas='https://dbdfj5y8nz2u4.cloudfront.net/c13chiapas/d0dbe915091d400bd8ee7f27f0791303.sdp/playlist.m3u8'
Canal13Guadalajara='https://dbdfj5y8nz2u4.cloudfront.net/c13guadalajara/d0dbe915091d400bd8ee7f27f0791303.sdp/playlist.m3u8'
Canal13Michoacán='https://dbdfj5y8nz2u4.cloudfront.net/c13michoacan/d0dbe915091d400bd8ee7f27f0791303.sdp/playlist.m3u8'
Canal13Oaxaca='https://dbdfj5y8nz2u4.cloudfront.net/c13oaxaca/d0dbe915091d400bd8ee7f27f0791303.sdp/playlist.m3u8'
Canal13Puebla='https://dbdfj5y8nz2u4.cloudfront.net/c13puebla/d0dbe915091d400bd8ee7f27f0791303.sdp/playlist.m3u8'
Canal13Tabasco='https://dbdfj5y8nz2u4.cloudfront.net/c13tabasco/d0dbe915091d400bd8ee7f27f0791303.sdp/playlist.m3u8'
Canal13Tapachula='https://dbdfj5y8nz2u4.cloudfront.net/c13tapachula/d0dbe915091d400bd8ee7f27f0791303.sdp/playlist.m3u8'
Canal13TierraCaliente='https://stream.oursnetworktv.com/latin/encoder30/playlist.m3u8'
Canal13Yucatán='https://dbdfj5y8nz2u4.cloudfront.net/c13yucatan/d0dbe915091d400bd8ee7f27f0791303.sdp/playlist.m3u8'
Canal15ILCESummaSabres='https://live-ilce.ovp-vivaro.digital/ovp-origin-abr/ngrp:6359ef999f3fb_all/playlist.m3u8'
Canal21Chignahuapan='https://stream.oursnetworktv.com/latin/pueblamx/playlist.m3u8'
Canal21Jalisco='https://stream.oursnetworktv.com/latin/encoder22/playlist.m3u8'
Canal21Rioverde='https://stream.oursnetworktv.com/latin/encoder91/playlist.m3u8'
Canal26Aguascalientes='https://60417ddeaf0d9.streamlock.net/telemetrika3/smil:telemetrika3.smil/playlist.m3u8'
Canal28='https://stream.castr.com/653d77dcde70014f52ad1e19/live_bf24d4208d8611eeb116dbe87aa63be0/rewind-3600.m3u8'
Canal30Cintalapa='https://rpn3.bozztv.com/ssh101/ssh101/canal30mx/playlist.m3u8'
Canal33Tijuana='https://5f2c1b0d880e5.streamlock.net/canal33tijuana/videocanal33tijuana/playlist.m3u8'
Canal37SanJuandelosLagos='https://stream.oursnetworktv.com/latin/encoder80/playlist.m3u8'
Canal44Chihuahua='https://5e50264bd6766.streamlock.net/canal442/videocanal442/playlist.m3u8'
Canal44CiudadJuárez='https://5e50264bd6766.streamlock.net/canal44/videocanal44/playlist.m3u8'
Canal47TVPuertoEscondido='https://stream.oursnetworktv.com/latin/encoder28/playlist.m3u8'
Canal50.1Juárez='https://stream.oursnetworktv.com/latin/juarez50/playlist.m3u8'
CanalCatorce='https://s6.mexside.net:1936/canal14/canal14/playlist.m3u8'
CanaldelCongreso45.1='https://edgeplay.canaldelcongreso.gob.mx/live_sd1/smil:canal-sd1.smil/playlist.m3u8'
CanaldelCongreso45.2='https://edgeplay.canaldelcongreso.gob.mx/live_sd2/smil:canal-sd2.smil/playlist.m3u8'
CanaldelCongreso45.3='https://edgeplay.canaldelcongreso.gob.mx/live_hd1/smil:canal-hd1.smil/playlist.m3u8'
CanalOchoTV='https://ssh101.bozztv.com/ssh101/ochotv/playlist.m3u8'
CanalParlamentodelCongresodeJalisco='https://60417ddeaf0d9.streamlock.net/srtc/smil:srtc.smil/playlist.m3u8'
Capital21='https://streamingc21.cdmx.gob.mx/capital21/stream.m3u8'
CartoonNetworkMéxico='https://playout.cdn.cartoonnetwork.com.br/playout_02/playlist-720p.m3u8'
CartoonitoMéxico='https://playout.cdn.cartoonnetwork.com.br/playout_04/playlist-720p.m3u8'
CNRTelevisión='https://stream.oursnetworktv.com/latin/cnrtelevision/playlist.m3u8'
ConectaTV='https://stream8.mexiserver.com:1936/conectatv/conectatv/playlist.m3u8'
CorTV='https://stream.oursnetworktv.com/latin/encoder29/playlist.m3u8'
CreaLaTV='https://ythls.armelin.one/channel/UCL1iKKBxY_iPu7iH-1wNdwQ.m3u8'
DespiertaTV='https://video2.lhdserver.es/despiertatv/live.m3u8'
DiezTVEncarnación='https://stream.oursnetworktv.com/latin/encoder87/playlist.m3u8'
EclipseTV='https://5caf24a595d94.streamlock.net:1937/djkuxtvfah/djkuxtvfah/playlist.m3u8'
EfesoTelevisión='https://stream.oursnetworktv.com/latin/Esotelevision/playlist.m3u8'
El15TV='https://stream.oursnetworktv.com/latin/encoder32/playlist.m3u8'
ElNU9VE1='https://channel06.akamaized.net/hls/live/2033784/event01/index.m3u8'
ElNU9VE='https://linear-352.frequency.stream/mt/studio/352/hls/master/playlist.m3u8'
ExpresaTV='https://5ca9af4645e15.streamlock.net/teleradio/smil:teleradio.smil/playlist.m3u8'
Filmex='https://filmex-filmex-xumo.amagi.tv/playlist.m3u8'
FilmexClásico='https://filmex-filmexclasico-xumo.amagi.tv/playlist.m3u8'
ForoTV='https://channel02-notusa.akamaized.net/hls/live/2023914/event01/index.m3u8'
GikTVMx='https://pistream.ddns.net/hls/stream.m3u8'
GoldenPlus='https://linear-410.frequency.stream/dist/vix/410/hls/master/playlist.m3u8'
GoldenPremier='https://linear-411.frequency.stream/dist/vix/411/hls/master/playlist.m3u8'
HipódromodelasAméricas='http://wms.tecnoxia.com:1935/8158/8158/playlist.m3u8'
IERTBCSCanal8LaPaz='https://60ed5b6d0df78.streamlock.net:1936/iertbcs/iertbcs/playlist.m3u8'
ImagenTV='https://ythls.armelin.one/channel/UCl5JKSQsl-_WSU1rz7_BCJA.m3u8'
IMRyTMorelosTV='https://stream8.mexiserver.com:1936/morelostv/morelostv/playlist.m3u8'
InfoTV9='https://stream.oursnetworktv.com/latin/encoder25/playlist.m3u8'
IngenioTV='https://dgtve-usso.streaming.media.azure.net/f6d9bfec-5e3d-48fb-b42a-d2a233e261ce/ca87097a-e200-4702-b523-2dc1b6bbc40f.ism/manifest(format=m3u8-aapl).m3u8'
JaliscoTV='https://5fa5de1a545ae.streamlock.net/sisjalisciense/sisjalisciense/playlist.m3u8'
JusticiaTV='https://live-scjn.ovp-vivaro.digital/ovp-origin/638a22b47746d/playlist.m3u8'
LaImagendeTierraCaliente='https://stream.oursnetworktv.com/latin/encoder82/playlist.m3u8'
LaLuperronaCiudadGuzmán='https://stream.oursnetworktv.com/radio/luperrongdgzman/playlist.m3u8'
LaLuperronaColima='https://stream.oursnetworktv.com/radio/luperrona415/playlist.m3u8'
LaLuperronaOcotlán='https://stream.oursnetworktv.com/radio/luperronaocotlan/playlist.m3u8'
LaRancheradeCuauhtémoc89.7FM='https://5fa5de1a545ae.streamlock.net/8010/8010/playlist.m3u8'
LaVozGruperaTV='https://cloudvideo.servers10.com:8081/8128/index.m3u8'
LasEstrellasLatinAmerica='https://channel01.akamaized.net/hls/live/2022749/event01/index.m3u8'
LasEstrellas+1='https://linear-414.frequency.stream/mt/studio/414/hls/master/playlist.m3u8'
LasEstrellas+2='https://linear-415.frequency.stream/mt/studio/415/hls/master/playlist.m3u8'
LoboTV='https://5ca3e84a76d30.streamlock.net/tvlobo/videotvlobo/playlist.m3u8'
LosAltosTelevisión='https://stream.oursnetworktv.com/latin/encoder1/playlist.m3u8'
MaríaVisiónMexico='https://1601580044.rsc.cdn77.org/live/_jcn_/amlst:Mariavision/master.m3u8'
Mayavisión='https://www.amixtv.com:8081/mayavision/index.m3u8'
MeganoticiasMX='https://pctv-meganoticias-1-mx.tcl.wurl.tv/playlist.m3u8'
MetrópoliTelevisión='https://stream.oursnetworktv.com/latin/Metropolitelevision/playlist.m3u8'
MexiquenseTV='https://5e50264bd6766.streamlock.net/mexiquense/videomexiquense/playlist.m3u8'
MiSURtv='https://stream8.mexiserver.com:1936/misurtv/misurtv/playlist.m3u8'
MonteMaria='https://616eee1852d6c.streamlock.net/live/myStream/playlist.m3u8'
MVMNoticias='https://dish.akamaized.net/Content/HLS_HLS_CLR/Live/channel(mvs)/variant.m3u8'
NMás='https://channel07-notusa.akamaized.net/hls/live/2036971/event01/index.m3u8'
NMásMedia1='https://channel04-notusa.akamaized.net/hls/live/2029754-b/event01/index.m3u8'
NMásMedia='https://channel04-notusa.akamaized.net/hls/live/2029754/event01/index.m3u8'
NNVeracruz='https://s.emisoras.tv:8081/nnveracruz/index.m3u8'
NRTMéxicoInternacional='https://59e88b197fb16.streamlock.net:4443/live/canal24/playlist.m3u8'
NRTMéxicoRegiónCentro='https://59e88b197fb16.streamlock.net:4443/live/canal4/playlist.m3u8'
NRTMéxicoRegiónSureste='https://59e88b197fb16.streamlock.net:4443/live/canal6/playlist.m3u8'
NueveTVSanLuísPotosí='https://5ca9af4645e15.streamlock.net/nuevetv/videonuevetv/.m3u8'
OlaGrupera='https://s.emisoras.tv:8081/olagruperamx/index.m3u8'
OnceMéxico='https://vivo.canaloncelive.tv/alivepkgr3/ngrp:cepro_all/playlist.m3u8'
Paralelo20650AM='https://stream.oursnetworktv.com/latin/paralelo20/playlist.m3u8'
PresumiendoMéxico='https://5ca39be538307.streamlock.net/telemetrika/smil:telemetrika.smil/playlist.m3u8'
QuieroTV='https://stream.oursnetworktv.com/latin/encoder12/playlist.m3u8'
RadarTV71='https://stream.oursnetworktv.com/latin/radarTV/playlist.m3u8'
RadioyTelevisiónBudokan='https://cp.panelchs.com:1936/8016/8016/playlist.m3u8'
RadioyTelevisiónCrisoldelaAlegría='https://omegaingenieria.com:19360/CRisolTVdigital-Live_abr/CRisolTVdigital-Live_abr.m3u8'
RalyTV='https://cloudvideo.servers10.com:8081/8072/index.m3u8'
RCGTV1='https://video1.getstreamhosting.com:1936/8172/8172/playlist.m3u8'
RCGTV2='https://5caf24a595d94.streamlock.net:1937/stream56/stream56/playlist.m3u8'
RCGTV='https://video1.getstreamhosting.com:1936/8246/8246/playlist.m3u8'
Romanza+Africa='https://origin3.afxp.telemedia.co.za/PremiumFree/romanza/playlist.m3u8'
RTG='https://5e50264bd6766.streamlock.net/rtg/videortg/playlist.m3u8'
RTQQuerétaro='http://wms.tecnoxia.com:1935/rytqrolive/rytqrolive/master.m3u8'
SeñalEspaña='https://tv91.hostingnuclear.com:19360/xhunestv/xhunestv.m3u8'
SETTelevisiónCanal26.1='http://189.240.210.28:1935/envivo/puecom/playlist.m3u8'
SETTelevisiónCanal26.2='http://189.240.210.28:1935/live/setpuebla/playlist.m3u8'
SíntesisTV='https://raw.githubusercontent.com/azgaresncf/strm2hls/main/streams/sintesis_tv.m3u8'
SIPSETV8.1='https://webprod.sipse.com.mx:8080/show/merida.m3u8'
SIPSETVCUN8.1='https://webprod.sipse.com.mx:8080/show/tvcun.m3u8'
SistemaMichoacanodeTV='https://60ed5b6d0df78.streamlock.net:1936/enlinea/enlinea/playlist.m3u8'
SIZARTCanal24='https://5ca9af4645e15.streamlock.net/zacatecas/videozacatecas/playlist.m3u8'
SQCSCanal4='https://5fa5de1a545ae.streamlock.net/4982/4982/playlist.m3u8'
SuperChannel12='https://servilive.com:3263/live/channel12live.m3u8'
TELE4Ojocaliente='https://stream.oursnetworktv.com/latin/encoder53/playlist.m3u8'
TeleFórmula='https://mdstrm.com/live-stream-playlist/62f2c855f7981b5a5a2d8763.m3u8'
Telehit='https://linear-417.frequency.stream/mt/studio/417/hls/master/playlist.m3u8'
TelehitMúsica='https://linear-418.frequency.stream/mt/studio/418/hls/master/playlist.m3u8'
TelemarCampeche='https://5e50264bd6766.streamlock.net/telemarcampeche/videotelemarcampeche/playlist.m3u8'
Telemax='http://s5.mexside.net:1935/telemax/telemax/playlist.m3u8'
TeleplaySureste1='https://teleplay.mediaflix.istream.mx/livestream/teleplay/livehd/playlist.m3u8'
TeleplaySureste='https://teleplay.mediaflix.istream.mx/livestream/teleplay/livesd/playlist.m3u8'
Teleritmo='https://mdstrm.com/live-stream-playlist/57b4dc126338448314449d0c.m3u8'
TlaxcalaTelevisión='https://vid.mega00.com:5443/LiveApp/streams/928111829917388844551988/928111829917388844551988.m3u8?token=null'
TransmediaTelevisiónMorelia1='http://streamingcws20.com:1935/tmtv/videotmtv/playlist.m3u8'
TransmediaTelevisiónMorelia='https://5ca3e84a76d30.streamlock.net/tmtv/videotmtv/playlist.m3u8'
TRCTelevisión='https://stream.oursnetworktv.com/latin/SRTC/playlist.m3u8'
TUDN='https://i.mjh.nz/SamsungTVPlus/USBD1700016X9.m3u8'
TUDNMéxico='http://190.61.102.67:2000/play/a08j/index.m3u8'
TuristikTV='https://5fa5de1a545ae.streamlock.net/8030/8030/.m3u8'
TV5TuCanal='https://stream.oursnetworktv.com/latin/encoder48/playlist.m3u8'
TVAztecaNoreste='https://live.info7.mx/info7/stream.m3u8'
TVBUAP='https://tvenvivo.buap.mx/livestream/stream.m3u8'
TVCuatro4.1='https://5f1af61612fb5.streamlock.net/tv4/tv4.smil/.m3u8'
TVCuatro4.2='https://5f2c1b0d880e5.streamlock.net/tv42/tv42.smil/.m3u8'
TVCuatro4.3='https://5f1af61612fb5.streamlock.net/tv43/tv43.smil/.m3u8'
TVGuanajuato='https://stream.oursnetworktv.com/latin/tvguanajuato/playlist.m3u8'
TVIndependencia='https://stream.oursnetworktv.com/latin/tvindependencia/playlist.m3u8'
TVLibertad='https://stream.oursnetworktv.com/latin/tvlibertad/playlist.m3u8'
TVLoboDurango='https://5ca9af4645e15.streamlock.net/lobodurango/videolobodurango/playlist.m3u8'
TVMarLaPaz='https://5fc584f3f19c9.streamlock.net/tvmarlapaz/smil:tvmarlapaz.smil/playlist.m3u8'
TVMarLosCabos='https://5fc584f3f19c9.streamlock.net/tvmarloscabos/smil:tvmarloscabos.smil/playlist.m3u8'
TVMarPuertoVallarta='https://5ca3e84a76d30.streamlock.net/tvmarvallarta/videotvmarvallarta/playlist.m3u8'
TVMigrante='https://s6.mexside.net:1936/migrantetv/migrantetv/playlist.m3u8'
TVNuevoLeónCanal28='https://s5.mexside.net:1936/canal28/canal28/playlist.m3u8'
TVSanLuis='https://stream.oursnetworktv.com/latin/sanluistv/playlist.m3u8'
TVUJAT='https://5e50264bd6766.streamlock.net/ujat/videoujat/playlist.m3u8'
TVMás='https://60417ddeaf0d9.streamlock.net/telemetrika3/telemetrika3.smil/.m3u8'
TVMÁS='https://5ca9af4645e15.streamlock.net/rtv/videortv/playlist.m3u8'
TVPCuliacán='https://5ca3e84a76d30.streamlock.net/gpacifico1/smil:gpculiacan.smil/playlist.m3u8'
TVPLosMochis='https://5ca3e84a76d30.streamlock.net/gpacifico2/mochis.smil/playlist.m3u8'
TVPMazatlán='https://5ca3e84a76d30.streamlock.net/gpacifico4/smil:mazatlan.smil/playlist.m3u8'
TVPObregón='https://5ca3e84a76d30.streamlock.net/gpacifico3/obregon.smil/playlist.m3u8'
TVTTabasco='https://5e50264bd6766.streamlock.net/tabasco/videotabasco/playlist.m3u8'
UDGTVCanal44='https://d1sx1b16qowo88.cloudfront.net/out/v1/c278fcc434d1437eb31ff105c6b4a538/index.m3u8'
UltraTVPuebla='https://5e50264bd6766.streamlock.net/telemetrika2/smil:telemetrika2.smil/playlist.m3u8'
UMTV='https://60417ddeaf0d9.streamlock.net/montemorelos/videomontemorelos/playlist.m3u8'
VBMediaTV='https://capomo01-enitv.eninetworks.com/locales_vbmedia_publico/index.m3u8'
VeracruzMultimediosTV='https://stream.oursnetworktv.com/latin/VeracruZMulTimedios/playlist.m3u8'
VideaPlataforma='https://stream.oursnetworktv.com/latin/encoder34/playlist.m3u8'
VisiónTelevisión='https://cloudvideo.servers10.com:8081/8016/index.m3u8'
ViXJajaja1='https://d1f3q72l8uy8ur.cloudfront.net/dist/samsungtv/318/hls/master/playlist.m3u8'
ViXJajaja2='https://d1406h321fcaxw.cloudfront.net/dist/samsungtv/310/hls/master/playlist.m3u8'
ViXJajaja='https://d1406h321fcaxw.cloudfront.net/v1/master/3722c60a815c199d9c0ef36c5b73da68a62b09d1/cc-hlqsnnxad8rlq-ssai-prd/dist/samsungtv/310/hls/master/playlist.m3u8'
ViXParejas='https://d1f3q72l8uy8ur.cloudfront.net/v1/master/3722c60a815c199d9c0ef36c5b73da68a62b09d1/cc-z46pswns8dp1b-ssai-prd/dist/samsungtv/318/hls/master/playlist.m3u8'
XHKGTVNayarit='https://stream.oursnetworktv.com/latin/encoder73/playlist.m3u8'
XtiNetwork='https://stream8.mexiserver.com:1936/xtinetwork/xtinetwork/playlist.m3u8'
