TVManáMoçambique='https://w2.manasat.com/tvmana-mz/smil:tvmana-mz.smil/playlist.m3u8'
TVM1='http://196.28.226.121:1935/live/smil:Channel1.smil/playlist.m3u8'
TVM='http://online.tvm.co.mz:1935/live/smil:Channel1.smil/playlist.m3u8'
TVMInternacional='http://online.tvm.co.mz:1935/live/smil:Channel2.smil/playlist.m3u8'
