CanalMotor1='https://digicom.hls.iptvdc.com/canalmotor/index.m3u8'
CanalMotor='https://digicom.hls.iptvdc.com/motorstv/index.m3u8'
Frikanalen='https://frikanalen.no/stream/index.m3u8'
Kanal10Asia='http://cdn-kanal10.crossnet.net:1935/kanal10/kanal10asia/playlist.m3u8'
NRK1='https://nrk-nrk1.akamaized.net/21/0/hls/nrk_1/playlist.m3u8'
NRK2='https://nrk-nrk2.akamaized.net/22/0/hls/nrk_2/playlist.m3u8'
NRK3='https://nrk-nrk3.akamaized.net/23/0/hls/nrk_3/playlist.m3u8'
NRKSuper='https://nrk-nrksuper.akamaized.net/23/0/hls/nrk_super/playlist.m3u8'
TV2Nyhetsstrømmen='https://ws15-hls-live.akamaized.net/out/u/1153546.m3u8'
TV2Sport1='https://ws31-hls-live.akamaized.net/out/u/1416253.m3u8'
TVModum='https://cdn010.panaccess.com/5677_streams/TVMODUM/index.m3u8'
TVØstfold='https://streamnorge.com:8088/hls/tvo.m3u8'
