Channel200='https://d1jlnqid3sfc6m.cloudfront.net/out/v1/3fc2254c865a457c8d7fbbce227a2aae/index.m3u8'
Firstlight='https://uni01rtmp.tulix.tv/firstlight/firstlight.smil/playlist.m3u8'
JuiceTV='https://juicex.nz/hls/mystream.m3u8'
KordiaTV='https://ptvlive.kordia.net.nz/out/v1/3fc2254c865a457c8d7fbbce227a2aae/index.m3u8'
LoveStoriesTV='https://84e619480232400a842ce499d053458a.mediatailor.us-east-1.amazonaws.com/v1/manifest/04fd913bb278d8775298c26fdca9d9841f37601f/ONO_LoveStoriesTV/18a65393-ba3b-4912-90d5-7188c128ac66/3.m3u8'
ParliamentTV='https://ptvlive.kordia.net.nz/out/v1/daf20b9a9ec5449dadd734e50ce52b74/index.m3u8'
Rush='https://rush-lsai-prod.fullscreen.nz/v1/master/db5eac5fd0a381d9ac535832f897ecd44a6f32c9/rush-prod-v1/index.m3u8'
SkyOpen='https://primetv-prod.akamaized.net/v1/prime-freeview-aes128.m3u8'
Skyopen+1='https://linear-p.media.skyone.co.nz/primeplus1.clear.m3u8'
TVNZ1='https://d2ce82tpc3p734.cloudfront.net/v1/master/b1f4432f8f95be9e629d97baabfed15b8cacd1f8/TVNZ_1/master.m3u8'
TVNZ2='https://duoak7vltfob0.cloudfront.net/v1/master/b1f4432f8f95be9e629d97baabfed15b8cacd1f8/TVNZ_2/master.m3u8'
TVNZDuke='https://dayqb844napyo.cloudfront.net/v1/master/b1f4432f8f95be9e629d97baabfed15b8cacd1f8/TVNZ_Duke/master.m3u8'
WairarapaTV1='https://stream1.np.co.nz/WAITVABR/WAITVABR/playlist.m3u8'
WairarapaTV2='https://stream.wairarapatv.co.nz/Broadband_High/playlist.m3u8'
WairarapaTV='https://stream.wairarapatv.co.nz/Cellular_High/playlist.m3u8'
