92NewsHD='http://92news.vdn.dstreamone.net/92newshd/92hd/playlist.m3u8'
92NewsUK='https://securecontributions.sechls01.visionip.tv/live/securecontributions-securecontributions-92_news-hsslive-25f-16x9-SD/chunklist.m3u8'
AlEhsaanTV='https://cdn.bmstudiopk.com/alehsaan/live/playlist.m3u8'
ARYDigitalUSA='https://6zklx4wryw9b-hls-live.5centscdn.com/arydigitalusa/498f1704b692c3ad4dbfdf5ba5d04536.sdp/playlist.m3u8'
ARYMusik='https://arymusik.aryzap.com/3fd38b2c62d0c3bbd74aedabb533c03a/6459fa78/v1/01847ac7a4930b8ed5aa6ed04aba/01847ac8f5f70b8ed5aa6ed04abd/main.m3u8'
aurLifeHD='http://124.109.47.101/hls/stream1.m3u8'
CityNewsHD='http://cdn.citymediagroupreg.com:1935/citynewshd/myStream/playlist.m3u8'
DiscoverPakistan='https://livecdn.live247stream.com/discoverpakistan/web/playlist.m3u8'
DunyaNews1='https://imob.dunyanews.tv/livehd/ngrp:dunyalivehd_2_all/playlist.m3u8'
DunyaNews2='https://intl.dunyanews.tv/livehd/ngrp:dunyalivehd_2_all/playlist.m3u8'
DunyaNews='https://ukintl.dunyanews.tv/liveuk/ngrp:dunyalive_all/playlist.m3u8'
ExpressEntertainment='https://5dcabf026b188.streamlock.net/expressdigital/livestream/playlist.m3u8'
FazalTV='http://cdn9.live247stream.com/punjabitvcanada/tv/playlist.m3u8'
GawahiTV='https://livecdn.live247stream.com/gawahi/tv/playlist.m3u8'
GeoKahani='https://jk3lz82elw79-hls-live.5centscdn.com/harPalGeo/955ad3298db330b5ee880c2c9e6f23a0.sdp/playlist.m3u8'
GeoNews='https://jk3lz82elw79-hls-live.5centscdn.com/GEONEWS/3500ba09d0538297440ca620c9dd46bf.sdp/playlist.m3u8'
GeoTez='https://jk3lz82elw79-hls-live.5centscdn.com/TEZ/955ad3298db330b5ee880c2c9e6f23a0.sdp/playlist.m3u8'
GraceNetwork='https://livecdn.live247stream.com/grace/tv/playlist.m3u8'
HKTV='https://streamer12.vdn.dstreamone.net/hktv/hktv/playlist.m3u8'
IsaacTV='https://livecdn.live247stream.com/isaac/tv/playlist.m3u8'
JooMusic='https://livecdn.live247stream.com/joomusic/tv/playlist.m3u8'
JoshuaTV='https://livecdn.live247stream.com/joshua/tv/playlist.m3u8'
KingTV='https://streamer12.vdn.dstreamone.net/kingtv/kingtv/playlist.m3u8'
LahoreNews='https://vcdn.dunyanews.tv/lahorelive/ngrp:lnews_1_all/playlist.m3u8'
MadaniChannelBangla='https://streaming.madanichannel.tv/static/streaming-playlists/hls/d3e49b76-ac06-4689-a641-9200445b647f/master.m3u8'
MadaniChannelEnglish='https://streaming.madanichannel.tv/static/streaming-playlists/hls/c6a600b0-82cb-454a-8953-2bb2bb372edc/master.m3u8'
MadaniChannelUrdu='https://streaming.madanichannel.tv/static/streaming-playlists/hls/b9790f10-cb0d-4e30-82bf-84a756234e58/master.m3u8'
OneGolf='http://162.250.201.58:6211/pk/ONEGOLF/index.m3u8'
PMITV='https://cdn.live247stream.com/pmi/tv/playlist.m3u8'
PNNNews='https://cdn.bmstudiopk.com/pnn/smil:PNN.smil/playlist.m3u8'
PraiseTV='https://livecdn.live247stream.com/praise/tv/playlist.m3u8'
ShineStarTV='https://f-tx-edge-87.christianworldmedia.com/shinetvpak2/mp4:shinetvpak2/playlist.m3u8'
SunoNewsHD='https://cdn.bmstudiopk.com/sunotv/live/playlist.m3u8'
VoiceNews='https://cdn.bmstudiopk.com/vop/live/playlist.m3u8'
ZindagiTV='https://5ad386ff92705.streamlock.net/live_transcoder/ngrp:zindagitv.stream_all/chunklist.m3u8'
