Africanews='https://rakuten-africanews-1-pt.samsung.wurl.tv/manifest/playlist.m3u8'
BloombergQuicktake='https://bloomberg-quicktake-1-pt.samsung.wurl.tv/manifest/playlist.m3u8'
BloombergTVUS='https://bloomberg-bloomberg-1-pt.samsung.wurl.tv/manifest/playlist.m3u8'
EuronewsPortuguês='https://rakuten-euronews-8-pt.samsung.wurl.tv/manifest/playlist.m3u8'
RakutenDocumentaries='https://rakuten-documentaries-14-pt.samsung.wurl.tv/playlist.m3u8'
RakutenFamily='https://rakuten-family-14-pt.samsung.wurl.tv/playlist.m3u8'
