9Волна='http://cdn-01.bonus-tv.ru/9volna/playlist.m3u8'
12канал1='https://12channel.bonus-tv.ru/cdn/12channel_blackout/playlist.m3u8'
12канал='https://12channel.bonus-tv.ru/cdn/12channel/playlist.m3u8'
49канал='https://49channel.mediacdn.ru/live/cdn/49channel/playlist.m3u8'
Arirang='https://cdn-01.bonus-tv.ru/arirang_edge/playlist.m3u8'
E!='https://cdn-01.bonus-tv.ru/gsl/playlist.m3u8'
Leomax24='https://tvshops.bonus-tv.ru/cdn/shop24/playlist.m3u8'
RTД='https://cdn-01.bonus-tv.ru/rtdoc/playlist.m3u8'
RussiaToday='https://cdn-01.bonus-tv.ru/RussiaToday/playlist.m3u8'
TVBrics='https://rusbrics.mediacdn.ru/cdn/brics/russian/playlist.m3u8'
TVBRICSChinese='https://brics.bonus-tv.ru/cdn/brics/chinese/playlist.m3u8'
TVBRICSEnglish='https://brics.bonus-tv.ru/cdn/brics/english/playlist.m3u8'
TVBRICSPortuguese='https://brics.bonus-tv.ru/cdn/brics/portuguese/playlist.m3u8'
TVMChannel='https://cdn-01.bonus-tv.ru/tvm_edge/playlist.m3u8'
WorldFashionChannelInternational='https://live-3.otcnet.ru/wfcenmulti/playlist.m3u8'
WorldFashionChannelRussia='https://live-3.otcnet.ru/wfcrusmulti/playlist.m3u8'
Архыз24='https://live.mediacdn.ru/sr1/arhis24/playlist.m3u8'
Астрахань24='https://astrakhan24.bonus-tv.ru/cdn/astrakhan24/playlist.m3u8'
БелРос='https://live2.mediacdn.ru/sr1/tro/playlist.m3u8'
БСТ='https://bsttv.bonus-tv.ru/cdn/bst/playlist.m3u8'
Вместе-РФ='https://vmesterf.bonus-tv.ru/cdn/vmesterf/playlist.m3u8'
Дагестан='https://dagestan.mediacdn.ru/cdn/dagestan/playlist.m3u8'
Дон24='https://donmedia.bonus-tv.ru/cdn/donmedia/playlist.m3u8'
ЕгорьевскоеТелевидение='https://video.platformcraft.ru/hls/etv/egorievsk-tv/playlist.m3u8'
Звезда='https://tvzvezda.bonus-tv.ru/cdn/tvzvezda/playlist.m3u8'
ЗвездаПлюс='http://tvzvezda.bonus-tv.ru/cdn/zvezdaplus/playlist.m3u8'
ИнгушетияТВ='https://ingushetia.mediacdn.ru/cdn/ingushetia/playlist.m3u8'
КалейдоскопТВ='https://cdn-01.bonus-tv.ru/Kaleidoskop_edge/playlist.m3u8'
КонныйМир='http://cdn-01.bonus-tv.ru/konnyimir/playlist.m3u8'
КРИК-ТВ='http://cdn-01.bonus-tv.ru/kriktv_edge/playlist.m3u8'
Курай='https://bsttv.bonus-tv.ru/cdn/kurai/playlist.m3u8'
МагнатТВ='https://s1.tv-nano.com/Magnat_HD_5119705/video.m3u8'
ОсетияИрыстон='https://osir.mediacdn.ru/cdn/osetia/playlist.m3u8'
ПервыйЯрославский='https://yaroslavl.mediacdn.ru/cdn/pervyaroslavsk/playlist.m3u8'
Продвижение='https://prodvizhenie.bonus-tv.ru/cdn/prodvizhenie/playlist.m3u8'
Просвещение='https://cdn-01.bonus-tv.ru/prosveschenie_edge/playlist.m3u8'
Радостьмоя='https://radm.mediacdn.ru/cdn/radost/playlist.m3u8'
Салям='https://bsttv.bonus-tv.ru/cdn/salyam/playlist.m3u8'
Санкт-Петербург='https://streamsrv2.tvspb.ru/OTT/playlist.m3u8'
СвоёТВ='https://svoetv.mediacdn.ru/cdn/svoetv/playlist.m3u8'
Север1='https://live2.mediacdn.ru/sr1/sever/playlist.m3u8'
Север='https://live.mediacdn.ru/sr1/sever/playlist.m3u8'
СПАС='https://spas.mediacdn.ru/cdn/spas/playlist.m3u8'
СТАРТТриумф='https://bl.webcaster.pro/media/playlist/free_fe8dc1b768a84b8b0333db826471f17e_hd/33_85479982/1080p/8666c3e935faf6ef47ffd601e8e48868/4821408969.m3u8'
СтранаФМ='https://live-stranafm.cdnvideo.ru/stranafm/smil:stranafm.smil/playlist.m3u8'
Тамыр='https://bsttv.bonus-tv.ru/cdn/tamyr/playlist.m3u8'
ТККраснодар='https://krasnodar.mediacdn.ru/live/cdn/krasnodar/playlist.m3u8'
ТНВ-Планета='https://planeta.mediacdn.ru/cdn/tnvplanet/playlist.m3u8'
ТНТMUSIC='https://cdn-01.bonus-tv.ru/tntmusic/playlist.m3u8'
Тюменскоевремя='https://hls-sibinformburo.cdnvideo.ru/sibinformburo-srt/sibinformburo/playlist.m3u8'
ШансонТВ='https://hls-shansontv.cdnvideo.ru/shansontv/smil:shansontv.smil/playlist.m3u8'
ШаянТВ='https://shayan.bonus-tv.ru/cdn/shayan/playlist.m3u8'
Ю='https://cdn-01.bonus-tv.ru/u/playlist.m3u8'
