B+TV='https://tv.livebcm.com:3596/live/bplustvrwandalive.m3u8'
BTNTV='https://tv.livebcm.com:3844/live/btntvrwandalive.m3u8'
BTV='https://tv.livebcm.com:3580/live/btvrwandalive.m3u8'
FlashTV='https://tv.livebcm.com:3169/live/flashtvrwandalive.m3u8'
IsangoTV='http://80.241.215.175:1935/isangostar/isangostar/playlist.m3u8'
IshushoTV='https://tv.livebcm.com:3425/stream/play.m3u8'
IsiboTV='https://tv.livebcm.com:3192/live/isibotvlive.m3u8'
KC21='http://197.243.19.131:1935/kc2/kc2/chunklist.m3u8'
KC2='https://5c46fa289c89f.streamlock.net/kc2/kc2/chunklist.m3u8'
RTVRwanda1='http://197.243.19.131:1935/rtv/rtv/chunklist.m3u8'
RTVRwanda2='http://197.243.19.131:1935/rtv/rtv/chunklist_w2093872577.m3u8'
RTVRwanda='https://5c46fa289c89f.streamlock.net/rtv/rtv/playlist.m3u8'
