ExodusTV1='https://584943999.r.worldssl.net/584943999/_definst_/vzivo/playlist.m3u8'
ExodusTV='https://584943999.r.worldssl.net/584943999/vzivo/playlist.m3u8'
FolxSlovenija='https://cdne.folxplay.tv/folx-trz/streams/ch-5/master.m3u8'
GTV='http://91.220.221.60/gtv_hls/gtv_03.m3u8'
RadioAktual='https://vr1.radioaktual.si/hls/stream.m3u8'
SeharaTV='http://ip2.xxlservices.com:8081/seharaonline/live/playlist.m3u8'
SIPTV='https://data.siptv.si/live-siptv/hls/index.m3u8'
TržičTV='https://vpn.video2go.live:444/trzic/tv/playlist.m3u8'
TVUršlja='http://ott.sgn.net/hls/tvurslja.m3u8'
VeseljakTV='https://vr.veseljak.tv/hls/stream.m3u8'
