AwapaSportsTV='https://mgv-awapa.akamaized.net/hls/live/2104282/MGV_CHANNEL15/master.m3u8'
Canal11TuTV='https://streaming.grupocsanetwork.com:19360/canal11/canal11.m3u8'
Canal12='https://d273tvzn6z86cs.cloudfront.net/Canal12SV/d8d7dedcfe37a9a9da9d9f69058b82b7.sdp/playlist.m3u8'
Canal15Usulután='https://streaming.grupocsanetwork.com:19360/canal15/canal15.m3u8'
CanalTRV='https://stream.oursnetworktv.com/latin/encoder44/playlist.m3u8'
ElCaminoTV='https://5d32e2b9b7eed.streamlock.net:4443/ectv/ectv/playlist.m3u8'
LegislativeAssemblyofElSalvador='https://streaming.asamblea.gob.sv/hls/plenariahd.m3u8'
MegavisiónCanal19='https://mgv-channel19.akamaized.net/hls/live/2093190/MGV_CHANNEL19/master.m3u8'
MegavisiónCanal21='https://mgv-channel21.akamaized.net/hls/live/2093191/MGV_CHANNEL21/master.m3u8'
ÓrbitaFM='https://rpn3.bozztv.com/ssh101/ssh101/OrbitaFM953/playlist.m3u8'
ÓrbitaTV='https://ssh101.bozztv.com/ssh101/OrbitaTV25/playlist.m3u8'
SolTVMorazán='http://rtmp.info:1935/soltv/envivo/playlist.m3u8'
TaberTV='https://5ca9af4645e15.streamlock.net/tabertv/smil:tabertv.smil/playlist.m3u8'
TCS='https://secure-video.tcsgo.com/tcshd/index.m3u8'
TribunaTV='https://cloudflare.streamgato.us:3204/live/tribunatvlive.m3u8'
TVCRET='https://radiocret.net:8082/hls/tvcret.m3u8'
TVCaTelevisiónCatólicaArquidiocesana='https://ssh101.bozztv.com/ssh101/tvcaelsalvador/playlist.m3u8'
TVX='https://raw.githubusercontent.com/azgaresncf/strm2hls/main/streams/TVX.m3u8'
WOWTV='https://cdn.elsalvadordigital.com:1936/wowtv/smil:wowtv.smil/playlist.m3u8'
