LTV='https://p-ltv.akamaized.net/ltv/ltv.m3u8'
NourEl-Sham='http://vod.ortas.sy:1935/oLive/nour05042022/playlist.m3u8'
RadioAlkulTV='https://ffs.gulfsat.com/AlkulTV/video.m3u8'
RonahiTV='https://ikomg1.s.llnwi.net/ronahi-tv/ronahi-tv.m3u8'
SamaTV1='https://app.sama-tv.net/hls/samatv.m3u8'
SamaTV='https://stream.sama-tv.net/hls/samatv.m3u8'
SouryanaRadio='http://vod.ortas.sy:1935/oLive/souryana05042022/playlist.m3u8'
Spacetoon1='https://shls-spacetoon-prod-dub.shahid.net/out/v1/6240b773a3f34cca95d119f9e76aec02/index.m3u8'
Spacetoon='https://streams.spacetoon.com/live/stchannel/smil:livesmil.smil/playlist.m3u8'
SyriaDrama='http://vod.ortas.sy:1935/oLive/drama05042022/playlist.m3u8'
SyriaSatelliteChannel='http://vod.ortas.sy:1935/oLive/sat05042022/playlist.m3u8'
SyrianEducationalTV='http://vod.ortas.sy:1935/oLive/sedu05042022/playlist.m3u8'
SyrianNewsChannel1='http://vod.alikhbaria.net:1935/oLive/snews05042022/playlist.m3u8'
SyrianNewsChannel='http://vod.ortas.sy:1935/oLive/snews05042022/playlist.m3u8'
