EssaidaTV='https://app.rtvli.com/hls/stream/index.m3u8'
JAWHARATV='https://streaming.toutech.net/live/jtv/index.m3u8'
MosaïqueFM='https://webcam.mosaiquefm.net:1936/mosatv/studio/playlist.m3u8'
Nessma1='https://shls-live-ak.akamaized.net/out/v1/119ae95bbc91462093918a7c6ba11415/index.m3u8'
Nessma='https://raw.githubusercontent.com/ipstreet312/freeiptv/master/ressources/dzflix/nessma.m3u8'
SahelTV='http://142.44.214.231:1935/saheltv/myStream/playlist.m3u8'
TunisieImmobilierTV='https://5ac31d8a4c9af.streamlock.net/tunimmob/myStream/playlist.m3u8'
Watania1='http://live.watania1.tn:1935/live/watanya1.stream/playlist.m3u8'
Watania2='http://live.watania2.tn:1935/live/watanya2.stream/playlist.m3u8'
ZitounaTV='https://video1.getstreamhosting.com:1936/8320/8320/playlist.m3u8'
