24TV1='https://kanal24.blutv.com/blutv_kanal24_live/live.m3u8'
24TV='https://mn-nl.mncdn.com/kanal24/smil:kanal24.smil/playlist.m3u8'
360TV='https://turkmedya-live.ercdn.net/tv360/tv360.m3u8'
ATürkIzmir='https://vdo.digitalbox.xyz:3807/stream/play.m3u8'
AALive='https://mtulqxgomrllive.mediatriple.net/mtulqxgomrllive/broadcast_59f9c0c785b88.smil/playlist.m3u8'
ADATV='https://edge1.socialsmart.tv/adatv/bant1/playlist.m3u8'
AfyonTürkTV='https://5be5d840359c6.streamlock.net/afyonturktv/afyonturktv/playlist.m3u8'
AgroTV='https://yayin30.haber100.com/live/agrotv/playlist.m3u8'
AhiTVKirsehir='http://yayin3.canlitv.com:1935/canlitv/ahitv/playlist.m3u8'
AkitTV='https://akittv-live.ercdn.net/akittv/akittv.m3u8'
AksuTV='https://live.artidijitalmedya.com/artidijital_aksutv/aksutv/playlist.m3u8'
Al-ZahraTVTurkic='https://live.al-zahratv.com/live/playlist.m3u8'
AlanyaPostaTV='https://win4.yayin.com.tr/postatv/postatv/playlist.m3u8'
ALTASTV='http://stream.taksimbilisim.com:1935/altastv/bant1/playlist.m3u8'
ALTAŞTV='https://broadcasttr.com:446/altastv/bant1/index.m3u8'
ARASTV='http://1.rtmp.org/tv217/yayin.stream/playlist.m3u8'
ATVAlanya='http://stream2.taksimbilisim.com:1935/alanyatv/alanyatv.smil/playlist.m3u8'
BENGÜTÜRKTV='https://tv.ensonhaber.com/benguturk/benguturk.m3u8'
BeratTV='https://cdn-berattv.yayin.com.tr/berattv/berattv/playlist.m3u8'
BeşiktaşWebTV='https://s01.vpis.io/besiktas/besiktas.m3u8'
BeyazTV='https://mn-nl.mncdn.com/blutv_beyaztv2/live.m3u8'
BeykentTV='https://yayin30.haber100.com/live/beykenttv/playlist.m3u8'
BizimevTV='https://mn-nl.mncdn.com/blutv_bizimev/bizimev_sd.smil/playlist.m3u8'
BloombergHT1='https://bloomberght2dvr.blutv.com/blutv_bloomberght_dvr/live.m3u8'
BloombergHT='https://tv.ensonhaber.com/bloomberght/bloomberght.m3u8'
BRTV='https://live.artidijitalmedya.com/artidijital_brtv/brtv/playlist.m3u8'
BursaASTV='https://waw2.artiyerelmedya.net/astv/bant1/playlist.m3u8'
BursaTV1='https://cdn-bursatv.yayin.com.tr/bursatv/bursatv/playlist.m3u8'
BursaTV='https://win1.yayin.com.tr/bursatv/bursatv/playlist.m3u8'
CanTV='http://canbroadcast.com:7000/canlican/tv.m3u8'
CayTV='http://stream2.taksimbilisim.com:1935/caytv/bant1/CAYTV.m3u8'
CekmeköyTV1='https://cdn-cekmekoybeltv.yayin.com.tr/cekmekoybeltv/cekmekoybeltv/playlist.m3u8'
CekmeköyTV='https://cdn-cekmekoybeltv.yayin.com.tr/cekmekoybeltv/cekmekoybeltv_1080p/playlist.m3u8'
ÇiftçiTV1='http://stream.taksimbilisim.com:1935/ciftcitv/smil:ciftcitv.smil/playlist.m3u8'
ÇiftçiTV='https://live.artidijitalmedya.com/artidijital_ciftcitv/ciftcitv/playlist.m3u8'
Cine5='https://cdn-cine5tv.yayin.com.tr/cine5tv/cine5tv/playlist.m3u8'
CNNTürk='https://live.duhnet.tv/S2/HLS_LIVE/cnnturknp/playlist.m3u8'
DehaTV='https://live.artidijitalmedya.com/artidijital_dehatv/dehatv/playlist.m3u8'
DenizPostasıTV='https://live.artidijitalmedya.com/artidijital_denizpostasi/denizpostasi/playlist.m3u8'
Dersim62TV='http://live.arkumedia.com:1935/dersim62tv/dersim62tv/playlist.m3u8'
DHA='https://603c568fccdf5.streamlock.net/live/dhaweb1_C5efC/playlist.m3u8'
DİMTV='https://live.artidijitalmedya.com/artidijital_dimtv/dimtv/playlist.m3u8'
DiyanetTV='https://eustr73.mediatriple.net/videoonlylive/mtikoimxnztxlive/broadcast_5e3bf95a47e07.smil/playlist.m3u8'
DiyarTV='https://yayin30.haber100.com/live/diyartv/playlist.m3u8'
DostTV='https://dost.stream.emsal.im/tv/live.m3u8'
DreamTürk='https://live.duhnet.tv/S2/HLS_LIVE/dreamturknp/playlist.m3u8'
DRTDenizli='https://edge1.socialsmart.tv/drttv/bant1/playlist.m3u8'
EdessaTV='https://tv.digitalbox.xyz:19360/edessatv/edessatv.m3u8'
Ekoturk='https://ekoturk.blutv.com/blutv_ekoturk2/live.m3u8'
Ekotürk='https://mn-nl.mncdn.com/blutv_ekoturk2/live.m3u8'
ElmasTV='https://5be5d840359c6.streamlock.net/elmas67tv/elmas67tv/chunklist.m3u8'
EmTV='https://cdn.yayin.com.tr/TVEM/TVEM/playlist.m3u8'
ErTV='https://live.artidijitalmedya.com/artidijital_ertv/ertv/playlist.m3u8'
ErtSahTV='http://win20.yayin.com.tr/ertsahtv/ertsahtv/playlist.m3u8'
ErzurumWebTV='https://win29.yayin.com.tr/erzurumwebtv/erzurumwebtv/iptvdelisi.m3u8'
ESTV='https://live.artidijitalmedya.com/artidijital_estv/estv/playlist.m3u8'
ETVManisa='https://broadcasttr.com:446/manisaetv/bant1/playlist.m3u8'
EuroD='https://live.duhnet.tv/S2/HLS_LIVE/eurodnp/playlist.m3u8'
EuroStarTV='https://mn-nl.mncdn.com/blutv_eurostar2/live.m3u8'
FinansTurkTV='https://vdo.digitalbox.xyz:3588/live/finansturktvlive.m3u8'
FlashTV='https://mn-nl.mncdn.com/blutv_flashtv/live.m3u8'
FortunaTV='https://fortunacdn.socialsmart.tv/ftvturk/bant1/playlist.m3u8'
FoxTürkiye='https://foxtv.blutv.com/blutv_foxtv_live/live.m3u8'
GoncaTV='https://edge1.socialsmart.tv/goncatv/bant1/playlist.m3u8'
GRT='https://live.artidijitalmedya.com/artidijital_grt/grt1/playlist.m3u8'
GSTV='https://owifavo5.rocketcdn.com/gstv/gstv.smil/playlist.m3u8'
GuneyTVTarsus='https://live.artidijitalmedya.com/artidijital_guneytv/guneytv/playlist.m3u8'
GuneydoguTV='https://broadcasttr.com:446/gtv/bant1/playlist.m3u8'
Haber61TV1='https://cdn-haber61tv.yayin.com.tr/haber61tv/smil:haber61tv.smil/index.m3u8'
Haber61TV='https://win8.yayin.com.tr/haber61tv/smil:haber61tv.smil/playlist.m3u8'
HaberGlobal1='https://haberglobaldvr.blutv.com/blutv_haberglobal_dvr/live.m3u8'
HaberGlobal='https://tv.ensonhaber.com/haberglobal/haberglobal.m3u8'
HabertürkTV1='https://haberturk.blutv.com/blutv_haberturk_live/live.m3u8'
HabertürkTV='https://tv.ensonhaber.com/haberturk/haberturk.m3u8'
HalkTV='https://halktv.blutv.com/blutv_halktv_live/live.m3u8'
HelwaTV='https://raw.githubusercontent.com/ipstreet312/freeiptv/master/ressources/dzflix/helwa.m3u8'
HunatTV1='https://live.artidijitalmedya.com/artidijital_hunattv/hunattv/playlist.m3u8'
HunatTV='https://59cba4d34b678.streamlock.net/canlitv/hunattv/playlist.m3u8'
IBBTV1='http://wowza.istweb.tv:1935/webtv/webtv_wowza1/playlist.m3u8'
IBBTV='https://npserver1.ibb.gov.tr/webtv/webtv_wowza1/playlist.m3u8'
IcelTV1='http://stream.taksimbilisim.com:1935/iceltv/bant1/playlist.m3u8'
IcelTV='https://broadcasttr.com:446/iceltv/bant1/playlist.m3u8'
Kanal31='http://stream.taksimbilisim.com:1935/kanal3/bant1/playlist.m3u8'
Kanal3='https://waw2.artiyerelmedya.net/kanal3/bant1/playlist.m3u8'
Kanal71='https://kanal7-live.daioncdn.net/kanal7/kanal7.m3u8'
Kanal7='https://kanal7.blutv.com/blutv_kanal7_live/live.m3u8'
Kanal7Avrupa='https://live.kanal7.com/live/kanal7AvrupaLive/index.m3u8'
Kanal12='https://live.artidijitalmedya.com/artidijital_kanal12/kanal12/playlist.m3u8'
Kanal15='https://live.artidijitalmedya.com/artidijital_kanal15/kanal15/playlist.m3u8'
Kanal23='https://live.artidijitalmedya.com/artidijital_kanal23/kanal23/playlist.m3u8'
Kanal26='https://live.artidijitalmedya.com/artidijital_kanal26/kanal26/playlist.m3u8'
Kanal32='https://edge1.socialsmart.tv/kanal32/bant1/playlist.m3u8'
Kanal331='http://stream.taksimbilisim.com:1935/kanal33/bant1/playlist.m3u8'
Kanal33='https://broadcasttr.com:446/kanal33/bant1/playlist.m3u8'
Kanal341='https://5be5d840359c6.streamlock.net/kanal34tv/kanal34tv/playlist.m3u8'
Kanal34='https://vdo.digitalbox.xyz:3266/live/kanal34tvlive.m3u8'
Kanal38='http://yayin3.canlitv.com:1935/live/kanal38/playlist.m3u8'
KANAL58='https://edge1.socialsmart.tv/kanal58/bant1/playlist.m3u8'
Kanal68='https://live.artidijitalmedya.com/artidijital_kanal68/kanal68/playlist.m3u8'
KanalAntalya='https://cdn-kanaltvo.yayin.com.tr/kanaltvo/kanaltvo/playlist.m3u8'
KanalAvrupa='http://51.15.2.151/hls/kanalavrupa.m3u8'
KanalB='http://212.174.58.161/hls-live/livepkgr/_definst_/liveevent/kanalb.m3u8'
KanalD='https://demiroren-live.daioncdn.net/kanald/kanald.m3u8'
KanalDDrama='https://cdn-uw2-prod.tsv2.amagi.tv/linear/amg01602-themahqfrance-vivekanald-samsungspain/playlist.m3u8'
KanalFirat='https://live.artidijitalmedya.com/artidijital_kanalfirat/kanalfirat/playlist.m3u8'
KanalHayat='https://tbn02a.ltnschedule.com/hls/nx21i.m3u8'
KanalS='https://cdn-kanals.yayin.com.tr/kanals/kanals/playlist.m3u8'
KanalUrfa='https://broadcasttr.com:446/kanalurfa/bant1/playlist.m3u8'
KanalV='http://yerelmedya.tv:1935/kanalv/bant1/playlist.m3u8'
KanalZ='https://live.artidijitalmedya.com/artidijital_kanalz/kanalz/playlist.m3u8'
KardelenTV='https://edge1.socialsmart.tv/kardelentv/bant1/playlist.m3u8'
KayTV='https://live.artidijitalmedya.com/artidijital_kaytv/kaytv/playlist.m3u8'
KentTürk='https://live.artidijitalmedya.com/artidijital_38kenttv/38kenttv/playlist.m3u8'
KonTV='https://mn-nl.mncdn.com/blutv_kontv2/live.m3u8'
KRALPopTV='https://dogus-live.daioncdn.net/kralpoptv/playlist.m3u8'
KRALTV='https://dogus-live.daioncdn.net/kraltv/playlist.m3u8'
KRT='https://krt.blutv.com/blutv_krt_live/live.m3u8'
KudüsTV='https://yayin.kudustv.com/981680400/kudustv/playlist.m3u8'
LalegülTV1='http://lalegultv.netmedya.net/hls/lalegultv.m3u8'
LalegülTV='http://lalegultv.netmedya.net/lalegul-tv/lalegultv.stream/playlist.m3u8'
LifeTV='https://live.artidijitalmedya.com/artidijital_lifetv/lifetv/playlist.m3u8'
LineTV='https://broadcasttr.com:446/linetv/bant1/playlist.m3u8'
MaviKaradeniz='https://live.artidijitalmedya.com/artidijital_mavikaradeniz/mavikaradeniz/playlist.m3u8'
MedMüzik='http://137.74.205.201/medmuzik/MedStream/playlist.m3u8'
MeltemTV='https://vhxyrsly.rocketcdn.com/meltemtv/playlist.m3u8'
MercanTV='https://waw2.artiyerelmedya.net/mercantv/bant1/playlist.m3u8'
MilyonTV='https://sosyoapp-live.cdnnew.com/sosyo/buraya-bir-isim-verin.m3u8'
MTürkTV='https://broadcasttr.com:446/muglaturk/bant1/playlist.m3u8'
NaturalTV1='http://broadcasttr.com:1935/naturaltv/bant1/playlist.m3u8'
NaturalTV='https://broadcasttr.com:446/naturaltv/bant1/playlist.m3u8'
NTV='https://dogus-live.daioncdn.net/ntv/ntv.m3u8'
NTVSpor='http://46.4.193.238:8484/hls/ntvspor/playlist.m3u8'
Number1Ask='https://b01c02nl.mediatriple.net/videoonlylive/mtkgeuihrlfwlive/u_stream_5c9e18f9cea15_1/playlist.m3u8'
Number1Damar='https://b01c02nl.mediatriple.net/videoonlylive/mtkgeuihrlfwlive/u_stream_5c9e198784bdc_1/playlist.m3u8'
Number1Dance='https://b01c02nl.mediatriple.net/videoonlylive/mtkgeuihrlfwlive/u_stream_5c9e2aa8acf44_1/playlist.m3u8'
Number1Türk='https://mn-nl.mncdn.com/blutv_nr1turk2/live.m3u8'
Number1TV='https://mn-nl.mncdn.com/blutv_nr12/live.m3u8'
OgünTV='https://s01.vpis.io/ogun/ogun.m3u8'
OlayTürkKayseri='https://live.artidijitalmedya.com/artidijital_olayturk/olayturk/playlist.m3u8'
On4TV='https://edge1.socialsmart.tv/on4/bant1/playlist.m3u8'
On6='https://live.artidijitalmedya.com/artidijital_kanal16/kanal16/playlist.m3u8'
ONMedyaHaber='http://live.arkumedia.com:1935/marmaratv/marmaratv/playlist.m3u8'
ÖncüTV='https://broadcasttr.com:446/oncurtv/bant1/playlist.m3u8'
PamukkaleTV='http://ms1.sanlisoy.com:1935/pamukkaletv/pamukkaletv/playlist.m3u8'
PowerDance='https://livetv.powerapp.com.tr/dance/dance.smil/playlist.m3u8'
PowerLove='https://livetv.powerapp.com.tr/plove/love.smil/playlist.m3u8'
PowerPlus='https://livetv.powerapp.com.tr/pplustv/pplustv.smil/playlist.m3u8'
PowerTurk1='https://livetv.powerapp.com.tr/powerturkTV/powerturkhd.smil/playlist.m3u8'
PowerTurk='https://mn-nl.mncdn.com/blutv_powerturk/smil:powerturk_sd.smil/playlist.m3u8'
PowerTürkAkustik='https://livetv.powerapp.com.tr/pturkakustik/akustik.smil/playlist.m3u8'
PowerTürkEnIyiler='https://livetv.powerapp.com.tr/pturkeniyiler/eniyiler.smil/playlist.m3u8'
PowerTürkSlow='https://livetv.powerapp.com.tr/pturkslow/slow.smil/playlist.m3u8'
PowerTürkTaptaze='https://livetv.powerapp.com.tr/pturktaptaze/taptaze.smil/playlist.m3u8'
PowerTV='https://livetv.powerapp.com.tr/powerTV/powerhd.smil/playlist.m3u8'
PowerTurkTV='https://powerturk.blutv.com/blutv_powerturk/powerturk_sd.smil/playlist.m3u8'
PowerTürkTV='https://waw2.artiyerelmedya.net/powerturktv/bant1/playlist.m3u8'
QafTV='https://mn-nl.mncdn.com/qaf/live/playlist.m3u8'
RehberTV='https://yayin30.haber100.com/live/rehbertv/playlist.m3u8'
SarıyerTV='https://s01.vpis.io/sariyer/sariyer.m3u8'
Sat7Pars='https://svs.itworkscdn.net/sat7parslive/sat7pars.smil/playlist.m3u8'
Sat7Türk='https://svs.itworkscdn.net/sat7turklive/sat7turk.smil/playlist.m3u8'
SatrançTV='http://139.162.182.79/live/test/index.m3u8'
SemerkandTV='https://b01c02nl.mediatriple.net/videoonlylive/mtisvwurbfcyslive/broadcast_58d915bd40efc.smil/playlist.m3u8'
ShowTurk='https://showturk.blutv.com/blutv_showturk2/live.m3u8'
ShowTürk='https://mn-nl.mncdn.com/blutv_showturk2/live.m3u8'
ShowTV1='http://nimplus3.bozztv.com/showtvturk/showtvturk/playlist.m3u8'
ShowTV2='https://showtv.blutv.com/blutv_showtv_live/live.m3u8'
ShowTV='https://tv.ensonhaber.com/tv/tr/showtv/index.m3u8'
SinopYildizTV='https://s01.vpis.io/sinopyildiz/sinopyildiz.m3u8'
SportsTV='https://live.sportstv.com.tr/hls/low/sportstv.m3u8'
StarTV='https://dogus-live.daioncdn.net/startv/startv.m3u8'
SunRTV='https://tr.socialsmart.tv/suntv/bant1/chunks.m3u8'
SyriaTV='https://svs.itworkscdn.net/syriatvlive/syriatv.smil/playlist_dvr.m3u8'
TarimTV='https://content.tvkur.com/l/c7e1da7mm25p552d9u9g/master.m3u8'
TatlisesTV='https://live.artidijitalmedya.com/artidijital_tatlisestv/tatlisestv/playlist.m3u8'
TBMMTV='https://meclistv-live.ercdn.net/meclistv/meclistv.m3u8'
TekRumeliTV='https://edge1.socialsmart.tv/tekrumelitv/bant1/playlist.m3u8'
TempoTV='https://live.artidijitalmedya.com/artidijital_tempotv/tempotv/playlist.m3u8'
Teve2='https://teve2vod.duhnet.tv/S12/HLS_VOD/382843_2e5b/index.m3u8'
TGRTBelgeselTV1='https://tv.ensonhaber.com/tv/tr/tgrtbelgesel/index.m3u8'
TGRTBelgeselTV='https://b01c02nl.mediatriple.net/videoonlylive/mtsxxkzwwuqtglive/broadcast_5fe462afc6a0e.smil/playlist.m3u8'
TGRTEU='https://tv.ensonhaber.com/tv/tr/tgrteu/index.m3u8'
TGRTHaber='https://b01c02nl.mediatriple.net/videoonlylive/mtsxxkzwwuqtglive/broadcast_5fe4598be8e5d.smil/playlist.m3u8'
Tivi6='https://live.artidijitalmedya.com/artidijital_tivi6/tivi6/playlist.m3u8'
TonTV='https://live.artidijitalmedya.com/artidijital_tontv/tontv/playlist.m3u8'
ToprakTV='https://59cba4d34b678.streamlock.net/canlitv/topraktv/playlist.m3u8'
TorbaTV='https://59cba4d34b678.streamlock.net/canlitv/torbatv/playlist.m3u8'
TR24TV='https://tv.ensonhaber.com/tv24/tv24.m3u8'
TRT11='https://d1u68oyra9spme.cloudfront.net/master.m3u8'
TRT12='https://trt1.persona.video/master.m3u8?hls=1'
TRT13='https://tv-trt1-dai.medya.trt.com.tr/master.m3u8'
TRT1='https://trt1.blutv.com/blutv_trt1_live/live.m3u8'
TRT21='https://trt2.blutv.com/blutv_trt2/live.m3u8'
TRT2='https://tv-trt2.medya.trt.com.tr/master.m3u8'
TRTArabi='https://tv-trtarabi.live.trt.com.tr/master.m3u8'
TRTAvaz='https://tv-trtavaz.medya.trt.com.tr/master.m3u8'
TRTBelgesel='https://tv-trtbelgesel.medya.trt.com.tr/master.m3u8'
TRTÇocuk='https://tv-trtcocuk.live.trt.com.tr/master.m3u8'
TRTEBAIlkokul='https://tv-e-okul00.medya.trt.com.tr/master.m3u8'
TRTEBALise='https://tv-e-okul02.medya.trt.com.tr/master.m3u8'
TRTEBAOrtaokul='https://tv-e-okul01.medya.trt.com.tr/master.m3u8'
TRTHaber='https://tv-trthaber.medya.trt.com.tr/master.m3u8'
TRTKurdî='https://tv-trtkurdi.medya.trt.com.tr/master.m3u8'
TRTMüzik='https://tv-trtmuzik.medya.trt.com.tr/master.m3u8'
TRTSpor='https://tv-trtspor1.medya.trt.com.tr/master.m3u8'
TRTSporYildiz='https://tv-trtspor2.medya.trt.com.tr/master.m3u8'
TRTTurk='https://trtturk.blutv.com/blutv_trtturk2/live.m3u8'
TRTTürk='https://tv-trtturk.medya.trt.com.tr/master.m3u8'
TRTWorld1='https://api.trtworld.com/livestream/v1/WcM3Oa2LHD9iUjWDSRUI335NkMWVTUV351H56dqC/master.m3u8'
TRTWorld2='https://tv-trtworld.live.trt.com.tr/master.m3u8'
TRTWorld='https://mn-nl.mncdn.com/blutv_trtworld2/live.m3u8'
TürkHaber='https://edge1.socialsmart.tv/turkhaber/bant1/playlist.m3u8'
TV1='https://edge1.socialsmart.tv/tv1/bant1/playlist.m3u8'
TV4='https://turkmedya-live.ercdn.net/tv4/tv4.m3u8'
TV8='https://tv8-live.daioncdn.net/tv8/tv8.m3u8'
TV38='https://59cba4d34b678.streamlock.net/live/tv38/playlist.m3u8'
TV411='http://stream.taksimbilisim.com:1935/tv41/bant1/playlist.m3u8'
TV412='http://stream.taksimbilisim.com:1935/tv41/bant1/TV41.m3u8'
TV41='http://stream.taksimbilisim.com:1935/tv41/smil:tv41.smil/playlist.m3u8'
TV521='http://stream.taksimbilisim.com:1935/tv52/smil:tv52.smil/playlist.m3u8'
TV52='https://broadcasttr.com:446/tv52/bant1/playlist.m3u8'
TV100='https://tv100.blutv.com/blutv_tv100_live/live.m3u8'
TV264='https://b01c02nl.mediatriple.net/videoonlylive/mtdxkkitgbrckilive/broadcast_5ee244263fd6d.smil/playlist.m3u8'
TVDen='http://canli.tvden.com.tr/hls/live.m3u8'
TVEm1='https://cdn-tvem.yayin.com.tr/TVEM/TVEM/playlist.m3u8'
TVEm='https://cdn.yayin.com.tr/TVEM/TVEM/chunklist.m3u8'
TVnet='https://mn-nl.mncdn.com/tvnet/tvnet/chunklist.m3u8'
UçanKuşTV='https://ucankus-live.cdnnew.com/ucankus/ucankus.m3u8'
ÜlkeTV='https://mn-nl.mncdn.com/blutv_ulketv2/live.m3u8'
UlusalKanal='https://stream.guventechnology.com:19360/ulusaltv/ulusaltv.m3u8'
ÜniversiteTV='https://vdo.digitalbox.xyz:3986/live/unitvlive.m3u8'
ÜÜTV1='https://uskudarunv.mediatriple.net/uskudarunv/uskudar1/playlist.m3u8'
ÜÜTVÜsküdarÜniversitesiTV='https://uskudarunv.mediatriple.net/uskudarunv/uskudar2/playlist.m3u8'
Vizyon58TV='https://live.artidijitalmedya.com/artidijital_vizyon58/vizyon58/playlist.m3u8'
VTV='https://live.artidijitalmedya.com/artidijital_kanalv/kanalv/playlist.m3u8'
VuslatTV1='http://yayin3.canlitv.com:1935/live/vuslattv/HasBahCa.m3u8'
VuslatTV2='http://yayin3.canlitv.com:1935/live/vuslattv/playlist.m3u8'
VuslatTV3='https://59cba4d34b678.streamlock.net/live/vuslattv/playlist.m3u8'
VuslatTV='https://live.artidijitalmedya.com/artidijital_vuslattv/vuslattv/playlist.m3u8'
WomanTV='https://embedlp.becdn.net/womantv.m3u8'
YolTV='https://stream.yol.tv:9443/medialive/yol.m3u8'
