France24French1='http://81.94.196.204/tsstreamer/France24_HD.ts'
France24French='http://81.94.196.204/tsstreamer/France24_SD.ts'
Hellenic='http://188.227.164.31/tsstreamer/Hellenic_SD.ts'
NTD1='http://5.152.223.78/tsstreamer/NTD_SD.ts'
NTD='http://78.129.193.20/tsstreamer/NTD_SD.ts'
TVP='http://78.129.193.20/tsstreamer/TVP_SD.ts'
VoxAfrica='http://188.227.164.31/tsstreamer/VoxAfrica_SD.ts'
НастоящееВремя1='http://81.94.196.204/tsstreamer/CurrentTime_HD.ts'
НастоящееВремя='http://81.94.196.204/tsstreamer/CurrentTime_SD.ts'
