AdultIPTV.netAnal='https://cdn.adultiptv.net/anal.m3u8'
AdultIPTV.netAsian='https://cdn.adultiptv.net/asian.m3u8'
AdultIPTV.netBigAss='https://cdn.adultiptv.net/bigass.m3u8'
AdultIPTV.netBigDick='https://cdn.adultiptv.net/bigdick.m3u8'
AdultIPTV.netBigTits='https://cdn.adultiptv.net/bigtits.m3u8'
AdultIPTV.netBlonde='https://cdn.adultiptv.net/blonde.m3u8'
AdultIPTV.netBlowjob='https://cdn.adultiptv.net/blowjob.m3u8'
AdultIPTV.netBrunette='https://cdn.adultiptv.net/brunette.m3u8'
AdultIPTV.netCompilation='https://cdn.adultiptv.net/compilation.m3u8'
AdultIPTV.netCuckold='https://cdn.adultiptv.net/cuckold.m3u8'
AdultIPTV.netFetish='https://cdn.adultiptv.net/fetish.m3u8'
AdultIPTV.netGangbang='https://cdn.adultiptv.net/gangbang.m3u8'
AdultIPTV.netGay='https://cdn.adultiptv.net/gay.m3u8'
AdultIPTV.netHardcore='https://cdn.adultiptv.net/hardcore.m3u8'
AdultIPTV.netInterracial='https://cdn.adultiptv.net/interracial.m3u8'
AdultIPTV.netLatina='https://cdn.adultiptv.net/latina.m3u8'
AdultIPTV.netLesbian='https://cdn.adultiptv.net/lesbian.m3u8'
AdultIPTV.netLiveCams='https://cdn.adultiptv.net/livecams.m3u8'
AdultIPTV.netMILF='https://cdn.adultiptv.net/milf.m3u8'
AdultIPTV.netPornstar='https://cdn.adultiptv.net/pornstar.m3u8'
AdultIPTV.netPOV='https://cdn.adultiptv.net/pov.m3u8'
AdultIPTV.netRough='https://cdn.adultiptv.net/rough.m3u8'
AdultIPTV.netRussian='https://cdn.adultiptv.net/russian.m3u8'
AdultIPTV.netTeen='https://cdn.adultiptv.net/teen.m3u8'
AdultIPTV.netThreesome='https://cdn.adultiptv.net/threesome.m3u8'
