AccionMexicana='https://stream.ads.ottera.tv/playlist.m3u8?network_id=1153'
CanelaClasicos='https://stream.ads.ottera.tv/playlist.m3u8?network_id=652'
CanelaHits='https://stream.ads.ottera.tv/playlist.m3u8?network_id=1058'
CanelaKids='https://stream.ads.ottera.tv/playlist.m3u8?network_id=654'
CanelaMusicPresents='https://stream.ads.ottera.tv/playlist.m3u8?network_id=2548'
CanelaTelenovelas='https://stream.ads.ottera.tv/playlist.m3u8?network_id=1152'
CanelaTV='https://stream.ads.ottera.tv/playlist.m3u8?network_id=119'
ChillLatino='https://stream.ads.ottera.tv/playlist.m3u8?network_id=1085'
CineRomantico='https://stream.ads.ottera.tv/playlist.m3u8?network_id=656'
CombateGlobal='https://stream.ads.ottera.tv/playlist.m3u8?network_id=960'
ElRey='https://stream.ads.ottera.tv/playlist.m3u8?network_id=1544'
ElTalisman='https://stream.ads.ottera.tv/playlist.m3u8?network_id=1079'
FlouCine='https://amg01768-flou-flou-canelatv-yri41.amagi.tv/playlist/amg01768-flou-flou-canelatv/playlist.m3u8'
FlowCaribe='https://stream.ads.ottera.tv/playlist.m3u8?network_id=1083'
HazClic!='https://stream.ads.ottera.tv/playlist.m3u8?network_id=4310'
ITVDeportes='https://stream.ads.ottera.tv/playlist.m3u8?network_id=3010'
MundoPequeño='https://stream.ads.ottera.tv/playlist.m3u8?network_id=3366'
NovelasTurcas='https://stream.ads.ottera.tv/playlist.m3u8?network_id=5088'
Novelisima='https://stream.ads.ottera.tv/playlist.m3u8?network_id=2380'
PlanetadeAventuras='https://stream.ads.ottera.tv/playlist.m3u8?network_id=4311'
PuroRomance='https://stream.ads.ottera.tv/playlist.m3u8?network_id=1082'
RealMadrid='https://stream.ads.ottera.tv/playlist.m3u8?network_id=1545'
RegionalMX='https://stream.ads.ottera.tv/playlist.m3u8?network_id=1084'
RitmosInolvidables='https://stream.ads.ottera.tv/playlist.m3u8?network_id=1081'
SonyCanalNovelas='https://a89829b8dca2471ab52ea9a57bc28a35.mediatailor.us-east-1.amazonaws.com/v1/master/0fb304b2320b25f067414d481a779b77db81760d/CanelaTV_SonyCanalNovelas/playlist.m3u8'
TierraDeAmorYVenganza='https://stream.ads.ottera.tv/playlist.m3u8?network_id=1080'
ToonGogglesenEspanol='https://stream.ads.ottera.tv/playlist.m3u8?network_id=771'
TuPopFavorito='https://stream.ads.ottera.tv/playlist.m3u8?network_id=1086'
ZonadeAcción='https://stream.ads.ottera.tv/playlist.m3u8?network_id=4312'
