Journy1='https://linear-291.frequency.stream/dist/ovationtv/291/hls/master/playlist.m3u8'
Journy='https://linear-291.frequency.stream/mt/ovationtv/291/hls/master/playlist.m3u8'
Newsy='https://linear-460.frequency.stream/dist/vix/460/hls/master/playlist.m3u8'
RevryQueer1='https://linear-43.frequency.stream/dist/galxy/43/hls/master/playlist.m3u8'
RevryQueer='https://linear-43.frequency.stream/mt/galxy/43/hls/master/playlist.m3u8'
