CampusLore='https://linear-235.frequency.stream/dist/glewedtv/235/hls/master/playlist.m3u8'
Choppertown='https://linear-11.frequency.stream/dist/glewedtv/11/hls/master/playlist.m3u8'
DeFianceMedia='https://amg01529-defiancetv-defiancemedia-glewed-tre8x.amagi.tv/playlist.m3u8'
EstrellaNews='https://estrellanews-glewed.amagi.tv/playlist.m3u8'
EstrellaTV='https://estrellatv-glewed.amagi.tv/playlist.m3u8'
PursuitUP='https://linear-205.frequency.stream/dist/glewedtv/205/hls/master/playlist.m3u8'
SwerveSports='https://linear-253.frequency.stream/dist/glewedtv/253/hls/master/playlist.m3u8'
TrueHistory='https://linear-188.frequency.stream/dist/glewedtv/188/hls/master/playlist.m3u8'
