ArkansasPBS='https://ketsdt.lls.pbs.org/out/v1/03c094dbd7874a4a8c3fe9fb10081bdb/index.m3u8'
PBSHonoluluHI='https://khetdt.lls.pbs.org/out/v1/7ec7903413294b72bb64f83963d8ea9b/index.m3u8'
PBSKET2='https://2-fss-2.streamhoster.com/pl_140/amlst:200914-1315484/playlist.m3u8'
PBSKETKY='https://2-fss-2.streamhoster.com/pl_132/amlst:200914-1315486/playlist.m3u8'
PBSKETLouisvilleKY='https://2-fss-1.streamhoster.com/pl_134/amlst:200914-1282960/playlist.m3u8'
PBSKETWorld='https://2-fss-1.streamhoster.com/pl_122/amlst:200914-2942150/playlist.m3u8'
PBSKidsAlaska='https://livestream.pbskids.org/out/v1/2963202df0c142c69b5254a546473308/akst.m3u8'
PBSKidsEastern/Central='https://2-fss-2.streamhoster.com/pl_140/amlst:200914-1298290/playlist.m3u8'
PBSKidsHawaii='https://livestream.pbskids.org/out/v1/19d1d62bf61b4aea9ec20f83b6450a4e/hast.m3u8'
PBSKidsMountain='https://livestream.pbskids.org/out/v1/00a3b9014fa54c40bee6ca68a104a8a4/mst.m3u8'
PBSKidsPacific='https://livestream.pbskids.org/out/v1/c707b9310f2848de849b336f9914adbc/pst.m3u8'
PBSLincolnNE='https://kuondt.lls.pbs.org/out/v1/91d8b5ffc5c1453c8a621508a07749a6/index.m3u8'
PBSMPTBaltimoreMD='https://2-fss-2.streamhoster.com/pl_138/amlst:201814-1291584/playlist.m3u8'
PBSNationalEast='https://pbs.lls.cdn.pbs.org/est/index.m3u8'
PBSNationalWest='https://pbs.lls.cdn.pbs.org/pst/index.m3u8'
PBSNewJerseyNJ='https://wnjtdt.lls.pbs.org/out/v1/e62efd8d4f92403996425fc389df0ffd/index.m3u8'
PBSNewYorkNY='https://wnetdt.lls.pbs.org/out/v1/0456457548354b88b32fc437e4e7ee01/index.m3u8'
WMPT-DT2='https://2-fss-1.streamhoster.com/pl_122/amlst:201814-2122456/playlist.m3u8'
