AccuWeatherNow='https://amg00684-accuweather-accuweather-rokuus-0endj.amagi.tv/playlist.m3u8'
AFV='https://linear-12.frequency.stream/dist/roku/12/hls/master/playlist.m3u8'
AFVenEspañol='https://linear-46.frequency.stream/dist/roku/46/hls/master/playlist.m3u8'
America'sVoice='https://p1media-americasvoice-1.roku.wurl.com/manifest/playlist.m3u8'
BloodyDisgusting='https://bloodydisgusting-ingest-roku-us.cinedigm.com/playlist.m3u8'
Buzzr='https://buzzr-roku-us.amagi.tv/playlist.m3u8'
CheddarNews1='https://cheddar-cheddar-3.roku.wurl.com/manifest/playlist.m3u8'
CheddarNews='https://cheddar.roku.wurl.com/manifest/playlist.m3u8'
CineSureño='https://olympusamagi.pc.cdn.bitgravity.com/CineSureno-roku/master.m3u8'
CinevaultWesterns='https://20995731713c495289784ab260b3c830.mediatailor.us-east-1.amazonaws.com/v1/master/44f73ba4d03e9607dcd9bebdcb8494d86964f1d8/Roku_CinevaultWesterns/playlist.m3u8'
Circle='https://circle-roku.amagi.tv/playlist.m3u8'
Cocoro='https://4ea7abcc97144832b81dc50c6e8d6330.mediatailor.us-east-1.amazonaws.com/v1/master/44f73ba4d03e9607dcd9bebdcb8494d86964f1d8/Roku_Cocoro/playlist.m3u8'
CONtvAnime='https://contvanime-roku-ingest.cinedigm.com/master.m3u8'
DoveChannel='https://dovenow-roku-ingest.cinedigm.com/master.m3u8'
EstrellaNews='https://estrellanews-roku.amagi.tv/playlist.m3u8'
EstrellaTVEast='https://estrellatv-roku.amagi.tv/playlist.m3u8'
FoxSoul='https://fox-foxsoul-roku.amagi.tv/playlist.m3u8'
FTF='https://eleven-rebroadcast-samsung.roku.wurl.com/manifest/playlist.m3u8'
Hi-YAH!='https://linear-59.frequency.stream/dist/roku/59/hls/master/playlist.m3u8'
Horrify='https://olympusamagi.pc.cdn.bitgravity.com/Horrify-roku/master.m3u8'
iFood.TV='https://ft-ifood-roku.amagi.tv/playlist.m3u8'
iHeart80s='https://iheart-iheart80s-1-us.roku.wurl.tv/playlist.m3u8'
iHeart90s='https://iheart-iheart90s-1-us.roku.wurl.tv/playlist.m3u8'
Juntos='https://olympusamagi.pc.cdn.bitgravity.com/Juntos-roku/master.m3u8'
MoonbugKids='https://moonbug-rokuus.amagi.tv/playlist.m3u8'
MovieSphere1='https://moviesphere-roku.amagi.tv/hls/amagi_hls_data_lionsgate-moviesphere-roku-us/CDN/playlist.m3u8'
MovieSphere='https://moviesphere-roku.amagi.tv/playlist.m3u8'
MST3K='https://mst3k-roku.amagi.tv/playlist.m3u8'
MyTimeMovieNetwork='https://mytime-roku-ingest.cinedigm.com/playlist.m3u8'
NewKidTV='https://b9860b21629b415987978bdbbfbc3095.mediatailor.us-east-1.amazonaws.com/v1/master/44f73ba4d03e9607dcd9bebdcb8494d86964f1d8/Roku_NewKID/playlist.m3u8'
OAN='https://oneamericanews-roku-us.amagi.tv/playlist.m3u8'
OutsideTV='https://outsidetv-roku-us.amagi.tv/hls/amagi_hls_data_outsidetv-outsidetv/CDN/playlist.m3u8'
Pac12Insider='https://pac12-roku-us.amagi.tv/playlist.m3u8'
PlayersTV='https://playerstv-roku-us.amagi.tv/playlist.m3u8'
RCNMas='https://rcntv-rcnmas-1-us.roku.wurl.tv/playlist.m3u8'
TastemadeenEspañol='https://tastemade-es8intl-roku.amagi.tv/playlist.m3u8'
TheCarolBurnettShow='https://carolburnett-roku.amagi.tv/playlist.m3u8'
TheCraftistry='https://studio71-craftistry-roku.amagi.tv/playlist.m3u8'
TopCine='https://olympusamagi.pc.cdn.bitgravity.com/TopCine-roku/master.m3u8'
WeatherNation='https://weathernationtv.roku.wurl.com/manifest/playlist.m3u8'
WRACanal10='https://streamtv.intervenhosting.net:3582/live/wadydelrosariolive.m3u8'
Xplore='https://xplore-roku.amagi.tv/playlist.m3u8'
Yahoo!Finance='https://yahoo-roku-us.amagi.tv/playlist.m3u8'
