BloodyDisgusting='https://bloodydisgusting-tcl.amagi.tv/playlist.m3u8'
ComedyDynamics='https://comedydynamics-tcl.amagi.tv/playlist.m3u8'
Docurama='https://docurama-tcl.amagi.tv/playlist.m3u8'
DoveChannel='https://dovenow-tcl.amagi.tv/playlist.m3u8'
So...Real='https://soreal-tcl.amagi.tv/playlist.m3u8'
Unbeaten='https://unbeaten-tcl.amagi.tv/playlist.m3u8'
YoungHollywood='https://younghollywood-tcl.amagi.tv/playlist.m3u8'
