LaRed='https://stm1.rootuy.xyz:19360/sdredtv/sdredtv.m3u8'
LatinoKids='https://6362ca6f1fc28.streamlock.net/8062/8062/playlist.m3u8'
MisiónVidaTV='https://59825a54e4454.streamlock.net:8443/jorge854/jorge854/playlist.m3u8'
Tele8Mercedes='http://online.familylatinatv.com:88/live/5de910ea0ec86/index.m3u8'
TVFlorida='https://nextpanel.net/memfs/00849009-8237-4bd1-83fc-531ac1e27189.m3u8'
UCL='https://livedelta.cdn.antel.net.uy/out/u/url_canalu.m3u8'
VIVOTV='https://stream.vivotv.uy/hls/stream.m3u8'
