ANTV='https://liveh34.vtvcab.vn/hls/ONANTV_CL/04.m3u8'
AXN='http://vthanhtivi.pw:5000/axn/index.m3u8'
BacKanTV='http://123.31.36.68/live.m3u8?c=vstv360&deviceId=&deviceType=&gcId=1532&location=NA&pkg=pkg11.hni&q=high&requestTime=1586309420781&time=1586395820&token=LX-ibJYRUq9pflRtYAxfYQ&type=tv&userId='
BacLieuTV='https://tv.thbl.vn/live/tv/tv.m3u8'
BacNinhTV='https://stream.thingnet.vn/live/smil:BTV.smil/playlist.m3u8'
BRT='http://113.163.216.23:1935/live/ngrp:tv2.stream_all/playlist.m3u8'
CàMauTV='https://tv.ctvcamau.vn/live/tv/tv.m3u8'
CaoBangTV='http://118.107.85.4:1935/live/smil:CRTV.smil/playlist.m3u8'
DaNangTV1='http://drtdnglive.e49a7c38.cdnviet.com/livedrt1/chunklist.m3u8'
DaNangTV2='http://drtdnglive.e49a7c38.cdnviet.com/livestream/chunklist.m3u8'
DhammasaphaTV='https://livefta.malimarcdn.com/ftaedge00/dhammasapha.stream/playlist.m3u8'
DienBienTV='https://truyenhinh.vnptvas.vn/live.m3u8?c=vstv362&deviceId=&deviceType=&gcId=1532&location=NA&pkg=pkg11.hni&q=high&requestTime=1586309420781&time=1586395820&token=LX-ibJYRUq9pflRtYAxfYQ&type=tv&userId='
ĐồngNai1='http://118.107.85.4:1935/live/smil:DNTV1.smil/playlist.m3u8'
ĐồngNai2='http://118.107.85.4:1935/live/smil:DNTV2.smil/playlist.m3u8'
DongThapTV='https://618b88f69e53b.streamlock.net/THDT/thdttv/playlist.m3u8'
GiaLaiTV='http://113.161.25.3:8134/hls/gialaitv/gialaitv.m3u8'
HaGiangTV='http://123.31.36.68/live.m3u8?c=vstv365&deviceId=&deviceType=&gcId=1532&location=NA&pkg=pkg11.hni&q=high&requestTime=1586309420781&time=1586395820&token=LX-ibJYRUq9pflRtYAxfYQ&type=tv&userId='
HaTinhTV='https://wse.hatinhtv.net/live/httv1/playlist.m3u8'
HanoiTV1='https://cecex9g5cpliv.vcdn.cloud/capture/smil:HN1.smil/playlist.m3u8'
HanoiTV2='https://cecex9g5cpliv.vcdn.cloud/live/smil:HN2.smil/playlist.m3u8'
HauGiangTV='https://60acee235f4d5.streamlock.net/HGTV/d1/playlist.m3u8'
HBTV1='http://hoabinhtvlive.746b3ddb.cdnviet.com/hoabinhtv/playlist.m3u8'
HBTV='https://hbtvlive.3ssoft.vn/hoabinhtv/playlist.m3u8'
KhanhHoaTV='http://210.245.20.94/hls/ktv1.m3u8'
KienGiangTV='https://tv.kgtv.vn/live/kgtv/kgtv.m3u8'
KienGiangTV1='https://tv.kgtv.vn/live/kgtv1/kgtv1.m3u8'
KonTumTV='https://tv.kontumtv.vn/live/kontumtv/kontumtv.m3u8'
LamDongTV='http://118.107.85.5:1935/live/smil:LTV.smil/playlist.m3u8'
LaoCaiTV='https://cdn.3ssoft.vn/livetv/laocaitv/laocaitv/index.m3u8'
LaoChampaTV1='https://livefta.malimarcdn.com/ftaedge00/laochampa1.sdp/playlist.m3u8'
LaoHeritageFoundationTV='https://livefta.malimarcdn.com/ftaedge00/laoheritagetv.sdp/playlist.m3u8'
LaoNetTV='https://livefta.malimarcdn.com/ftaedge00/laonet.sdp/playlist.m3u8'
LaoSVTV='https://livefta.malimarcdn.com/ftaedge00/laosvtv.stream/playlist.m3u8'
LittleSaigonTV='https://media.streambrothers.com:1936/8228/8228/playlist.m3u8'
NhanDanTV='https://video.nhandan.thienvietjsc.net/live/nhandan720/playlist.m3u8'
NingTV='https://livefta.malimarcdn.com/ftaedge00/ningtv.sdp/playlist.m3u8'
NinhThuanTV='https://60acee235f4d5.streamlock.net/live/mystream/playlist.m3u8'
PhuYenTV='http://113.161.4.48:8080/phuyen/tv/index.m3u8'
PNTV='https://livefta.malimarcdn.com/ftaedge00/pntv.sdp/playlist.m3u8'
QPVN='http://27.76.137.122:1935/standard/smil:standard.smil/playlist.m3u8'
QuangNgaiTV='http://118.107.85.5:1935/live/smil:PTQ.smil/playlist.m3u8'
QuốcHội1='http://113.164.225.140:1935/live/quochoitvlive.stream/playlist.m3u8'
QuốcHội='https://cloudvodqh.tek4tv.vn/live/quochoi_abr.m3u8'
SCTV1='https://code.vthanhtivi.pw/getlink/sctvonline/sctv1/playlist.m3u8'
SCTV2='https://code.vthanhtivi.pw/getlink/sctvonline/sctv2/playlist.m3u8'
SCTV3='https://code.vthanhtivi.pw/getlink/sctvonline/sctv3/playlist.m3u8'
SCTV4='https://code.vthanhtivi.pw/getlink/sctvonline/sctv4/playlist.m3u8'
SCTV5='https://code.vthanhtivi.pw/getlink/sctvonline/sctv5/playlist.m3u8'
SCTV6='https://code.vthanhtivi.pw/getlink/tv360/ZgVzbvEDMkaZYK0hy5QBwQ/1703136086/232/playlist.m3u8'
SCTV7='https://code.vthanhtivi.pw/getlink/sctvonline/sctv7/playlist.m3u8'
SCTV8='https://code.vthanhtivi.pw/getlink/sctvonline/sctv8/playlist.m3u8'
SCTV9='https://code.vthanhtivi.pw/getlink/sctvonline/sctv9/playlist.m3u8'
SCTV10='https://code.vthanhtivi.pw/getlink/sctvonline/sctv10/playlist.m3u8'
SCTV11='https://code.vthanhtivi.pw/getlink/sctvonline/sctv11/playlist.m3u8'
SCTV12='https://code.vthanhtivi.pw/getlink/sctvonline/sctv12/playlist.m3u8'
SCTV13='https://code.vthanhtivi.pw/getlink/sctvonline/sctv13/playlist.m3u8'
SCTV14='https://code.vthanhtivi.pw/getlink/sctvonline/sctv14/playlist.m3u8'
SCTV15='https://code.vthanhtivi.pw/getlink/sctvonline/sctv15/playlist.m3u8'
SCTV16='https://code.vthanhtivi.pw/getlink/sctvonline/sctv16/playlist.m3u8'
SCTV17='https://code.vthanhtivi.pw/getlink/sctvonline/sctv17/playlist.m3u8'
SCTV18='https://code.vthanhtivi.pw/getlink/sctvonline/sctv18/playlist.m3u8'
SCTV19='https://code.vthanhtivi.pw/getlink/sctvonline/sctv19/playlist.m3u8'
SCTV20='https://code.vthanhtivi.pw/getlink/sctvonline/sctv20/playlist.m3u8'
SCTV21='https://code.vthanhtivi.pw/getlink/sctvonline/sctv21/playlist.m3u8'
SCTV22='https://code.vthanhtivi.pw/getlink/sctvonline/sctv22/playlist.m3u8'
SCTVPhimTổngHợp='https://code.vthanhtivi.pw/getlink/sctvonline/sctvpth/playlist.m3u8'
SETTV1='https://5dcab9aed5331.streamlock.net/SET1/livestream/playlist.m3u8'
SETTV2='https://5dcabf026b188.streamlock.net/SET22/livestream/playlist.m3u8'
SupremeMasterTV='https://lbs-us1.suprememastertv.com/720p.m3u8'
TeaTV='https://livefta.malimarcdn.com/ftaedge00/teatv.sdp/playlist.m3u8'
TeaTV2='https://livefta.malimarcdn.com/ftaedge00/teatv2.sdp/playlist.m3u8'
ThaiNguyenTV='https://streaming.thainguyentv.vn/hls/livestream.m3u8'
ThuaThienHueTV='https://live.trt.com.vn/TRT-Online/playlist.m3u8'
TienGiang='http://thtg.vn:8001/thtg.m3u8'
TraVinhTV='https://60acee235f4d5.streamlock.net/THTV/travinhtv/playlist.m3u8'
TraVinhTV2='https://618b88f69e53b.streamlock.net/THTV2/travinhtv2/playlist.m3u8'
UniquelyThai='https://livefta.malimarcdn.com/ftaedge00/uniquely.sdp/playlist.m3u8'
VNews='https://zjizeoupprliv.vcdn.cloud/live/smil:vnews.smil/playlist.m3u8'
VinhPhucTV='http://vinhphuctv.vn:8090/vinhphuclive/web.stream/playlist.m3u8'
VOVTV='https://live.mediatech.vn/live/285fbc845578c6641d5a4c40534a0d1864b/playlist.m3u8'
VTV1='https://code.vthanhtivi.pw/getlink/tv360/jVDsoVLo5bOadF85xoCADA/1703112695/2/playlist.m3u8'
VTV2='https://code.vthanhtivi.pw/getlink/tv360/61Wz3kqiSswVJelJ341e_Q/1703112695/3/playlist.m3u8'
VTV3='https://code.vthanhtivi.pw/getlink/tv360/BCG35YDyyWW5Jtah0tlteQ/1703112695/4/playlist.m3u8'
VTV4='https://code.vthanhtivi.pw/getlink/tv360/QAbMGHDrIJQuFqBbDa4t5g/1703112695/108/playlist.m3u8'
VTV5='https://liveh12.vtvcab.vn/hls/ONVTV5_CL/04.m3u8'
VTV5TâyNamBộ='https://liveh12.vtvcab.vn/hls/ONVTV5TNB_CL/04.m3u8'
VTV5TâyNguyên='https://code.vthanhtivi.pw/getlink/tv360/D4tk_f8t_O_x_licrC6w6A/1703112695/207/playlist.m3u8'
VTV7='https://code.vthanhtivi.pw/getlink/tv360/9LzwDV0P_2EWifJDyjfIfg/1703112695/6/playlist.m3u8'
VTV8='https://code.vthanhtivi.pw/getlink/tv360/TlwS1PT59qPMHSJnBVNFWw/1703112695/115/playlist.m3u8'
VTV9='https://code.vthanhtivi.pw/getlink/tv360/M0He0D8y0BUpoPHcz-Is-A/1703112695/8/playlist.m3u8'
VTVCầnThơ='https://code.vthanhtivi.pw/getlink/tv360/-VlG3Kl34fpGmcj0OpXJXw/1703112695/98/playlist.m3u8'
